AWSTATS DATA FILE 7.7 (build 20180105)
# If you remove this file, all statistics for date 201906 will be lost/reset.
# Last config file used to build this data file was /home2/fyfxamvcmvss/tmp/awstats/ssl/awstats.randholeeresort.freudenbergleisure.com.conf.

# Position (offset in bytes) in this file for beginning of each section for
# direct I/O access. If you made changes somewhere in this file, you should
# also remove completely the MAP section (AWStats will rewrite it at next
# update).
BEGIN_MAP 28
POS_GENERAL 2044                
POS_TIME 2689                
POS_VISITOR 5649                
POS_DAY 5721                
POS_DOMAIN 3206                
POS_LOGIN 3417                
POS_ROBOT 3572                
POS_WORMS 3752                
POS_EMAILSENDER 3883                
POS_EMAILRECEIVER 4026                
POS_SESSION 5777                
POS_SIDER 5914                
POS_FILETYPES 4161                
POS_DOWNLOADS 4225                
POS_OS 4273                
POS_BROWSER 4338                
POS_SCREENSIZE 4388                
POS_UNKNOWNREFERER 4462                
POS_UNKNOWNREFERERBROWSER 4549                
POS_ORIGIN 4631                
POS_SEREFERRALS 4761                
POS_PAGEREFS 4905                
POS_SEARCHWORDS 5053                
POS_KEYWORDS 5205                
POS_MISC 2353                
POS_ERRORS 5264                
POS_CLUSTER 3273                
POS_SIDER_404 5340                
END_MAP

# LastLine    = Date of last record processed - Last record line number in last log - Last record offset in last log - Last record signature value
# FirstTime   = Date of first visit for history file
# LastTime    = Date of last visit for history file
# LastUpdate  = Date of last update - Nb of parsed records - Nb of parsed old records - Nb of parsed new records - Nb of parsed corrupted - Nb of parsed dropped
# TotalVisits = Number of visits
# TotalUnique = Number of unique visitors
# MonthHostsKnown   = Number of hosts known
# MonthHostsUnKnown = Number of hosts unknown
BEGIN_GENERAL 8
LastLine 20190702214110 1 0 7872822987457
FirstTime 0
LastTime 0
LastUpdate 20190703175408 1 0 0 0 0
TotalVisits 0                   
TotalUnique 0                   
MonthHostsKnown 0                   
MonthHostsUnknown 0                   
END_GENERAL

# Misc ID - Pages - Hits - Bandwidth
BEGIN_MISC 10
JavascriptDisabled 0 0 0
QuickTimeSupport 0 0 0
DirectorSupport 0 0 0
FlashSupport 0 0 0
TotalMisc 0 0 0
PDFSupport 0 0 0
JavaEnabled 0 0 0
RealPlayerSupport 0 0 0
WindowsMediaPlayerSupport 0 0 0
AddToFavourites 0 0 0
END_MISC

# Hour - Pages - Hits - Bandwidth - Not viewed Pages - Not viewed Hits - Not viewed Bandwidth
BEGIN_TIME 24
0 0 0 0 0 0 0
1 0 0 0 0 0 0
2 0 0 0 1 1 32461
3 0 0 0 0 0 0
4 0 0 0 2 2 64930
5 0 0 0 0 0 0
6 0 0 0 1 1 32461
7 0 0 0 0 0 0
8 0 0 0 3 3 97391
9 0 0 0 0 0 0
10 0 0 0 1 1 32461
11 0 0 0 0 0 0
12 0 0 0 1 1 32465
13 0 0 0 0 0 0
14 0 0 0 0 0 0
15 0 0 0 0 0 0
16 0 0 0 1 1 32465
17 0 0 0 0 0 0
18 0 0 0 0 0 0
19 0 0 0 1 1 32461
20 0 0 0 0 0 0
21 0 0 0 1 1 32461
22 0 0 0 1 1 32461
23 0 0 0 0 0 0
END_TIME

# Domain - Pages - Hits - Bandwidth
# The 25 first Pages must be first (order not required for others)
BEGIN_DOMAIN 0
END_DOMAIN

# Cluster ID - Pages - Hits - Bandwidth
BEGIN_CLUSTER 0
END_CLUSTER

# Login - Pages - Hits - Bandwidth - Last visit
# The 10 first Pages must be first (order not required for others)
BEGIN_LOGIN 0
END_LOGIN

# Robot ID - Hits - Bandwidth - Last visit - Hits on robots.txt
# The 25 first Hits must be first (order not required for others)
BEGIN_ROBOT 1
bot[\s_+:,\.\;\/\\-] 13 422017 20190629085010 0
END_ROBOT

# Worm ID - Hits - Bandwidth - Last visit
# The 5 first Hits must be first (order not required for others)
BEGIN_WORMS 0
END_WORMS

# EMail - Hits - Bandwidth - Last visit
# The 20 first Hits must be first (order not required for others)
BEGIN_EMAILSENDER 0
END_EMAILSENDER

# EMail - Hits - Bandwidth - Last visit
# The 20 first hits must be first (order not required for others)
BEGIN_EMAILRECEIVER 0
END_EMAILRECEIVER

# Files type - Hits - Bandwidth - Bandwidth without compression - Bandwidth after compression
BEGIN_FILETYPES 0
END_FILETYPES

# Downloads - Hits - Bandwidth
BEGIN_DOWNLOADS 0
END_DOWNLOADS

# OS ID - Hits
BEGIN_OS ID - Hits - Pages 0
END_OS

# Browser ID - Hits - Pages
BEGIN_BROWSER 0
END_BROWSER

# Screen size - Hits
BEGIN_SCREENSIZE 0
END_SCREENSIZE

# Unknown referer OS - Last visit date
BEGIN_UNKNOWNREFERER 0
END_UNKNOWNREFERER

# Unknown referer Browser - Last visit date
BEGIN_UNKNOWNREFERERBROWSER 0
END_UNKNOWNREFERERBROWSER

# Origin - Pages - Hits 
BEGIN_ORIGIN 6
From0 0 0
From1 0 0
From2 0 0
From3 0 0
From4 0 0
From5 0 0
END_ORIGIN

# Search engine referers ID - Pages - Hits
BEGIN_SEREFERRALS 0
END_SEREFERRALS

# External page referers - Pages - Hits
# The 25 first Pages must be first (order not required for others)
BEGIN_PAGEREFS 0
END_PAGEREFS

# Search keyphrases - Number of search
# The 10 first number of search must be first (order not required for others)
BEGIN_SEARCHWORDS 0
END_SEARCHWORDS

# Search keywords - Number of search
# The 25 first number of search must be first (order not required for others)
BEGIN_KEYWORDS 0
END_KEYWORDS

# Errors - Hits - Bandwidth
BEGIN_ERRORS 0
END_ERRORS

# URL with 404 errors - Hits - Last URL referrer
BEGIN_SIDER_404 0
END_SIDER_404

# Host - Pages - Hits - Bandwidth - Last visit date - [Start date of last visit] - [Last page of last visit]
# [Start date of last visit] and [Last page of last visit] are saved only if session is not finished
# The 25 first Hits must be first (order not required for others)
BEGIN_VISITOR 0
END_VISITOR

# Date - Pages - Hits - Bandwidth - Visits
BEGIN_DAY 0
END_DAY

# Session range - Number of visits
BEGIN_SESSION 0
END_SESSION

# URL - Pages - Bandwidth - Entry - Exit
# The 25 first Pages must be first (order not required for others)
BEGIN_SIDER 0
END_SIDER
