AWSTATS DATA FILE 7.7 (build 20180105)
# If you remove this file, all statistics for date 201809 will be lost/reset.
# Last config file used to build this data file was /home2/fyfxamvcmvss/tmp/awstats/ssl/awstats.freudenbergleisure.com.conf.

# Position (offset in bytes) in this file for beginning of each section for
# direct I/O access. If you made changes somewhere in this file, you should
# also remove completely the MAP section (AWStats will rewrite it at next
# update).
BEGIN_MAP 28
POS_GENERAL 2028                
POS_TIME 2700                
POS_VISITOR 5938                
POS_DAY 6256                
POS_DOMAIN 3194                
POS_LOGIN 3419                
POS_ROBOT 3574                
POS_WORMS 3706                
POS_EMAILSENDER 3837                
POS_EMAILRECEIVER 3980                
POS_SESSION 6397                
POS_SIDER 6543                
POS_FILETYPES 4115                
POS_DOWNLOADS 4228                
POS_OS 4276                
POS_BROWSER 4375                
POS_SCREENSIZE 4483                
POS_UNKNOWNREFERER 4557                
POS_UNKNOWNREFERERBROWSER 4806                
POS_ORIGIN 4920                
POS_SEREFERRALS 5050                
POS_PAGEREFS 5194                
POS_SEARCHWORDS 5342                
POS_KEYWORDS 5494                
POS_MISC 2364                
POS_ERRORS 5553                
POS_CLUSTER 3275                
POS_SIDER_404 5629                
END_MAP

# LastLine    = Date of last record processed - Last record line number in last log - Last record offset in last log - Last record signature value
# FirstTime   = Date of first visit for history file
# LastTime    = Date of last visit for history file
# LastUpdate  = Date of last update - Nb of parsed records - Nb of parsed old records - Nb of parsed new records - Nb of parsed corrupted - Nb of parsed dropped
# TotalVisits = Number of visits
# TotalUnique = Number of unique visitors
# MonthHostsKnown   = Number of hosts known
# MonthHostsUnKnown = Number of hosts unknown
BEGIN_GENERAL 8
LastLine 20181004075748 1 0 16742687305483
FirstTime 20180901233148
LastTime 20180926092010
LastUpdate 20181004174339 1 0 0 0 0
TotalVisits 2                   
TotalUnique 2                   
MonthHostsKnown 0                   
MonthHostsUnknown 9                   
END_GENERAL

# Misc ID - Pages - Hits - Bandwidth
BEGIN_MISC 10
WindowsMediaPlayerSupport 0 0 0
JavaEnabled 0 0 0
QuickTimeSupport 0 0 0
TotalMisc 0 0 0
JavascriptDisabled 0 0 0
PDFSupport 0 0 0
AddToFavourites 0 0 0
FlashSupport 0 0 0
DirectorSupport 0 0 0
RealPlayerSupport 0 0 0
END_MISC

# Hour - Pages - Hits - Bandwidth - Not viewed Pages - Not viewed Hits - Not viewed Bandwidth
BEGIN_TIME 24
0 0 0 0 0 0 0
1 0 0 0 0 0 0
2 0 0 0 0 0 0
3 0 0 0 0 0 0
4 0 2 26994 0 0 0
5 0 0 0 0 0 0
6 0 0 0 0 0 0
7 0 0 0 0 0 0
8 0 0 0 0 0 0
9 1 1 28570 0 0 0
10 0 0 0 0 0 0
11 0 0 0 0 0 0
12 0 0 0 0 0 0
13 0 0 0 0 0 0
14 0 0 0 0 0 0
15 0 0 0 0 0 0
16 0 0 0 0 0 0
17 0 5 483899 0 0 0
18 0 0 0 0 0 0
19 0 0 0 0 0 0
20 0 0 0 0 0 0
21 0 0 0 0 0 0
22 0 0 0 0 0 0
23 1 1 28570 0 0 0
END_TIME

# Domain - Pages - Hits - Bandwidth
# The 25 first Pages must be first (order not required for others)
BEGIN_DOMAIN 1
us 2 9 568033
END_DOMAIN

# Cluster ID - Pages - Hits - Bandwidth
BEGIN_CLUSTER 0
END_CLUSTER

# Login - Pages - Hits - Bandwidth - Last visit
# The 10 first Pages must be first (order not required for others)
BEGIN_LOGIN 0
END_LOGIN

# Robot ID - Hits - Bandwidth - Last visit - Hits on robots.txt
# The 25 first Hits must be first (order not required for others)
BEGIN_ROBOT 0
END_ROBOT

# Worm ID - Hits - Bandwidth - Last visit
# The 5 first Hits must be first (order not required for others)
BEGIN_WORMS 0
END_WORMS

# EMail - Hits - Bandwidth - Last visit
# The 20 first Hits must be first (order not required for others)
BEGIN_EMAILSENDER 0
END_EMAILSENDER

# EMail - Hits - Bandwidth - Last visit
# The 20 first hits must be first (order not required for others)
BEGIN_EMAILRECEIVER 0
END_EMAILRECEIVER

# Files type - Hits - Bandwidth - Bandwidth without compression - Bandwidth after compression
BEGIN_FILETYPES 3
jpg 5 483899 0 0
js 2 26994 0 0
html 2 57140 0 0
END_FILETYPES

# Downloads - Hits - Bandwidth
BEGIN_DOWNLOADS 0
END_DOWNLOADS

# OS ID - Hits
BEGIN_OS ID - Hits - Pages 3
Unknown 3 1
ios_ipad 5 0
win7 1 1
END_OS

# Browser ID - Hits - Pages
BEGIN_BROWSER 4
safari10.0 5 0
cloudflare 2 0
Unknown 1 1
firefox40.1 1 1
END_BROWSER

# Screen size - Hits
BEGIN_SCREENSIZE 0
END_SCREENSIZE

# Unknown referer OS - Last visit date
BEGIN_UNKNOWNREFERER 2
The_Knowledge_AI 20180926092010
Mozilla/5.0_(compatible;_CloudFlare-AlwaysOnline/1.0;__http://www.cloudflare.com/always-online)_AppleWebKit/534.34 20180924042521
END_UNKNOWNREFERER

# Unknown referer Browser - Last visit date
BEGIN_UNKNOWNREFERERBROWSER 1
The_Knowledge_AI 20180926092010
END_UNKNOWNREFERERBROWSER

# Origin - Pages - Hits 
BEGIN_ORIGIN 6
From0 2 2
From1 0 0
From2 0 0
From3 0 0
From4 0 7
From5 0 0
END_ORIGIN

# Search engine referers ID - Pages - Hits
BEGIN_SEREFERRALS 0
END_SEREFERRALS

# External page referers - Pages - Hits
# The 25 first Pages must be first (order not required for others)
BEGIN_PAGEREFS 0
END_PAGEREFS

# Search keyphrases - Number of search
# The 10 first number of search must be first (order not required for others)
BEGIN_SEARCHWORDS 0
END_SEARCHWORDS

# Search keywords - Number of search
# The 25 first number of search must be first (order not required for others)
BEGIN_KEYWORDS 0
END_KEYWORDS

# Errors - Hits - Bandwidth
BEGIN_ERRORS 0
END_ERRORS

# URL with 404 errors - Hits - Last URL referrer
BEGIN_SIDER_404 0
END_SIDER_404

# Host - Pages - Hits - Bandwidth - Last visit date - [Start date of last visit] - [Last page of last visit]
# [Start date of last visit] and [Last page of last visit] are saved only if session is not finished
# The 25 first Hits must be first (order not required for others)
BEGIN_VISITOR 9
162.158.126.39 1 1 28570 20180901233148
172.68.142.196 1 1 28570 20180926092010
172.68.2.63 0 1 213965 
172.68.2.51 0 1 69108 
172.68.2.21 0 1 57997 
172.68.2.69 0 1 82866 
172.69.22.145 0 1 12017 
172.68.2.93 0 1 59963 
172.68.143.65 0 1 14977 
END_VISITOR

# Date - Pages - Hits - Bandwidth - Visits
BEGIN_DAY 4
20180901 1 1 28570 1
20180924 0 2 26994 0
20180926 1 1 28570 1
20180927 0 5 483899 0
END_DAY

# Session range - Number of visits
BEGIN_SESSION 1
0s-30s 2
END_SESSION

# URL - Pages - Bandwidth - Entry - Exit
# The 25 first Pages must be first (order not required for others)
BEGIN_SIDER 1
/page-not-found/ 2 57140 2 2
END_SIDER
