AWSTATS DATA FILE 7.4 (build 20140726)
# If you remove this file, all statistics for date 201708 will be lost/reset.
# Last config file used to build this data file was /home2/fyfxamvcmvss/tmp/awstats/awstats.freudenbergleisure.com.conf.

# Position (offset in bytes) in this file for beginning of each section for
# direct I/O access. If you made changes somewhere in this file, you should
# also remove completely the MAP section (AWStats will rewrite it at next
# update).
BEGIN_MAP 28
POS_GENERAL 2024                
POS_TIME 2670                
POS_VISITOR 5955                
POS_DAY 7873                
POS_DOMAIN 3200                
POS_LOGIN 3443                
POS_ROBOT 3598                
POS_WORMS 3845                
POS_EMAILSENDER 3976                
POS_EMAILRECEIVER 4119                
POS_SESSION 7954                
POS_SIDER 8091                
POS_FILETYPES 4254                
POS_DOWNLOADS 4352                
POS_OS 4447                
POS_BROWSER 4562                
POS_SCREENSIZE 4693                
POS_UNKNOWNREFERER 4767                
POS_UNKNOWNREFERERBROWSER 4854                
POS_ORIGIN 4936                
POS_SEREFERRALS 5067                
POS_PAGEREFS 5211                
POS_SEARCHWORDS 5359                
POS_KEYWORDS 5511                
POS_MISC 2334                
POS_ERRORS 5570                
POS_CLUSTER 3299                
POS_SIDER_404 5646                
END_MAP

# LastLine    = Date of last record processed - Last record line number in last log - Last record offset in last log - Last record signature value
# FirstTime   = Date of first visit for history file
# LastTime    = Date of last visit for history file
# LastUpdate  = Date of last update - Nb of parsed records - Nb of parsed old records - Nb of parsed new records - Nb of parsed corrupted - Nb of parsed dropped
# TotalVisits = Number of visits
# TotalUnique = Number of unique visitors
# MonthHostsKnown   = Number of hosts known
# MonthHostsUnKnown = Number of hosts unknown
BEGIN_GENERAL 8
LastLine 20170908110551 1 0 13241720353461
FirstTime 0
LastTime 0
LastUpdate 20170908174445 1 0 0 0 0
TotalVisits 0                   
TotalUnique 0                   
MonthHostsKnown 0                   
MonthHostsUnknown 69                  
END_GENERAL

# Misc ID - Pages - Hits - Bandwidth
BEGIN_MISC 10
AddToFavourites 0 0 0
JavaEnabled 0 0 0
WindowsMediaPlayerSupport 0 0 0
PDFSupport 0 0 0
QuickTimeSupport 0 0 0
JavascriptDisabled 0 0 0
DirectorSupport 0 0 0
FlashSupport 0 0 0
TotalMisc 0 0 0
RealPlayerSupport 0 0 0
END_MISC

# Hour - Pages - Hits - Bandwidth - Not viewed Pages - Not viewed Hits - Not viewed Bandwidth
BEGIN_TIME 24
0 0 0 0 0 0 0
1 0 0 0 0 0 0
2 0 0 0 0 0 0
3 0 0 0 0 0 0
4 0 0 0 0 0 0
5 0 0 0 0 0 0
6 0 0 0 0 0 0
7 0 0 0 0 0 0
8 0 0 0 0 0 0
9 0 0 0 0 0 0
10 0 0 0 0 1 4527718
11 0 0 0 0 0 0
12 0 55 6610491 0 1 5017
13 0 0 0 0 1 42157
14 0 3 810391 0 5 47462
15 0 10 2500772 0 3 269614
16 0 0 0 0 2 298222
17 0 10 2543999 0 0 0
18 0 0 0 0 0 0
19 0 0 0 0 0 0
20 0 0 0 0 0 0
21 0 0 0 0 0 0
22 0 0 0 0 0 0
23 0 0 0 0 0 0
END_TIME

# Domain - Pages - Hits - Bandwidth
# The 25 first Pages must be first (order not required for others)
BEGIN_DOMAIN 2
us 0 51 9429880
eu 0 27 3035773
END_DOMAIN

# Cluster ID - Pages - Hits - Bandwidth
BEGIN_CLUSTER 0
END_CLUSTER

# Login - Pages - Hits - Bandwidth - Last visit
# The 10 first Pages must be first (order not required for others)
BEGIN_LOGIN 0
END_LOGIN

# Robot ID - Hits - Bandwidth - Last visit - Hits on robots.txt
# The 25 first Hits must be first (order not required for others)
BEGIN_ROBOT 3
bot[\s_+:,\.\;\/\\-] 7 615010 20170809160640 0
googlebot 5 47462 20170809141528 0
robot 1 4527718 20170809100440 0
END_ROBOT

# Worm ID - Hits - Bandwidth - Last visit
# The 5 first Hits must be first (order not required for others)
BEGIN_WORMS 0
END_WORMS

# EMail - Hits - Bandwidth - Last visit
# The 20 first Hits must be first (order not required for others)
BEGIN_EMAILSENDER 0
END_EMAILSENDER

# EMail - Hits - Bandwidth - Last visit
# The 20 first hits must be first (order not required for others)
BEGIN_EMAILRECEIVER 0
END_EMAILRECEIVER

# Files type - Hits - Bandwidth - Bandwidth without compression - Bandwidth after compression
BEGIN_FILETYPES 2
jpg 77 12460636 0 0
js 1 5017 0 0
END_FILETYPES

# Downloads - Hits - Bandwidth
BEGIN_DOWNLOADS 1
/assets/uploads/Factsheet_Firs.pdf 1 0 4527718
END_DOWNLOADS

# OS ID - Hits
BEGIN_OS ID - Hits - Pages 4
winnt 11 0
macosx 10 0
linuxandroid 1 0
win7 56 0
END_OS

# Browser ID - Hits - Pages
BEGIN_BROWSER 4
chrome60.0.3112.90 54 0
safari10.0 10 0
chrome59.0.3071.125 1 0
firefox54.0 13 0
END_BROWSER

# Screen size - Hits
BEGIN_SCREENSIZE 0
END_SCREENSIZE

# Unknown referer OS - Last visit date
BEGIN_UNKNOWNREFERER 0
END_UNKNOWNREFERER

# Unknown referer Browser - Last visit date
BEGIN_UNKNOWNREFERERBROWSER 0
END_UNKNOWNREFERERBROWSER

# Origin - Pages - Hits 
BEGIN_ORIGIN 6
From0 0 0
From1 0 0
From2 0 0
From3 0 0
From4 0 78
From5 0 0
END_ORIGIN

# Search engine referers ID - Pages - Hits
BEGIN_SEREFERRALS 0
END_SEREFERRALS

# External page referers - Pages - Hits
# The 25 first Pages must be first (order not required for others)
BEGIN_PAGEREFS 0
END_PAGEREFS

# Search keyphrases - Number of search
# The 10 first number of search must be first (order not required for others)
BEGIN_SEARCHWORDS 0
END_SEARCHWORDS

# Search keywords - Number of search
# The 25 first number of search must be first (order not required for others)
BEGIN_KEYWORDS 0
END_KEYWORDS

# Errors - Hits - Bandwidth
BEGIN_ERRORS 0
END_ERRORS

# URL with 404 errors - Hits - Last URL referrer
BEGIN_SIDER_404 0
END_SIDER_404

# Host - Pages - Hits - Bandwidth - Last visit date - [Start date of last visit] - [Last page of last visit]
# [Start date of last visit] and [Last page of last visit] are saved only if session is not finished
# The 25 first Hits must be first (order not required for others)
BEGIN_VISITOR 69
162.158.155.76 0 1 25904 
162.158.155.100 0 1 31765 
141.101.99.145 0 1 42641 
162.158.154.21 0 1 18529 
141.101.107.68 0 1 134401 
162.158.90.86 0 1 514419 
141.101.99.91 0 1 39187 
141.101.107.86 0 1 28033 
162.158.167.80 0 1 236024 
162.158.154.171 0 1 211517 
141.101.107.146 0 1 139153 
162.158.89.219 0 1 424988 
162.158.155.82 0 1 261959 
162.158.165.30 0 2 216921 
172.68.146.52 0 2 384619 
162.158.167.170 0 2 406366 
141.101.99.211 0 1 29030 
162.158.154.69 0 1 320216 
141.101.99.55 0 1 42110 
162.158.167.110 0 1 340734 
162.158.155.52 0 1 49722 
141.101.98.138 0 1 234288 
162.158.166.91 0 1 300844 
162.158.155.70 0 1 54465 
141.101.98.204 0 1 23188 
162.158.155.112 0 1 274515 
162.158.90.122 0 1 213965 
141.101.107.200 0 1 54618 
162.158.165.42 0 1 493799 
162.158.165.108 0 2 422673 
162.158.165.240 0 1 341606 
162.158.91.223 0 1 404361 
141.101.99.31 0 1 273142 
141.101.107.236 0 1 46324 
162.158.155.58 0 1 40646 
141.101.107.212 0 1 37023 
162.158.154.153 0 1 123862 
162.158.165.114 0 1 243858 
141.101.98.114 0 1 36293 
162.158.155.22 0 1 231399 
141.101.107.176 0 2 352446 
162.158.165.78 0 2 324624 
162.158.88.100 0 1 69108 
141.101.107.152 0 1 151969 
162.158.165.126 0 1 351590 
162.158.92.66 0 1 266635 
162.158.154.27 0 1 208309 
141.101.107.80 0 1 48348 
141.101.107.116 0 1 207430 
162.158.88.142 0 1 59963 
172.68.144.69 0 2 170503 
141.101.99.37 0 1 187548 
141.101.107.128 0 2 249125 
162.158.92.144 0 1 82866 
172.68.144.213 0 1 35904 
162.158.166.151 0 1 37787 
162.158.167.104 0 1 141467 
162.158.154.39 0 1 253961 
162.158.155.4 0 1 45947 
172.68.146.16 0 1 43115 
141.101.107.110 0 1 32476 
141.101.99.121 0 1 430009 
141.101.107.182 0 1 25945 
141.101.99.73 0 2 191046 
162.158.92.180 0 1 406470 
172.68.144.219 0 1 44476 
162.158.165.72 0 1 212986 
162.158.92.24 0 1 57997 
162.158.154.165 0 1 26496 
END_VISITOR

# Date - Pages - Hits - Bandwidth - Visits
BEGIN_DAY 1
20170809 0 78 12465653 0
END_DAY

# Session range - Number of visits
BEGIN_SESSION 0
END_SESSION

# URL - Pages - Bandwidth - Entry - Exit
# The 25 first Pages must be first (order not required for others)
BEGIN_SIDER 0
END_SIDER
