AWSTATS DATA FILE 7.7 (build 20180105)
# If you remove this file, all statistics for date 201811 will be lost/reset.
# Last config file used to build this data file was /home2/fyfxamvcmvss/tmp/awstats/awstats.firs.freudenbergleisure.lk.conf.

# Position (offset in bytes) in this file for beginning of each section for
# direct I/O access. If you made changes somewhere in this file, you should
# also remove completely the MAP section (AWStats will rewrite it at next
# update).
BEGIN_MAP 28
POS_GENERAL 2028                
POS_TIME 2702                
POS_VISITOR 8435                
POS_DAY 10368               
POS_DOMAIN 3448                
POS_LOGIN 3707                
POS_ROBOT 3862                
POS_WORMS 4437                
POS_EMAILSENDER 4568                
POS_EMAILRECEIVER 4711                
POS_SESSION 11038               
POS_SIDER 11228               
POS_FILETYPES 4846                
POS_DOWNLOADS 5023                
POS_OS 5071                
POS_BROWSER 5276                
POS_SCREENSIZE 5864                
POS_UNKNOWNREFERER 5938                
POS_UNKNOWNREFERERBROWSER 7058                
POS_ORIGIN 7324                
POS_SEREFERRALS 7458                
POS_PAGEREFS 7602                
POS_SEARCHWORDS 7823                
POS_KEYWORDS 7975                
POS_MISC 2366                
POS_ERRORS 8034                
POS_CLUSTER 3563                
POS_SIDER_404 8126                
END_MAP

# LastLine    = Date of last record processed - Last record line number in last log - Last record offset in last log - Last record signature value
# FirstTime   = Date of first visit for history file
# LastTime    = Date of last visit for history file
# LastUpdate  = Date of last update - Nb of parsed records - Nb of parsed old records - Nb of parsed new records - Nb of parsed corrupted - Nb of parsed dropped
# TotalVisits = Number of visits
# TotalUnique = Number of unique visitors
# MonthHostsKnown   = Number of hosts known
# MonthHostsUnKnown = Number of hosts unknown
BEGIN_GENERAL 8
LastLine 20181201020658 5 640 12362999386532
FirstTime 20181101071125
LastTime 20181130233130
LastUpdate 20181201174512 5 0 4 0 0
TotalVisits 99                  
TotalUnique 41                  
MonthHostsKnown 0                   
MonthHostsUnknown 52                  
END_GENERAL

# Misc ID - Pages - Hits - Bandwidth
BEGIN_MISC 10
JavaEnabled 0 0 0
QuickTimeSupport 0 0 0
JavascriptDisabled 0 0 0
FlashSupport 0 0 0
AddToFavourites 0 2 0
TotalMisc 0 0 0
DirectorSupport 0 0 0
RealPlayerSupport 0 0 0
WindowsMediaPlayerSupport 0 0 0
PDFSupport 0 0 0
END_MISC

# Hour - Pages - Hits - Bandwidth - Not viewed Pages - Not viewed Hits - Not viewed Bandwidth
BEGIN_TIME 24
0 6 6 123483 18 43 792557
1 6 7 172348 17 20 411514
2 3 3 85104 9 68 1730163
3 4 4 113474 12 17 384350
4 2 2 56737 10 13 286835
5 0 0 0 11 13 286833
6 6 30 1070000 8 42 876647
7 4 4 113474 7 35 669742
8 4 4 113472 10 10 201727
9 3 3 56736 5 10 196840
10 3 3 85104 10 15 334469
11 3 3 85105 6 9 191575
12 22 30 724519 18 25 514406
13 17 27 617305 9 15 309404
14 17 23 578799 27 40 786210
15 4 4 113473 7 15 301938
16 3 3 85104 2 3 57787
17 5 5 85105 12 18 376598
18 0 0 0 9 13 268620
19 9 10 230429 9 11 230096
20 11 11 332066 23 31 633556
21 10 12 202851 8 18 401362
22 2 2 28368 8 13 295946
23 5 5 141843 11 24 545208
END_TIME

# Domain - Pages - Hits - Bandwidth
# The 25 first Pages must be first (order not required for others)
BEGIN_DOMAIN 3
zz 83 117 3380409
us 65 83 1806122
eu 1 1 28368
END_DOMAIN

# Cluster ID - Pages - Hits - Bandwidth
BEGIN_CLUSTER 0
END_CLUSTER

# Login - Pages - Hits - Bandwidth - Last visit
# The 10 first Pages must be first (order not required for others)
BEGIN_LOGIN 0
END_LOGIN

# Robot ID - Hits - Bandwidth - Last visit - Hits on robots.txt
# The 25 first Hits must be first (order not required for others)
BEGIN_ROBOT 11
Googlebot/ 121 3074209 20181130065235 0
bingbot/ 21 574259 20181130172407 0
YandexBot/ 15 425535 20181129185436 0
Sogou[\x20]web[\x20]spider/ 6 170208 20181130234442 0
MJ12bot/ 4 70499 20181111174820 0
Uptimebot/ 3 0 20181108005500 0
bingpreview 2 4272 20181105143746 0
Mail\.RU_Bot/ 2 28368 20181130095349 0
no_user_agent 2 56736 20181110035916 0
(firefox/)([0-9]\.|[0-1][0]\.) 1 28368 20181121045055 0
Baiduspider/ 1 28369 20181123034255 0
END_ROBOT

# Worm ID - Hits - Bandwidth - Last visit
# The 5 first Hits must be first (order not required for others)
BEGIN_WORMS 0
END_WORMS

# EMail - Hits - Bandwidth - Last visit
# The 20 first Hits must be first (order not required for others)
BEGIN_EMAILSENDER 0
END_EMAILSENDER

# EMail - Hits - Bandwidth - Last visit
# The 20 first hits must be first (order not required for others)
BEGIN_EMAILRECEIVER 0
END_EMAILRECEIVER

# Files type - Hits - Bandwidth - Bandwidth without compression - Bandwidth after compression
BEGIN_FILETYPES 6
css 29 568547 0 0
html 101 2581520 0 0
js 13 708813 0 0
php 8 215061 0 0
Unknown 40 1088469 0 0
png 10 52489 0 0
END_FILETYPES

# Downloads - Hits - Bandwidth
BEGIN_DOWNLOADS 0
END_DOWNLOADS

# OS ID - Hits
BEGIN_OS ID - Hits - Pages 11
macosx10 1 1
winxp 1 1
winlong 1 1
linux 30 5
win10 11 9
win2003 1 1
Unknown 41 39
macosx 1 1
linuxandroid 66 43
win7 31 31
macosx12 17 17
END_OS

# Browser ID - Hits - Pages
BEGIN_BROWSER 28
chrome52.0.2743.116 2 1
firefox55.0 1 1
firefox64.0 1 1
firefox62.0.2 1 1
firefox50.0 26 2
chrome58.0.3029.110 5 5
chrome66.0.3359.117 1 1
chrome70.0.3538.77 4 3
netscape 1 1
chrome67.0.2526.73 2 2
firefox59.0 1 1
msie9.0 8 8
firefox34.0 1 1
chrome40.0.2214.85 15 15
msie7.0 4 4
msie10.0 1 1
android 1 1
chrome34.0.1847.114 65 42
cloudflare 15 13
chrome60.0.3112.101 1 1
firefox18.0 1 0
chrome33.0.1750.517 1 1
chrome57.4.9475.5747 1 1
Unknown 10 10
chrome61.0.3163.100 12 12
chrome62.0.3202.94 2 2
mozilla 14 14
chrome34.0.1847.131 4 4
END_BROWSER

# Screen size - Hits
BEGIN_SCREENSIZE 0
END_SCREENSIZE

# Unknown referer OS - Last visit date
BEGIN_UNKNOWNREFERER 12
Mozilla/5.0_(compatible;_Dataprovider.com) 20181118165409
Python/3.6_aiohttp/2.3.2 20181117093613
Mozilla/5.0_(compatible;_NetcraftSurveyAgent/1.0;__info@netcraft.com) 20181108040155
Mozilla/5.0_zgrab/0.x_(compatible;_Researchscan/t12sns;__http://researchscan.comsys.rwth-aachen.de) 20181127011413
Scrapy/1.5.1_(_https://scrapy.org) 20181119102350
Mozilla/5.0_(SIMON_SMITH_NT_10.0;_WOW64;_forensic@evestigator.com.au)_AppleWebKit/537.36_(KHTML,_like_Gecko)_Chrome/67.0.2526.73_Safari/537.36 20181124144402
Mozilla/5.0_(compatible;_CloudFlare-AlwaysOnline/1.0;__http://www.cloudflare.com/always-online)_AppleWebKit/534.34 20181124012526
Mozilla 20181104153153
Mozilla/5.0_zgrab/0.x_(compatible;_Researchscan/t13rl;__http://researchscan.comsys.rwth-aachen.de) 20181126121808
Mozilla/5.0_zgrab/0.x_(compatible;_Researchscan/t12ca;__http://researchscan.comsys.rwth-aachen.de) 20181114064420
Mozilla/5.0_(compatible;_CloudFlare-AlwaysOnline/1.0;__http://www.cloudflare.com/always-online) 20181129173419
Go-http-client/1.1 20181120200257
END_UNKNOWNREFERER

# Unknown referer Browser - Last visit date
BEGIN_UNKNOWNREFERERBROWSER 4
Surf/1.0_(Linux_4.4.0-138-generic;_go1.10.4) 20181119215508
Go-http-client/1.1 20181120200257
Scrapy/1.5.1_(_https://scrapy.org) 20181119102350
Python/3.6_aiohttp/2.3.2 20181117093613
END_UNKNOWNREFERERBROWSER

# Origin - Pages - Hits 
BEGIN_ORIGIN 6
From0 137 185
From1 1 1
From2 0 0
From3 7 7
From4 4 8
From5 0 0
END_ORIGIN

# Search engine referers ID - Pages - Hits
BEGIN_SEREFERRALS 0
END_SEREFERRALS

# External page referers - Pages - Hits
# The 25 first Pages must be first (order not required for others)
BEGIN_PAGEREFS 2
https://uptime.com/thefirsboutiques.com 6 6
https://www.facebook.com 1 1
END_PAGEREFS

# Search keyphrases - Number of search
# The 10 first number of search must be first (order not required for others)
BEGIN_SEARCHWORDS 0
END_SEARCHWORDS

# Search keywords - Number of search
# The 25 first number of search must be first (order not required for others)
BEGIN_KEYWORDS 0
END_KEYWORDS

# Errors - Hits - Bandwidth
BEGIN_ERRORS 1
302 341 6585034
END_ERRORS

# URL with 404 errors - Hits - Last URL referrer
BEGIN_SIDER_404 0
END_SIDER_404

# Host - Pages - Hits - Bandwidth - Last visit date - [Start date of last visit] - [Last page of last visit]
# [Start date of last visit] and [Last page of last visit] are saved only if session is not finished
# The 25 first Hits must be first (order not required for others)
BEGIN_VISITOR 52
10.148.0.2 83 117 3380409 20181130233130
173.245.48.80 10 10 253279 20181110140518
162.158.58.248 10 10 253279 20181108133614
172.69.33.244 3 4 89434 20181108133619
172.69.33.34 3 3 86118 20181110140523
172.68.133.239 2 2 56736 20181109083755
162.158.90.125 2 2 0 20181109172831
172.68.141.33 2 2 56736 20181111150755
162.158.90.185 2 2 0 20181110004539
172.68.65.107 1 1 28369 20181108040155
162.158.79.58 1 1 28368 20181102021756
172.69.22.193 1 1 28369 20181105015200
162.158.89.210 1 1 0 20181102092937
162.158.91.16 1 1 28369 20181105005004
198.41.242.21 1 1 38377 20181103202614
198.41.242.93 1 1 28368 20181103202601
162.158.126.75 1 1 28368 20181111193906
172.68.65.5 1 1 28369 20181102014333
172.68.202.33 1 1 28369 20181108120034
172.68.65.59 1 1 28369 20181108035433
162.158.92.51 1 1 28369 20181107075802
172.68.189.180 1 1 28369 20181107233413
172.68.143.71 1 1 0 20181107215352
172.68.65.239 1 1 28368 20181107215353
172.68.211.63 1 1 28368 20181110140456
162.158.59.27 0 2 184182 
108.162.215.141 0 2 38344 
162.158.58.242 0 2 6962 
172.68.46.136 0 2 1712 
172.69.33.16 0 1 1547 
172.68.47.227 0 2 6014 
162.158.58.206 0 2 14644 
162.158.59.69 0 1 1743 
172.68.202.45 0 1 2136 
162.158.79.214 1 1 28369 20181107215411
162.158.255.141 1 1 28368 20181104191607
162.158.89.144 1 1 28369 20181104213307
172.69.68.6 1 1 28368 20181101071125
108.162.245.81 0 1 2136 
172.68.211.183 1 1 28368 20181108133550
172.69.33.208 0 1 31900 
162.158.93.62 1 1 0 20181107171039
162.158.78.111 1 1 28369 20181108033946
172.68.65.83 1 1 28368 20181102080421
172.68.143.107 1 1 28368 20181102124529
172.69.62.219 1 1 28368 20181111172038
172.68.189.108 1 1 0 20181107215408
198.41.242.27 1 1 28368 20181108060118
162.158.92.237 1 1 0 20181102223924
108.162.246.64 1 1 0 20181107215410
141.101.97.100 1 1 28368 20181109033030
162.158.75.153 1 1 28368 20181104153153
END_VISITOR

# Date - Pages - Hits - Bandwidth - Visits
BEGIN_DAY 28
20181101 1 1 28368 1
20181102 7 7 113473 7
20181103 2 2 66745 2
20181104 3 3 85105 3
20181105 2 2 56738 2
20181107 9 10 143979 9
20181108 21 32 704548 10
20181109 3 3 56736 3
20181110 15 21 493694 4
20181111 3 3 85104 3
20181113 18 25 608910 4
20181114 4 4 113474 3
20181115 5 6 143979 4
20181116 4 4 113475 3
20181117 5 5 141841 3
20181118 5 5 141840 4
20181119 2 2 56736 2
20181120 2 2 56736 1
20181121 1 1 28368 1
20181122 7 7 198577 6
20181123 3 3 95115 2
20181124 4 5 115609 4
20181125 1 1 28368 1
20181126 5 6 145323 5
20181127 4 28 1013262 4
20181128 1 1 28368 1
20181129 9 9 255314 4
20181130 3 3 95114 3
END_DAY

# Session range - Number of visits
BEGIN_SESSION 5
0s-30s 89
30mn-1h 4
15mn-30mn 2
30s-2mn 3
5mn-15mn 1
END_SESSION

# URL - Pages - Bandwidth - Entry - Exit
# The 25 first Pages must be first (order not required for others)
BEGIN_SIDER 16
/ 101 2581520 91 89
/contact-us 6 230262 3 6
/index.php 5 141840 1 2
/promotions 3 67521 0 0
/downloads 3 68610 0 0
/facilities/restaurant 3 67563 0 0
/gallery 3 109047 0 0
/accommodation 3 77592 0 0
/facilities 3 75660 2 0
/location 3 67704 0 2
/privacy-policy 3 80595 0 0
/about-us 3 63951 0 0
/facilities/room-service 3 64227 2 0
/bar.php 3 73221 0 0
/terms-and-conditions 3 87369 0 0
/index.php/Home/AppUpload/commentUpload 1 28368 0 0
END_SIDER
