AWSTATS DATA FILE 7.7 (build 20180105)
# If you remove this file, all statistics for date 201906 will be lost/reset.
# Last config file used to build this data file was /home2/fyfxamvcmvss/tmp/awstats/awstats.cms.freudenbergleisure.com.conf.

# Position (offset in bytes) in this file for beginning of each section for
# direct I/O access. If you made changes somewhere in this file, you should
# also remove completely the MAP section (AWStats will rewrite it at next
# update).
BEGIN_MAP 28
POS_GENERAL 2028                
POS_TIME 2700                
POS_VISITOR 6069                
POS_DAY 6944                
POS_DOMAIN 3204                
POS_LOGIN 3441                
POS_ROBOT 3596                
POS_WORMS 3728                
POS_EMAILSENDER 3859                
POS_EMAILRECEIVER 4002                
POS_SESSION 7112                
POS_SIDER 7259                
POS_FILETYPES 4137                
POS_DOWNLOADS 4274                
POS_OS 4322                
POS_BROWSER 4401                
POS_SCREENSIZE 4480                
POS_UNKNOWNREFERER 4554                
POS_UNKNOWNREFERERBROWSER 4966                
POS_ORIGIN 5048                
POS_SEREFERRALS 5181                
POS_PAGEREFS 5325                
POS_SEARCHWORDS 5473                
POS_KEYWORDS 5625                
POS_MISC 2364                
POS_ERRORS 5684                
POS_CLUSTER 3297                
POS_SIDER_404 5760                
END_MAP

# LastLine    = Date of last record processed - Last record line number in last log - Last record offset in last log - Last record signature value
# FirstTime   = Date of first visit for history file
# LastTime    = Date of last visit for history file
# LastUpdate  = Date of last update - Nb of parsed records - Nb of parsed old records - Nb of parsed new records - Nb of parsed corrupted - Nb of parsed dropped
# TotalVisits = Number of visits
# TotalUnique = Number of unique visitors
# MonthHostsKnown   = Number of hosts known
# MonthHostsUnKnown = Number of hosts unknown
BEGIN_GENERAL 8
LastLine 20190701042429 1 0 11666019855131
FirstTime 20190602062329
LastTime 20190624014150
LastUpdate 20190701173945 1 0 0 0 0
TotalVisits 18                  
TotalUnique 18                  
MonthHostsKnown 0                   
MonthHostsUnknown 18                  
END_GENERAL

# Misc ID - Pages - Hits - Bandwidth
BEGIN_MISC 10
JavascriptDisabled 0 0 0
FlashSupport 0 0 0
JavaEnabled 0 0 0
TotalMisc 0 0 0
PDFSupport 0 0 0
QuickTimeSupport 0 0 0
AddToFavourites 0 0 0
RealPlayerSupport 0 0 0
DirectorSupport 0 0 0
WindowsMediaPlayerSupport 0 0 0
END_MISC

# Hour - Pages - Hits - Bandwidth - Not viewed Pages - Not viewed Hits - Not viewed Bandwidth
BEGIN_TIME 24
0 0 0 0 0 0 0
1 6 18 737058 0 0 0
2 0 0 0 0 0 0
3 0 0 0 0 0 0
4 0 0 0 0 0 0
5 0 0 0 0 0 0
6 6 18 737058 0 0 0
7 0 0 0 0 0 0
8 0 0 0 0 0 0
9 0 0 0 0 0 0
10 0 0 0 0 0 0
11 6 18 737058 0 0 0
12 0 0 0 0 0 0
13 0 0 0 0 0 0
14 0 0 0 0 0 0
15 0 0 0 0 0 0
16 0 0 0 0 0 0
17 2 2 7494 0 0 0
18 0 0 0 0 0 0
19 6 18 737058 0 0 0
20 0 0 0 0 0 0
21 0 0 0 0 0 0
22 0 0 0 0 0 0
23 0 0 0 0 0 0
END_TIME

# Domain - Pages - Hits - Bandwidth
# The 25 first Pages must be first (order not required for others)
BEGIN_DOMAIN 2
us 18 66 2955726
ip 8 8 0
END_DOMAIN

# Cluster ID - Pages - Hits - Bandwidth
BEGIN_CLUSTER 0
END_CLUSTER

# Login - Pages - Hits - Bandwidth - Last visit
# The 10 first Pages must be first (order not required for others)
BEGIN_LOGIN 0
END_LOGIN

# Robot ID - Hits - Bandwidth - Last visit - Hits on robots.txt
# The 25 first Hits must be first (order not required for others)
BEGIN_ROBOT 0
END_ROBOT

# Worm ID - Hits - Bandwidth - Last visit
# The 5 first Hits must be first (order not required for others)
BEGIN_WORMS 0
END_WORMS

# EMail - Hits - Bandwidth - Last visit
# The 20 first Hits must be first (order not required for others)
BEGIN_EMAILSENDER 0
END_EMAILSENDER

# EMail - Hits - Bandwidth - Last visit
# The 20 first hits must be first (order not required for others)
BEGIN_EMAILRECEIVER 0
END_EMAILRECEIVER

# Files type - Hits - Bandwidth - Bandwidth without compression - Bandwidth after compression
BEGIN_FILETYPES 4
html 18 37470 0 0
css 24 1705608 0 0
woff 8 187392 0 0
js 24 1025256 0 0
END_FILETYPES

# Downloads - Hits - Bandwidth
BEGIN_DOWNLOADS 0
END_DOWNLOADS

# OS ID - Hits
BEGIN_OS ID - Hits - Pages 1
Unknown 74 26
END_OS

# Browser ID - Hits - Pages
BEGIN_BROWSER 2
cloudflare 72 24
mozilla 2 2
END_BROWSER

# Screen size - Hits
BEGIN_SCREENSIZE 0
END_SCREENSIZE

# Unknown referer OS - Last visit date
BEGIN_UNKNOWNREFERER 3
Mozilla/5.0_(compatible;_CloudFlare-AlwaysOnline/1.0;__http://www.cloudflare.com/always-online)_AppleWebKit/534.34 20190624014150
Mozilla/5.0_(compatible;_NetcraftSurveyAgent/1.0;__info@netcraft.com) 20190606171746
Mozilla/5.0_(compatible;_CloudFlare-AlwaysOnline/1.0;_http://www.cloudflare.com/always-online) 20190624014148
END_UNKNOWNREFERER

# Unknown referer Browser - Last visit date
BEGIN_UNKNOWNREFERERBROWSER 0
END_UNKNOWNREFERERBROWSER

# Origin - Pages - Hits 
BEGIN_ORIGIN 6
From0 18 18
From1 0 0
From2 0 0
From3 0 0
From4 8 56
From5 0 0
END_ORIGIN

# Search engine referers ID - Pages - Hits
BEGIN_SEREFERRALS 0
END_SEREFERRALS

# External page referers - Pages - Hits
# The 25 first Pages must be first (order not required for others)
BEGIN_PAGEREFS 0
END_PAGEREFS

# Search keyphrases - Number of search
# The 10 first number of search must be first (order not required for others)
BEGIN_SEARCHWORDS 0
END_SEARCHWORDS

# Search keywords - Number of search
# The 25 first number of search must be first (order not required for others)
BEGIN_KEYWORDS 0
END_KEYWORDS

# Errors - Hits - Bandwidth
BEGIN_ERRORS 0
END_ERRORS

# URL with 404 errors - Hits - Last URL referrer
BEGIN_SIDER_404 0
END_SIDER_404

# Host - Pages - Hits - Bandwidth - Last visit date - [Start date of last visit] - [Last page of last visit]
# [Start date of last visit] and [Last page of last visit] are saved only if session is not finished
# The 25 first Hits must be first (order not required for others)
BEGIN_VISITOR 18
162.158.68.28 2 8 368529 20190602062331
162.158.66.200 2 8 368529 20190616193602
162.158.68.221 2 8 368529 20190609112908
162.158.68.4 2 8 368529 20190624014150
162.158.68.144 2 8 368529 20190624014150
162.158.71.87 2 8 368529 20190602062338
162.158.70.141 2 8 368529 20190609113106
162.158.64.230 2 8 368529 20190616193447
2400:cb00:36:1031::a29e:4404 1 1 0 20190624014148
2400:cb00:36:1047::a29e:42c8 1 1 0 20190616193600
2400:cb00:36:1034::a29e:44dd 1 1 0 20190609112906
68.183.147.67 1 1 3747 20190606171746
2400:cb00:36:1008::a29e:40e6 1 1 0 20190616193445
2400:cb00:36:1011::a29e:468d 1 1 0 20190609113104
2400:cb00:36:1031::a29e:441c 1 1 0 20190602062329
159.203.171.146 1 1 3747 20190606171346
2400:cb00:36:1040::a29e:4757 1 1 0 20190602062336
2400:cb00:36:1033::a29e:4490 1 1 0 20190624014148
END_VISITOR

# Date - Pages - Hits - Bandwidth - Visits
BEGIN_DAY 5
20190602 6 18 737058 4
20190606 2 2 7494 2
20190609 6 18 737058 4
20190616 6 18 737058 4
20190624 6 18 737058 4
END_DAY

# Session range - Number of visits
BEGIN_SESSION 1
0s-30s 18
END_SESSION

# URL - Pages - Bandwidth - Entry - Exit
# The 25 first Pages must be first (order not required for others)
BEGIN_SIDER 2
/ 18 37470 18 10
/assets/bootstrap-3.3.7-dist/fonts/glyphicons-halflings-regular.woff 8 187392 0 8
END_SIDER
