AWSTATS DATA FILE 7.6 (build 20161204)
# If you remove this file, all statistics for date 201809 will be lost/reset.
# Last config file used to build this data file was /home2/fyfxamvcmvss/tmp/awstats/awstats.cms.freudenbergleisure.com.conf.

# Position (offset in bytes) in this file for beginning of each section for
# direct I/O access. If you made changes somewhere in this file, you should
# also remove completely the MAP section (AWStats will rewrite it at next
# update).
BEGIN_MAP 28
POS_GENERAL 2028                
POS_TIME 2700                
POS_VISITOR 6058                
POS_DAY 7036                
POS_DOMAIN 3202                
POS_LOGIN 3430                
POS_ROBOT 3585                
POS_WORMS 3717                
POS_EMAILSENDER 3848                
POS_EMAILRECEIVER 3991                
POS_SESSION 7202                
POS_SIDER 7349                
POS_FILETYPES 4126                
POS_DOWNLOADS 4262                
POS_OS 4310                
POS_BROWSER 4389                
POS_SCREENSIZE 4468                
POS_UNKNOWNREFERER 4542                
POS_UNKNOWNREFERERBROWSER 4955                
POS_ORIGIN 5037                
POS_SEREFERRALS 5170                
POS_PAGEREFS 5314                
POS_SEARCHWORDS 5462                
POS_KEYWORDS 5614                
POS_MISC 2364                
POS_ERRORS 5673                
POS_CLUSTER 3286                
POS_SIDER_404 5749                
END_MAP

# LastLine    = Date of last record processed - Last record line number in last log - Last record offset in last log - Last record signature value
# FirstTime   = Date of first visit for history file
# LastTime    = Date of last visit for history file
# LastUpdate  = Date of last update - Nb of parsed records - Nb of parsed old records - Nb of parsed new records - Nb of parsed corrupted - Nb of parsed dropped
# TotalVisits = Number of visits
# TotalUnique = Number of unique visitors
# MonthHostsKnown   = Number of hosts known
# MonthHostsUnKnown = Number of hosts unknown
BEGIN_GENERAL 8
LastLine 20181002091159 1 0 11243389569379
FirstTime 20180903100814
LastTime 20180925074406
LastUpdate 20181002174454 1 0 0 0 0
TotalVisits 14                  
TotalUnique 12                  
MonthHostsKnown 0                   
MonthHostsUnknown 30                  
END_GENERAL

# Misc ID - Pages - Hits - Bandwidth
BEGIN_MISC 10
QuickTimeSupport 0 0 0
AddToFavourites 0 0 0
RealPlayerSupport 0 0 0
JavascriptDisabled 0 0 0
TotalMisc 0 0 0
JavaEnabled 0 0 0
DirectorSupport 0 0 0
PDFSupport 0 0 0
FlashSupport 0 0 0
WindowsMediaPlayerSupport 0 0 0
END_MISC

# Hour - Pages - Hits - Bandwidth - Not viewed Pages - Not viewed Hits - Not viewed Bandwidth
BEGIN_TIME 24
0 0 0 0 0 0 0
1 0 0 0 0 0 0
2 0 0 0 0 0 0
3 0 0 0 0 0 0
4 0 0 0 0 0 0
5 4 10 368529 0 0 0
6 0 0 0 0 0 0
7 3 9 368529 0 0 0
8 0 0 0 0 0 0
9 0 0 0 0 0 0
10 5 17 737058 0 0 0
11 0 0 0 0 0 0
12 1 1 3747 0 0 0
13 3 9 372276 0 0 0
14 0 0 0 0 0 0
15 0 0 0 0 0 0
16 0 0 0 0 0 0
17 0 0 0 0 0 0
18 0 0 0 0 0 0
19 0 0 0 0 0 0
20 0 0 0 0 0 0
21 0 0 0 0 0 0
22 0 0 0 0 0 0
23 0 0 0 0 0 0
END_TIME

# Domain - Pages - Hits - Bandwidth
# The 25 first Pages must be first (order not required for others)
BEGIN_DOMAIN 1
us 16 46 1850139
END_DOMAIN

# Cluster ID - Pages - Hits - Bandwidth
BEGIN_CLUSTER 0
END_CLUSTER

# Login - Pages - Hits - Bandwidth - Last visit
# The 10 first Pages must be first (order not required for others)
BEGIN_LOGIN 0
END_LOGIN

# Robot ID - Hits - Bandwidth - Last visit - Hits on robots.txt
# The 25 first Hits must be first (order not required for others)
BEGIN_ROBOT 0
END_ROBOT

# Worm ID - Hits - Bandwidth - Last visit
# The 5 first Hits must be first (order not required for others)
BEGIN_WORMS 0
END_WORMS

# EMail - Hits - Bandwidth - Last visit
# The 20 first Hits must be first (order not required for others)
BEGIN_EMAILSENDER 0
END_EMAILSENDER

# EMail - Hits - Bandwidth - Last visit
# The 20 first hits must be first (order not required for others)
BEGIN_EMAILRECEIVER 0
END_EMAILRECEIVER

# Files type - Hits - Bandwidth - Bandwidth without compression - Bandwidth after compression
BEGIN_FILETYPES 4
js 15 640785 0 0
css 15 1066005 0 0
html 11 26229 0 0
woff 5 117120 0 0
END_FILETYPES

# Downloads - Hits - Bandwidth
BEGIN_DOWNLOADS 0
END_DOWNLOADS

# OS ID - Hits
BEGIN_OS ID - Hits - Pages 1
Unknown 46 16
END_OS

# Browser ID - Hits - Pages
BEGIN_BROWSER 2
mozilla 2 2
cloudflare 44 14
END_BROWSER

# Screen size - Hits
BEGIN_SCREENSIZE 0
END_SCREENSIZE

# Unknown referer OS - Last visit date
BEGIN_UNKNOWNREFERER 3
Mozilla/5.0_(compatible;_CloudFlare-AlwaysOnline/1.0;__http://www.cloudflare.com/always-online) 20180925074402
Mozilla/5.0_(compatible;_NetcraftSurveyAgent/1.0;__info@netcraft.com) 20180909133636
Mozilla/5.0_(compatible;_CloudFlare-AlwaysOnline/1.0;__http://www.cloudflare.com/always-online)_AppleWebKit/534.34 20180925074406
END_UNKNOWNREFERER

# Unknown referer Browser - Last visit date
BEGIN_UNKNOWNREFERERBROWSER 0
END_UNKNOWNREFERERBROWSER

# Origin - Pages - Hits 
BEGIN_ORIGIN 6
From0 11 11
From1 0 0
From2 0 0
From3 0 0
From4 5 35
From5 0 0
END_ORIGIN

# Search engine referers ID - Pages - Hits
BEGIN_SEREFERRALS 0
END_SEREFERRALS

# External page referers - Pages - Hits
# The 25 first Pages must be first (order not required for others)
BEGIN_PAGEREFS 0
END_PAGEREFS

# Search keyphrases - Number of search
# The 10 first number of search must be first (order not required for others)
BEGIN_SEARCHWORDS 0
END_SEARCHWORDS

# Search keywords - Number of search
# The 25 first number of search must be first (order not required for others)
BEGIN_KEYWORDS 0
END_KEYWORDS

# Errors - Hits - Bandwidth
BEGIN_ERRORS 0
END_ERRORS

# URL with 404 errors - Hits - Last URL referrer
BEGIN_SIDER_404 0
END_SIDER_404

# Host - Pages - Hits - Bandwidth - Last visit date - [Start date of last visit] - [Last page of last visit]
# [Start date of last visit] and [Last page of last visit] are saved only if session is not finished
# The 25 first Hits must be first (order not required for others)
BEGIN_VISITOR 30
172.68.65.5 2 2 7494 20180925074403
172.69.62.111 2 2 7494 20180903100815
162.158.78.63 2 2 46848 20180925074406
172.69.62.81 2 2 46848 20180903100819
173.245.52.144 1 1 3747 20180909133636
172.69.22.157 1 1 0 20180925074402
173.245.52.60 1 1 3747 20180909125813
162.158.106.209 1 1 0 20180903100814
172.68.189.102 1 1 0 20180918054354
172.68.189.144 1 1 0 20180918054354
162.158.79.190 1 1 23424 20180910130439
162.158.79.70 1 1 3747 20180910130436
162.158.79.124 0 2 173192 
162.158.78.39 0 2 180780 
162.158.78.195 0 2 242400 
162.158.78.57 0 2 3222 
172.69.62.225 0 2 3222 
162.158.78.141 0 1 4516 
162.158.79.46 0 1 121200 
162.158.79.10 0 2 9032 
172.69.62.147 0 2 74090 
162.158.78.201 0 1 86596 
162.158.78.93 0 1 1611 
162.158.78.213 0 2 180780 
162.158.78.69 0 1 90390 
172.69.62.141 0 2 173192 
172.68.65.65 0 2 242400 
172.69.62.195 0 2 74090 
173.245.54.42 0 2 9032 
172.68.65.251 0 1 37045 
END_VISITOR

# Date - Pages - Hits - Bandwidth - Visits
BEGIN_DAY 5
20180903 5 17 737058 3
20180909 2 2 7494 2
20180910 2 8 368529 2
20180918 4 10 368529 4
20180925 3 9 368529 3
END_DAY

# Session range - Number of visits
BEGIN_SESSION 1
0s-30s 14
END_SESSION

# URL - Pages - Bandwidth - Entry - Exit
# The 25 first Pages must be first (order not required for others)
BEGIN_SIDER 2
/ 11 26229 10 10
/assets/bootstrap-3.3.7-dist/fonts/glyphicons-halflings-regular.woff 5 117120 4 4
END_SIDER
