AWSTATS DATA FILE 7.7 (build 20180105)
# If you remove this file, all statistics for date 201901 will be lost/reset.
# Last config file used to build this data file was /home2/fyfxamvcmvss/tmp/awstats/awstats.ellensplace.freudenbergleisure.com.conf.

# Position (offset in bytes) in this file for beginning of each section for
# direct I/O access. If you made changes somewhere in this file, you should
# also remove completely the MAP section (AWStats will rewrite it at next
# update).
BEGIN_MAP 28
POS_GENERAL 2036                
POS_TIME 2717                
POS_VISITOR 14451               
POS_DAY 16342               
POS_DOMAIN 3662                
POS_LOGIN 4067                
POS_ROBOT 4222                
POS_WORMS 5900                
POS_EMAILSENDER 6031                
POS_EMAILRECEIVER 6174                
POS_SESSION 17221               
POS_SIDER 17428               
POS_FILETYPES 6309                
POS_DOWNLOADS 6556                
POS_OS 6604                
POS_BROWSER 7006                
POS_SCREENSIZE 10131               
POS_UNKNOWNREFERER 10205               
POS_UNKNOWNREFERERBROWSER 11942               
POS_ORIGIN 12585               
POS_SEREFERRALS 12732               
POS_PAGEREFS 13123               
POS_SEARCHWORDS 13795               
POS_KEYWORDS 13966               
POS_MISC 2379                
POS_ERRORS 14048               
POS_CLUSTER 3923                
POS_SIDER_404 14142               
END_MAP

# LastLine    = Date of last record processed - Last record line number in last log - Last record offset in last log - Last record signature value
# FirstTime   = Date of first visit for history file
# LastTime    = Date of last visit for history file
# LastUpdate  = Date of last update - Nb of parsed records - Nb of parsed old records - Nb of parsed new records - Nb of parsed corrupted - Nb of parsed dropped
# TotalVisits = Number of visits
# TotalUnique = Number of unique visitors
# MonthHostsKnown   = Number of hosts known
# MonthHostsUnKnown = Number of hosts unknown
BEGIN_GENERAL 8
LastLine 20190201000612 98 18442 12194971707368
FirstTime 20190101004625
LastTime 20190131235020
LastUpdate 20190201180308 98 0 97 0 0
TotalVisits 155                 
TotalUnique 42                  
MonthHostsKnown 0                   
MonthHostsUnknown 46                  
END_GENERAL

# Misc ID - Pages - Hits - Bandwidth
BEGIN_MISC 10
WindowsMediaPlayerSupport 0 0 0
DirectorSupport 0 0 0
QuickTimeSupport 0 0 0
FlashSupport 0 0 0
PDFSupport 0 0 0
TotalMisc 0 0 0
JavascriptDisabled 0 0 0
JavaEnabled 0 0 0
RealPlayerSupport 0 0 0
AddToFavourites 0 253 0
END_MISC

# Hour - Pages - Hits - Bandwidth - Not viewed Pages - Not viewed Hits - Not viewed Bandwidth
BEGIN_TIME 24
0 177 317 14639891 221 582 13818462
1 94 232 10972823 116 243 6130163
2 86 154 7246168 81 204 5266324
3 97 223 9969556 83 167 4039616
4 76 158 6203883 84 174 4142320
5 132 197 7311356 92 155 3855348
6 66 69 2268353 111 178 4692576
7 103 171 7727624 110 171 4421882
8 103 152 5665477 118 186 4382559
9 109 216 9547937 65 146 3907440
10 132 234 11201861 74 157 3920210
11 126 206 9289913 99 222 7026135
12 118 182 7019181 84 171 4290756
13 165 569 27370164 76 165 3852659
14 174 323 15162446 100 199 4705572
15 183 285 11976070 123 209 4957923
16 203 445 21056722 85 215 6095846
17 136 218 8718091 86 184 5686280
18 135 248 10295830 85 186 4260749
19 90 150 6113579 133 221 5314154
20 118 254 12726490 97 197 4555493
21 90 202 8968287 70 179 4185860
22 146 199 6835060 473 602 13810221
23 112 198 8104397 78 198 4631297
END_TIME

# Domain - Pages - Hits - Bandwidth
# The 25 first Pages must be first (order not required for others)
BEGIN_DOMAIN 13
zz 2898 5459 239607164
us 25 27 799516
sg 16 58 3122100
gb 8 8 267412
lk 8 11 748357
lt 3 3 111235
cn 3 3 94156
fr 2 2 62766
id 2 2 62768
ru 2 2 62766
ip 2 25 1390149
de 1 1 31384
ua 1 1 31386
END_DOMAIN

# Cluster ID - Pages - Hits - Bandwidth
BEGIN_CLUSTER 0
END_CLUSTER

# Login - Pages - Hits - Bandwidth - Last visit
# The 10 first Pages must be first (order not required for others)
BEGIN_LOGIN 0
END_LOGIN

# Robot ID - Hits - Bandwidth - Last visit - Hits on robots.txt
# The 25 first Hits must be first (order not required for others)
BEGIN_ROBOT 38
Googlebot/ 416 12790573 20190131233643 0
bingbot/ 282 10135713 20190131235921 0
Baiduspider/ 117 3479122 20190131214443 0
bot[\s_+:,\.\;\/\\-] 108 4453454 20190131233222 0
(firefox/)([0-9]\.|[0-1][0]\.) 80 3120266 20190124192926 0
Apache\-HttpClient/ 75 2354175 20190123111232 0
SemrushBot/ 69 1895916 20190131130949 0
YandexBot/ 51 1588674 20190131214658 0
Sogou[\x20]web[\x20]spider/ 40 1255520 20190130133545 0
SeznamBot/ 36 1493752 20190131215352 0
AhrefsBot/ 36 983487 20190131081949 0
oBot/ 31 884885 20190122195931 0
no_user_agent 29 786491 20190131144733 0
MegaIndex\.ru/ 27 751161 20190130222848 0
Mail\.RU_Bot/ 24 746426 20190120012355 0
DotBot/ 24 666965 20190120231158 0
netEstate[\x20]NE[\x20]Crawler 23 649207 20190125141319 0
Exabot/ 23 691245 20190127151024 0
Wotbox/ 21 586422 20190128010717 0
CCBot/ 18 504645 20190123015955 0
bingpreview 17 948226 20190126114145 0
YandexMobileBot/ 13 374626 20190115211740 0
Applebot/ 8 251101 20190131025546 0
aiHitBot/ 8 710626 20190116163932 0
facebookexternalhit/ 6 450250 20190123174946 0
YisouSpider 5 146315 20190128094503 0
SafeDNSBot 5 130081 20190124060445 0
nutch 1 31388 20190112105820 0
CFNetwork 1 31384 20190122064353 0
Google[\x20]Web[\x20]Preview 1 7269 20190110101417 0
YandexImages/ 2 121742 20190130012221 0
MJ12bot/ 1 31386 20190128143243 0
curl 4 125532 20190128074921 0
archive\.org_bot 2 38672 20190130132305 0
Googlebot\-Image/ 3 21807 20190127201734 0
crawl 2 62766 20190128235719 0
Wget/ 2 62768 20190124023612 0
DuckDuckGo\-Favicons\-Bot/ 1 31382 20190110160809 0
END_ROBOT

# Worm ID - Hits - Bandwidth - Last visit
# The 5 first Hits must be first (order not required for others)
BEGIN_WORMS 0
END_WORMS

# EMail - Hits - Bandwidth - Last visit
# The 20 first Hits must be first (order not required for others)
BEGIN_EMAILSENDER 0
END_EMAILSENDER

# EMail - Hits - Bandwidth - Last visit
# The 20 first hits must be first (order not required for others)
BEGIN_EMAILRECEIVER 0
END_EMAILRECEIVER

# Files type - Hits - Bandwidth - Bandwidth without compression - Bandwidth after compression
BEGIN_FILETYPES 9
Unknown 876 25273009 0 0
png 508 9946921 0 0
gif 26 44942 0 0
xml 2 3918 0 0
js 1047 61156338 0 0
jpg 585 74748042 0 0
html 1775 55839042 0 0
php 318 10712761 0 0
css 465 8666186 0 0
END_FILETYPES

# Downloads - Hits - Bandwidth
BEGIN_DOWNLOADS 0
END_DOWNLOADS

# OS ID - Hits
BEGIN_OS ID - Hits - Pages 24
Unknown 385 167
winnt 9 9
macosx10 125 24
macosx6 14 3
macosx 696 410
linuxandroid 452 144
win7 946 674
win8.1 62 54
win8 16 14
ios_iphone 280 93
winlong 75 53
winxp 80 52
win2003 1 1
win2000 3 3
winphone 42 7
win10 1123 562
macosx7 3 0
linux 865 482
linuxubuntu 6 6
ios_ipad 125 42
unix 3 2
macosx9 7 4
macosx11 148 94
macosx12 136 71
END_OS

# Browser ID - Hits - Pages
BEGIN_BROWSER 150
opera54.0.2952.64 12 12
safari12.0.1 5 3
chrome61.0.3116.0 5 4
chrome71.0.3578.99 271 68
chrome46.0.2490.80 1 1
chrome60.0.3112.113 1 1
chrome41.0.2226.0 1 1
chrome34.0.1847.116 12 12
chrome55.0.2883.91 3 2
chrome70.0.3538.102 5 4
chrome63.0.3239.111 36 32
chrome67.0.3396.62 4 4
safari8.0 1 0
chrome71.0.3563.0 4 1
firefox48.0 28 28
firefox27.0 3 2
chrome60.0.3112.50 2 1
firefox38.0 2 2
chrome62.0.3202.94 1 1
safari10.0 32 9
chrome66.0.3359.117 5 5
chrome66.0.3359.181 83 83
iphone 1 1
opera53.0.2907.106 5 5
chrome63.0.3239.132 11 11
chrome65.0.3325.146 2 2
msie8.0 48 6
chrome12.0.742.112 1 1
firefox40.1 10 10
opera49.0.2725.47 2 2
opera53.0.2907.57 3 1
chrome45.0.2454.101 4 4
firefox4 2 2
Unknown 39 39
chrome71.0.3578.94 3 2
safari11.0.3 17 2
cloudflare 285 68
firefox47.0 14 14
chrome63.0.3239.26 1 1
chrome59.0.3071.125 31 10
chrome70.0.3538.77 9 9
safari10.1.2 64 5
chrome64.0.3282.140 5 5
chrome31.0.1650.57 1 0
opera36.0.2130.32 8 8
chrome49.0.2623.112 18 7
chrome64.0.3282.137 7 1
firefox33.1 5 5
chrome52.0.2743.116 2 2
chrome29.0.1547.62 15 1
chrome67.0.3396.87 17 14
chrome64.0.3282.167 1 1
firefox58.0 3 3
chrome32.0.1700.102 1 1
chrome69.0.3494.0 28 1
opera57.0.3098.116 4 4
chrome68.0.3440.106 53 30
chrome68.0.3440.91 35 11
opera38.0.2220.41 192 192
firefox36.0 2 0
chrome32.0.1700.72 2 0
safari11.0 61 15
chrome49.0.2623.75 15 15
chrome61.0.3163.100 54 54
firefox25.0 2 0
chrome71.0.3578.80 4 4
chrome50.0.2661.102 4 4
firefox44.0 4 4
chrome11.0.696.68 13 0
opera57.0.3098.106 20 1
firefox61.0 2 2
firefox42.0 204 204
chrome71.0.3578.98 1106 388
chrome68.0.3440.84 50 50
firefox63.0 8 5
firefox45.0 9 9
chrome31.0.1650.63 5 0
safari12.0.2 110 47
msie9.0 48 8
firefox29.0 1 0
chrome60. 1 1
firefox15.0 58 58
safari9.0 6 6
firefox40.0 1 1
firefox59.0 4 4
opera55.0.2994.44 9 9
chrome35.0.1916.153 2 0
chrome72.0.3626.81 5 2
firefox56.0 10 10
chrome55.0.2883.87 8 8
chrome64.0.3282.119 1 1
firefox52.0 84 68
firefox34.0 43 43
chrome30.0.1599.82 16 0
msie7.0 7 3
chrome60.0.3112.101 4 4
safari6.1 3 0
firefox57.0 3 3
firefox64.0 313 85
chrome40.0.2214.85 24 24
chrome51.0.2704.106 1 1
chrome44.0.3520.840 1 1
firefox53.0 6 6
chrome59.0.3071.115 16 3
mozilla 62 61
safari12.0 250 78
firefox 20 20
chrome26.0.1410.63 9 9
firefox55.0 1 1
msie10.0 6 6
netscape5.7 6 6
firefox50.0 185 6
chrome34.0.1847.131 4 4
chrome65.0.3325.181 319 162
firefox32.1 2 2
chrome59.0.3071.104 1 1
chrome67.0.3396.99 31 31
chrome22.0.1216.0 1 1
chrome69.0.3497.100 25 24
chrome58.0.3029.110 17 13
chrome70.0.3538.110 23 14
firefox62.0 10 10
msie6.0 30 18
firefox27.3 1 0
firefox54.0 1 1
edge16 5 5
opera11.2.3.102637 9 3
safari11.1 37 8
chrome38.0.2125.102 6 3
chrome67.0.3396.79 215 215
chrome53.0.2785.143 6 6
opera54.0.2952.51 1 1
chrome40.0.2214.111 1 0
chrome44.0.2403.89 2 2
msie11.0 92 52
chrome70.0.3538.80 15 5
safari6.0.3 1 1
firefox49.0 1 1
firefox33.0 2 1
opera53.0.2907.99 12 12
edge15 42 7
edge17 32 15
opera54.0.2952.71 5 5
safari 270 230
firefox60.0 7 3
opera53.0.2907.68 5 5
firefox26.0 3 0
opera54.0.2952.54 11 11
chrome49.0.2623.108 1 1
chrome41.0.2228.0 3 3
END_BROWSER

# Screen size - Hits
BEGIN_SCREENSIZE 0
END_SCREENSIZE

# Unknown referer OS - Last visit date
BEGIN_UNKNOWNREFERER 27
Mozilla/5.0_Firefox/33.0 20190112220218
Mozilla/5.0_(compatible;_Dataprovider.com) 20190118160108
Go-http-client/1.1 20190107175106
Mozilla/5.0_(compatible;_CloudFlare-AlwaysOnline/1.0;__http://www.cloudflare.com/always-online)_AppleWebKit/534.34 20190131204244
WhatsApp/2.19.11_i 20190124130251
Mozilla/5.0_(compatible;_Qwantify/2.4w;__https://www.qwant.com/)/2.4w 20190123234115
Mozilla/5.0_zgrab/0.x_(compatible;_Researchscan/t13rl;__http://researchscan.comsys.rwth-aachen.de) 20190130124413
Mozilla/5.0_zgrab/0.x_(compatible;_Researchscan/t12ca;__http://researchscan.comsys.rwth-aachen.de) 20190128182020
Mozilla/5.0_(compatible;_ips-agent) 20190114204839
Riddler_(http://riddler.io/about) 20190107081729
WhatsApp/2.18.380_A 20190104110404
Mozilla/5.0_(compatible;_Yeti/1.1;__http://naver.me/spd) 20190111025518
Mozilla/5.0_zgrab/0.x_(compatible;_Researchscan/t12sns;__http://researchscan.comsys.rwth-aachen.de) 20190128050612
Mozilla/6.0_(compatible) 20190123041520
Mozilla/5.0_(compatible;_NetcraftSurveyAgent/1.0;__info@netcraft.com) 20190106225015
M 20190127082111
WhatsApp/2.18.111_i 20190105153500
python-requests/2.20.0 20190108103251
python-requests/2.21.0 20190127142904
Mozilla/5.0_(compatible;_CloudFlare-AlwaysOnline/1.0;__http://www.cloudflare.com/always-online) 20190124170150
Mozilla/5.0_(compatible;_evc-batch/2.0) 20190130094325
python-requests/2.17.3 20190110050957
Mozilla/5.0_(compatible;_CloudFlare-AlwaysOnline/1.0;_http://www.cloudflare.com/always-online) 20190131204239
Scrapy/1.5.1_(_https://scrapy.org) 20190128170805
Mozilla/5.7 20190131191356
WhatsApp/2.19.10_i 20190111143256
Python/3.6_aiohttp/3.5.4 20190121001917
END_UNKNOWNREFERER

# Unknown referer Browser - Last visit date
BEGIN_UNKNOWNREFERERBROWSER 14
Riddler_(http://riddler.io/about) 20190107081729
python-requests/2.21.0 20190127142904
WhatsApp/2.19.11_i 20190124130251
python-requests/2.20.0 20190108103251
Go-http-client/1.1 20190107175106
WhatsApp/2.18.111_i 20190105153500
M 20190127082111
WhatsApp/2.19.10_i 20190111143256
Python/3.6_aiohttp/3.5.4 20190121001917
Scrapy/1.5.1_(_https://scrapy.org) 20190128170805
Surf/1.0_(Linux_4.4.0-138-generic;_go1.10.4) 20190116204521
Surf/1.0_(Linux_4.4.0-116-generic;_go1.10) 20190122164943
python-requests/2.17.3 20190110050957
WhatsApp/2.18.380_A 20190104110404
END_UNKNOWNREFERERBROWSER

# Origin - Pages - Hits 
BEGIN_ORIGIN 6
From0 1743 2112
From1 1 1
From2 279 279
From3 20 20
From4 928 3190
From5 0 0
END_ORIGIN

# Search engine referers ID - Pages - Hits
BEGIN_SEREFERRALS 13
www_google_de 1 1
www_google_nl 1 1
yandexru 4 4
www_google_fr 1 1
www_google_co_uk 3 3
www_google_com_hk 1 1
www_google_ca 1 1
bing 3 3
www_google_lk 15 15
www_google_co_in 1 1
www_google_com_au 4 4
www_google_com 243 243
search_yahoo_co_jp 1 1
END_SEREFERRALS

# External page referers - Pages - Hits
# The 25 first Pages must be first (order not required for others)
BEGIN_PAGEREFS 14
https://www.facebook.com 5 5
http://pornole.online 2 2
https://lm.facebook.com 2 2
https://zvuk.fun 1 1
http://lunno.nl 1 1
https://www.galblog.top/guide-to-seo-what-you-need-to-know-in-2019/58674082/ 1 1
http://l.facebook.com/l.php 1 1
https://live.ipms247.com/booking/bookingstatus.php 1 1
http://directtravelss.com 1 1
https://www.donaldblog.top/seo-content-writing-tips-2019/78771785/ 1 1
http://www.marinetraffic.com 1 1
https://live.ipms247.com 1 1
https://pyr.am/id-dial/ellensplace.lk 1 1
http://m.facebook.com 1 1
END_PAGEREFS

# Search keyphrases - Number of search
# The 10 first number of search must be first (order not required for others)
BEGIN_SEARCHWORDS 1
place+in+colombo 1
END_SEARCHWORDS

# Search keywords - Number of search
# The 25 first number of search must be first (order not required for others)
BEGIN_KEYWORDS 3
place 1
colombo 1
in 1
END_KEYWORDS

# Errors - Hits - Bandwidth
BEGIN_ERRORS 1
302 3446 73553715
END_ERRORS

# URL with 404 errors - Hits - Last URL referrer
BEGIN_SIDER_404 0
END_SIDER_404

# Host - Pages - Hits - Bandwidth - Last visit date - [Start date of last visit] - [Last page of last visit]
# [Start date of last visit] and [Last page of last visit] are saved only if session is not finished
# The 25 first Hits must be first (order not required for others)
BEGIN_VISITOR 46
10.148.0.2 2898 5459 239607164 20190131064200
103.252.200.188 16 58 3122100 20190131135041
51.38.162.236 6 6 188298 20190131191356
85.206.165.25 3 3 111235 20190131155339
112.135.8.194 3 4 102416 20190131102250
18.191.215.241 3 3 94206 20190131235020
60.191.38.77 2 2 62772 20190131122255
18.218.231.141 2 2 62804 20190131231955
185.17.149.157 2 2 79114 20190131130330
102.165.39.65 2 2 62768 20190131164102
124.43.18.225 2 4 551783 20190131155821
112.134.241.87 2 2 62772 20190131165617
18.217.237.116 1 1 31402 20190131104107
139.81.43.30 1 1 31384 20190131161504
3.16.164.152 1 1 31402 20190131175012
18.237.59.245 1 1 31382 20190131143056
2400:cb00:36:1014::a29e:41a6 1 7 223955 20190131204239
62.210.83.78 1 1 31384 20190131092622
34.222.146.152 1 1 31384 20190131144213
47.111.75.134 1 1 31384 20190131182312
52.14.138.220 1 1 31402 20190131125119
13.59.157.70 1 1 31402 20190131074345
18.224.136.166 1 1 31402 20190131114821
13.57.233.99 1 1 31386 20190131141823
185.81.157.113 1 1 31382 20190131103929
162.158.68.219 0 1 7269 
2400:cb00:36:1034::a29e:44db 0 3 197171 
185.246.210.153 1 1 31384 20190131224320
3.16.21.14 1 1 31402 20190131071224
18.218.118.227 1 1 31402 20190131195005
18.219.132.254 1 1 31402 20190131214948
13.57.252.112 1 1 31402 20190131163655
124.43.28.195 1 1 31386 20190131141626
18.220.176.8 1 1 31402 20190131121940
2400:cb00:36:1003::a29e:4046 0 2 4277 
18.223.108.8 1 1 31402 20190131184915
18.222.105.94 1 1 31402 20190131152116
18.223.135.142 1 1 31402 20190131205005
138.246.253.5 1 1 31384 20190131124151
178.171.66.224 1 1 31382 20190131071747
2400:cb00:36:1016::a29e:41f4 1 13 964746 20190131204230
18.223.107.37 1 1 31402 20190131134933
52.15.80.96 1 1 31402 20190131224900
66.102.6.149 1 1 31402 20190131143655
162.158.65.166 0 1 7269 
77.123.109.50 1 1 31386 20190131223657
END_VISITOR

# Date - Pages - Hits - Bandwidth - Visits
BEGIN_DAY 31
20190101 38 101 4179504 9
20190102 97 216 10923196 5
20190103 107 210 8976941 2
20190104 145 276 12236605 3
20190105 75 187 9145302 1
20190106 59 123 5633063 4
20190107 88 156 6063803 3
20190108 86 198 8564090 7
20190109 136 218 9223353 2
20190110 76 177 8471842 1
20190111 105 214 9039602 5
20190112 66 100 4614039 3
20190113 92 236 11244931 3
20190114 89 156 7473333 3
20190115 158 265 11467818 3
20190116 109 167 7115223 4
20190117 72 154 6213679 2
20190118 127 201 7775473 4
20190119 76 120 5560038 6
20190120 79 189 9336323 2
20190121 168 236 8995260 4
20190122 110 228 10089341 2
20190123 88 173 7309332 3
20190124 102 162 7538795 5
20190125 97 220 9566053 2
20190126 70 103 3945437 5
20190127 93 156 6501311 6
20190128 86 125 5703092 3
20190129 95 205 9156491 3
20190130 94 172 7056614 4
20190131 88 158 7271275 46
END_DAY

# Session range - Number of visits
BEGIN_SESSION 7
30mn-1h 8
15mn-30mn 3
2mn-5mn 2
30s-2mn 1
1h+ 80
0s-30s 56
5mn-15mn 5
END_SESSION

# URL - Pages - Bandwidth - Entry - Exit
# The 25 first Pages must be first (order not required for others)
BEGIN_SIDER 49
/ 1754 55065426 150 139
/contact-us.php 164 6484242 2 3
/contact-us 148 5852593 0 6
/gallery 96 3460431 1 0
/location 68 1553198 0 1
/accommodation/standard-rooms 62 1547418 0 0
/accommodation/super-deluxe-rooms 62 1538037 0 2
/accommodation/deluxe-rooms 57 1429627 1 0
/about-us 53 1290294 0 0
/promotions 52 1282794 0 1
/accommodation 48 1345038 0 0
/facilities/restaurant 40 964731 0 0
/suites.php 38 1042385 0 0
/facilities 36 956458 0 0
/facilities/swimming-pool 32 760165 0 0
/promotions.php 28 690655 0 0
/index.php 27 847672 0 0
/terms-and-conditions 26 774778 0 0
/swimming-pool.php 24 614285 0 0
/privacy-policy 23 661328 0 0
/accommodation.php 17 476167 1 1
/contact-us/ 15 593447 0 2
/facilities/location 6 136965 0 0
/facilities/promotions 5 110821 0 0
/accommodation/about-us 5 116391 0 0
/deluxe_rooms.php 2 55048 0 0
/facilities/ 1 26562 0 0
/accommodation/terms-and-conditions 5 146501 0 0
/location.php 2 47218 0 0
/gallery.php 4 144125 0 0
/accommodation/promotions 5 110821 0 0
/sitemap.xml 2 3918 0 0
/facilities/accommodation 5 131836 0 0
/index.php/admin/ 1 31384 0 0
/accommodation/accommodation 5 131836 0 0
/accommodation/location 5 114136 0 0
/accommodation/privacy-policy 5 140951 0 0
/index.php/Home/Index/index 2 62766 0 0
/facilities/terms-and-conditions 5 146501 0 0
/facilities/facilities 5 124626 0 0
/about-us.php 4 97340 0 0
/standard_rooms.php 2 55390 0 0
/accommodation/facilities 5 124626 0 0
/index.php/component/users/ 3 94209 0 0
/facilities.php 4 106234 0 0
/facilities/privacy-policy 5 140951 0 0
/restaurant.php 2 52000 0 0
/facilities/about-us 5 116391 0 0
/accommodation/ 1 28014 0 0
END_SIDER
