AWSTATS DATA FILE 7.7 (build 20180105)
# If you remove this file, all statistics for date 201810 will be lost/reset.
# Last config file used to build this data file was /home2/fyfxamvcmvss/tmp/awstats/awstats.randholeeresort.freudenbergleisure.com.conf.

# Position (offset in bytes) in this file for beginning of each section for
# direct I/O access. If you made changes somewhere in this file, you should
# also remove completely the MAP section (AWStats will rewrite it at next
# update).
BEGIN_MAP 28
POS_GENERAL 2040                
POS_TIME 2721                
POS_VISITOR 20571               
POS_DAY 89572               
POS_DOMAIN 3691                
POS_LOGIN 3983                
POS_ROBOT 4138                
POS_WORMS 6161                
POS_EMAILSENDER 6292                
POS_EMAILRECEIVER 6435                
POS_SESSION 90517               
POS_SIDER 90732               
POS_FILETYPES 6570                
POS_DOWNLOADS 6859                
POS_OS 6907                
POS_BROWSER 7362                
POS_SCREENSIZE 11830               
POS_UNKNOWNREFERER 11904               
POS_UNKNOWNREFERERBROWSER 13885               
POS_ORIGIN 14839               
POS_SEREFERRALS 14991               
POS_PAGEREFS 16025               
POS_SEARCHWORDS 19132               
POS_KEYWORDS 19701               
POS_MISC 2383                
POS_ERRORS 20156               
POS_CLUSTER 3839                
POS_SIDER_404 20262               
END_MAP

# LastLine    = Date of last record processed - Last record line number in last log - Last record offset in last log - Last record signature value
# FirstTime   = Date of first visit for history file
# LastTime    = Date of last visit for history file
# LastUpdate  = Date of last update - Nb of parsed records - Nb of parsed old records - Nb of parsed new records - Nb of parsed corrupted - Nb of parsed dropped
# TotalVisits = Number of visits
# TotalUnique = Number of unique visitors
# MonthHostsKnown   = Number of hosts known
# MonthHostsUnKnown = Number of hosts unknown
BEGIN_GENERAL 8
LastLine 20181101000029 96 19928 10406628144146
FirstTime 20181001003915
LastTime 20181031234949
LastUpdate 20181101174107 96 0 95 0 0
TotalVisits 2829                
TotalUnique 842                 
MonthHostsKnown 0                   
MonthHostsUnknown 2197                
END_GENERAL

# Misc ID - Pages - Hits - Bandwidth
BEGIN_MISC 10
AddToFavourites 0 416 0
RealPlayerSupport 0 0 0
QuickTimeSupport 0 0 0
PDFSupport 0 0 0
DirectorSupport 0 0 0
TotalMisc 0 0 0
WindowsMediaPlayerSupport 0 0 0
JavaEnabled 0 0 0
FlashSupport 0 0 0
JavascriptDisabled 0 0 0
END_MISC

# Hour - Pages - Hits - Bandwidth - Not viewed Pages - Not viewed Hits - Not viewed Bandwidth
BEGIN_TIME 24
0 123 462 41165573 128 219 5878588
1 72 168 6010153 178 296 7915293
2 117 324 13015750 138 251 7000928
3 61 214 24008420 100 183 5154675
4 74 193 6248023 212 291 7964399
5 58 133 11085325 135 196 4970130
6 61 103 3521976 113 204 6319763
7 55 116 3861237 122 190 5045007
8 153 366 25313751 141 217 5684227
9 202 346 13278090 118 214 6284023
10 218 330 18246693 108 209 5705202
11 242 679 51782600 133 227 6476000
12 237 484 24934694 187 280 7484564
13 255 551 21107419 124 251 9653394
14 302 596 24981048 144 231 6017136
15 271 502 30255197 148 256 7006599
16 266 948 49636798 165 289 7622698
17 240 529 26822727 154 270 6757207
18 171 500 32545298 116 226 6035144
19 192 429 14405595 106 214 5832532
20 174 516 33700630 160 271 7927702
21 149 384 23121753 135 252 7037483
22 125 273 20615888 128 220 6149211
23 142 255 9755702 139 262 8698939
END_TIME

# Domain - Pages - Hits - Bandwidth
# The 25 first Pages must be first (order not required for others)
BEGIN_DOMAIN 4
us 3579 8010 425719140
eu 359 1089 79525037
hk 14 168 12077735
sc 8 134 12098428
END_DOMAIN

# Cluster ID - Pages - Hits - Bandwidth
BEGIN_CLUSTER 0
END_CLUSTER

# Login - Pages - Hits - Bandwidth - Last visit
# The 10 first Pages must be first (order not required for others)
BEGIN_LOGIN 0
END_LOGIN

# Robot ID - Hits - Bandwidth - Last visit - Hits on robots.txt
# The 25 first Hits must be first (order not required for others)
BEGIN_ROBOT 47
bingbot/ 630 21514982 20181031193932 0
Googlebot/ 549 18651646 20181031221856 0
YandexBot/ 266 7705000 20181031202545 0
Baiduspider/ 132 3788849 20181031210611 0
bingpreview 94 3906874 20181031193327 0
BLEXBot/ 88 2333671 20181030183834 0
bot[\s_+:,\.\;\/\\-] 62 5012651 20181031084125 0
SeznamBot/ 58 4435718 20181024024615 0
MegaIndex\.ru/ 51 1390966 20181018201437 0
baidu 46 4435713 20181030073211 0
360Spider 39 1266033 20181030103652 0
no_user_agent 38 1381596 20181031163913 0
facebookexternalhit/ 37 1686403 20181017091238 0
CCBot/ 37 1045698 20181023002131 0
(firefox/)([0-9]\.|[0-1][0]\.) 32 890971 20181030120838 0
Mail\.RU_Bot/ 25 702245 20181029091447 0
AhrefsBot/ 24 713143 20181031224948 0
Applebot/ 23 640205 20181031162917 0
SemrushBot/ 18 532752 20181026222812 0
YandexMobileBot/ 17 195169 20181027233613 0
Exabot/ 16 477698 20181027201028 0
DotBot/ 14 368295 20181030044032 0
Sogou[\x20]web[\x20]spider/ 14 464086 20181027025423 0
YandexImages/ 14 2349746 20181027143310 0
Googlebot\-Image/ 9 514211 20181013063311 0
nbot 1 32465 20181024102203 0
istellabot/ 1 32465 20181016183703 0
archive\.org_bot 3 218833 20181026152042 0
Apache\-HttpClient/ 3 97396 20181019201431 0
MojeekBot/ 2 57694 20181017010500 0
YisouSpider 5 137991 20181028133510 0
Screaming[\x20]Frog[\x20]SEO[\x20]Spider/ 2 64932 20181009142658 0
nutch\-1\.4/ 2 64929 20181029124817 0
php 5 162325 20181029034821 0
crawl 2 64924 20181029044131 0
SurdotlyBot/ 2 64923 20181015113225 0
LinkCheck 1 32466 20181024235955 0
oBot/ 4 129867 20181022184821 0
DuckDuckGo\-Favicons\-Bot/ 3 97395 20181031145551 0
Googlebot\-Video/ 1 120734 20181010125035 0
link 1 38233 20181028230503 0
microsoft.*discovery 1 32466 20181016171352 0
yandex 1 185783 20181015200818 0
SafeDNSBot 1 32461 20181016012223 0
MJ12bot/ 1 32460 20181028120531 0
robot 4 129860 20181022212958 0
Deepnet[\x20]Explorer 3 97395 20181029121342 0
END_ROBOT

# Worm ID - Hits - Bandwidth - Last visit
# The 5 first Hits must be first (order not required for others)
BEGIN_WORMS 0
END_WORMS

# EMail - Hits - Bandwidth - Last visit
# The 20 first Hits must be first (order not required for others)
BEGIN_EMAILSENDER 0
END_EMAILSENDER

# EMail - Hits - Bandwidth - Last visit
# The 20 first hits must be first (order not required for others)
BEGIN_EMAILRECEIVER 0
END_EMAILRECEIVER

# Files type - Hits - Bandwidth - Bandwidth without compression - Bandwidth after compression
BEGIN_FILETYPES 11
jpg 2001 293163936 0 0
js 1953 58065609 0 0
swf 5 603780 0 0
jpeg 33 616239 0 0
gif 46 100746 0 0
png 906 45201222 0 0
php 300 8657475 0 0
css 502 10571768 0 0
html 2581 80748077 0 0
Unknown 1072 31684032 0 0
xml 2 7456 0 0
END_FILETYPES

# Downloads - Hits - Bandwidth
BEGIN_DOWNLOADS 0
END_DOWNLOADS

# OS ID - Hits
BEGIN_OS ID - Hits - Pages 28
Unknown 596 359
winnt 25 25
winme 10 10
win7 2255 944
win2000 10 10
win98 2 2
winxp 139 139
macosx8 4 4
win95 6 6
win10 2975 1269
macosx11 133 29
winlong 39 19
winunknown 5 5
macosx6 7 7
macosx12 105 62
unix 10 10
linuxandroid 840 349
win8.1 251 155
macosx 435 87
win16 1 1
macosx9 21 14
win2003 11 11
win8 23 21
macosx7 1 1
ios_iphone 594 164
macosx10 93 19
linux 363 164
ios_ipad 447 74
END_OS

# Browser ID - Hits - Pages
BEGIN_BROWSER 212
opera56.0.3051.36 17 3
chrome66.0.3359.139 3 3
edge16 44 13
chrome69.0.3494.0 15 4
android 1 1
firefox27.3 7 7
Unknown 176 176
chrome57.0.2987.108 14 8
chrome63.0.3239.132 32 32
chrome65.0.3325.181 260 156
chrome60.0.3112.113 1 1
chrome10.0.649.0 1 1
chrome55.0.3028.635 1 1
chrome62.0.3202.73 1 1
safari11.0.3 4 1
firefox56.0 6 5
firefox27.0 2 2
chrome70.0.3538.77 355 173
firefox62.0 558 119
chrome61.0.3163.31 3 3
firefox57.0 1 1
chrome70.0.3538.54 1 1
chrome41.0.8740.668 1 1
chrome52.0.2743.91 3 3
chrome37.0.2062.120 1 1
chrome18.0.1025.166 10 6
chrome45.0.3335.457 1 1
chrome57.0.2987.132 9 1
safari11.0.2 1 1
chrome53.0.2785.143 1 1
chrome72.0.3590.0 2 1
chrome49.0.2623.75 19 19
msie5.5 11 11
chrome60.0.3112.107 9 4
opera12.00 1 1
chrome38.0.2125.102 12 10
firefox48.0 8 8
chrome61.0.3163.128 66 3
chrome51.0.2704.106 8 8
chrome57.0.6093.439 1 1
msie9.0 40 39
chrome65.0.3325.162 19 11
msie6.0 83 83
edge13 1 1
opera7.60 1 1
firefox54.0 1 1
cloudflare 316 90
netscape 1 1
chrome38.0.2125.111 14 14
firefox50.0 88 15
chrome34.0.1847.137 1 1
opera56.0.3051.52 1 1
chrome62.0.3202.94 15 15
safari11.0.1 15 6
msie5.0 5 5
chrome40.0.3649.801 1 1
chrome36.0.1985.125 1 1
opera9.01 2 2
chrome56.0.6102.11 1 1
safari10.1.1 1 1
opera45.0.2552.812 1 1
chrome68.0.3440.91 54 23
chrome54.0.2840.98 22 1
firefox43.0 56 26
chrome63.0.3239.84 21 5
chrome50.0.2661.102 21 17
chrome69.0.3497.120 9 9
chrome44.0.4545.339 1 1
safari11.0 395 73
chrome38.0.1025.166 14 3
opera49.0.2725.47 3 3
chrome59.0.4742.581 1 1
safari12.0 572 111
chrome26.0.1410.63 11 11
firefox30.0 3 3
chrome68.0.3440.106 37 22
firefox61.0 5 4
safari9.0 50 8
chrome44.0.2403.133 12 2
opera55.0.2994.61 26 4
chrome45.0.2454.94 1 1
chrome34.0.1847.131 1 1
chrome67.0.3396.87 138 9
chrome66.0.3359.158 3 3
chrome63.0.3239.111 7 5
firefox55.0 15 15
chrome33.0.1750.154 1 1
edge18 11 0
chrome69.0.3497.81 2 2
chrome56.0.2924.87 3 2
chrome47.0.8336.370 1 1
chrome59.0.3071.125 41 10
chrome64.0.3251.0 2 2
chrome70.0.3538.80 7 3
firefox42.0 9 9
opera7.11 1 1
chrome42.0.4921.548 1 1
chrome49.0.2623.110 4 4
chrome26.0.1410.33 9 1
safari9.1.3 7 0
chrome44.0.2403.89 1 1
chrome66.0.3359.181 20 5
safari5.1 7 7
chrome41.0.2228.0 8 8
chrome58.0.3029.110 3 3
firefox40.1 148 148
chrome66.0.3359.117 10 10
chrome57.0.2987.133 2 2
chrome58.0.3029.96 2 2
chrome57.0.5501.614 1 1
chrome16.0.912.63 1 1
chrome56.0.3657.917 1 1
chrome34.0.1847.116 10 10
chrome60.0.3112.101 6 6
firefox33.0 3 3
chrome64.0.3282.137 2 2
chrome32.0.1667.0 1 1
chrome69.0.3497.91 21 3
chrome39.0.2171.95 3 0
chrome53.0.2785.104 2 0
msie10.0 15 2
netscape5.0 3 3
opera6.01 1 1
chrome59.0.2098.963 1 1
netscape4.61 1 1
chrome41.0.5202.374 3 1
opera54.0.2952.51 2 2
opera53.0.2907.68 1 1
chrome67.0.3396.103 1 0
safari8.0 2 1
safari10.1.2 81 7
firefox45.0 15 15
opera8.01 5 5
chrome23.0.1271.97 1 1
chrome30.0.1599.101 1 1
firefox51.0 1 1
chrome69.0.3497.92 1 1
chrome42.0.2311.152 1 1
opera9.00 1 1
chrome60.0.8619.881 1 1
iphone 3 3
chrome41.0.2225.0 1 1
firefox52.0 34 11
opera8.00 5 5
edge12 10 1
chrome66.0.3359.126 6 6
chrome71.0.3559.6 3 2
chrome67.0.3396.79 3 3
chrome51.0.2704.63 1 1
mozilla 105 90
chrome40.0.2214.93 1 1
chrome57.0.8514.257 1 1
firefox15.0 1 1
chrome70.0.3538.67 78 40
opera8.50 10 10
chrome46.0.4641.942 1 1
chrome46.0.9465.372 1 1
opera36.2.2254.130496 8 6
edge17 181 35
safari11.1 2 1
chrome60.0.2169.496 1 1
chrome67.0.3396.99 26 13
opera9.0 2 2
chrome64.0.3282.119 19 7
opera38.0.2220.41 1 1
msie8.0 36 32
chrome41.0.8926.567 1 1
chrome70.0.3538.64 4 2
opera53.0.2907.99 1 1
msie7.0 21 21
chrome45.0.2454.93 9 4
firefox59.0 19 6
chrome49.0.2623.112 7 7
chrome52.0.2743.98 1 1
chrome71.0.3573.0 2 2
chrome58.0.3976.687 2 0
chrome72.0.3593.0 4 1
chrome68.0.3440.70 6 3
chrome56.0.9011.384 1 1
chrome55.0.2883.95 5 4
firefox 2 2
opera44.5.0942.5214 1 1
chrome55.0.2883.91 1 1
chrome69.0.3497.100 3763 1495
edge14 2 2
opera7.54 3 3
chrome55.0.2883.87 14 14
opera36.0.2130.32 27 27
firefox20.0 1 1
opera55.0.2994.44 3 3
opera45.1.2246.125351 1 1
chrome52.0.2743.116 33 3
msie4.01 3 3
firefox21.0 16 6
chrome40.0.2214.85 17 17
chrome61.0.3163.100 31 31
safari 47 41
firefox25.0 1 1
chrome46.0.2490.76 3 3
chrome45.0.2454.101 14 14
firefox47.0 1 1
chrome42.0.2311.90 4 4
safari10.0 56 21
safari11.1.2 56 14
edge15 15 9
msie11.0 274 97
opera56.0.3051.43 85 30
chrome30.0.1599.82 8 0
firefox63.0 33 21
chrome23.0.1271.64 19 19
chrome63.0.3205.0 1 1
chrome24.0.1290.1 1 1
END_BROWSER

# Screen size - Hits
BEGIN_SCREENSIZE 0
END_SCREENSIZE

# Unknown referer OS - Last visit date
BEGIN_UNKNOWNREFERER 35
Mozilla_5.0 20181003191328
Mozilla/5.0_(compatible;_CloudFlare-AlwaysOnline/1.0;__http://www.cloudflare.com/always-online)_AppleWebKit/534.34 20181031023459
python-requests/2.10.0 20181004090219
WhatsApp/0.3.1071_N 20181016115506
Mozilla/5.0_(compatible;_NetcraftSurveyAgent/1.0;__info@netcraft.com) 20181009085055
WhatsApp/2.18.93_i 20181025105152
WhatsApp/0.3.557_N 20181008122842
The_Knowledge_AI 20181031074800
WhatsApp/2.18.293_A 20181009114207
python-requests/2.19.1 20181025185400
Mozilla/5.0_AppleWebKit/537.36_(KHTML,_like_Gecko)_Chrome/55.0.2883.95_Safari/537.36/ 20181011150324
Mozilla/5.0_(compatible;_CloudFlare-AlwaysOnline/1.0;__http://www.cloudflare.com/always-online) 20181031023352
Scrapy/1.5.1_(_https://scrapy.org) 20181017053822
WhatsApp/2.18.248_A 20181029161337
Mozilla/5.0_(compatible;_Yeti/1.1;__http://naver.me/spd) 20181025025240
Foo 20181029134321
WhatsApp/2.18.306_A 20181019165046
Mozilla/5.0/Firefox/42.0_-_nbertaupete95(at)gmail.com 20181005023034
python-requests/2.18.4 20181012231446
node.io 20181012064853
python-requests/2.20.0 20181030181923
Mozilla/5.0_(Google-PhysicalWeb) 20181014110207
null 20181023083324
Mozilla/5.0_(compatible;_ips-agent) 20181006200649
Mozilla/5.0_(compatible;_Qwantify/2.4w;__https://www.qwant.com/)/2.4w 20181030201636
Go-http-client/1.1 20181024024911
Mozilla/5.0_(compatible;_Dataprovider.com) 20181030142951
ia_archiver 20181017194130
WhatsApp/0.3.1409_N 20181028132800
Mozilla/5.0_zgrab/0.x_(compatible;_Researchscan/t12sns;__http://researchscan.comsys.rwth-aachen.de) 20181029141053
Go-http-client/2.0 20181017212738
Mozilla/5.0_zgrab/0.x_(compatible;_Researchscan/t13rl;__http://researchscan.comsys.rwth-aachen.de) 20181022220221
OrgProbe/2.0.0_(_http://www.blocked.org.uk) 20181026195922
Mozilla/5.0_zgrab/0.x_(compatible;_Researchscan/t12ca;__http://researchscan.comsys.rwth-aachen.de) 20181016103407
Ruby 20181024210936
END_UNKNOWNREFERER

# Unknown referer Browser - Last visit date
BEGIN_UNKNOWNREFERERBROWSER 24
Foo 20181029134321
OrgProbe/2.0.0_(_http://www.blocked.org.uk) 20181026195922
Scrapy/1.5.1_(_https://scrapy.org) 20181017053822
WhatsApp/2.18.248_A 20181029161337
Ruby 20181024210936
WhatsApp/2.18.306_A 20181019165046
Microsoft_Office_Word_2013 20181030000231
python-requests/2.19.1 20181025185400
ia_archiver 20181017194130
WhatsApp/2.18.293_A 20181009114207
Go-http-client/2.0 20181017212738
WhatsApp/0.3.1409_N 20181028132800
WhatsApp/2.18.93_i 20181025105152
WhatsApp/0.3.1071_N 20181016115506
The_Knowledge_AI 20181031074800
Go-http-client/1.1 20181024024911
WhatsApp/0.3.557_N 20181008122842
Microsoft_Office_Word_2014 20181003155835
python-requests/2.7.0_CPython/2.7.0_Windows/post2008Server 20181029115215
python-requests/2.18.4 20181012231446
null 20181023083324
python-requests/2.10.0 20181004090219
python-requests/2.20.0 20181030181923
node.io 20181012064853
END_UNKNOWNREFERERBROWSER

# Origin - Pages - Hits 
BEGIN_ORIGIN 6
From0 1377 1508
From1 8 8
From2 1121 1128
From3 186 186
From4 1268 6571
From5 0 0
END_ORIGIN

# Search engine referers ID - Pages - Hits
BEGIN_SEREFERRALS 47
www_google_com 198 200
www_google_at 3 3
www_google_co_kr 1 1
www_google_de 4 4
www_google_com_hk 2 2
www_google_bg 0 1
www_google_lt 3 3
www_google_rs 1 1
www_google_co_jp 4 4
www_google_com_ph 1 1
www_google_fr 5 6
www_google_es 5 5
www_google_co_za 2 2
www_google_hr 1 1
www_google_be 6 6
www_google_ae 9 9
www_google_co_in 103 103
www_google_ch 0 1
www_google_no 2 2
www_google_nl 10 10
baidu 26 26
live 1 1
yandexru 6 6
www_google_com_sa 2 2
www_google_com_sg 6 6
www_google_lk 612 613
www_google_pt 1 1
www_google_co_uk 35 35
www_google_pl 1 1
www_google_co_il 6 6
www_google_ca 6 7
www_google_it 6 6
askcatchall 2 2
www_google_com_eg 2 2
www_google_com_pk 2 2
www_google_hu 1 1
duckduckgo 1 1
search_yahoo_com 2 2
www_google_gr 1 1
bing 6 6
www_google_dk 4 4
www_google_co_nz 3 3
www_google_com_bh 1 1
www_google_com_au 17 17
google_catchall 1 1
www_google_mu 8 8
www_google_ru 2 2
END_SEREFERRALS

# External page referers - Pages - Hits
# The 25 first Pages must be first (order not required for others)
BEGIN_PAGEREFS 74
http://sta-grand.ru 10 10
http://resa.monsrilanka.com/DATA/html/proposal.php 8 8
https://komp-pomosch.ru 8 8
https://be.secretescapes.com/rondreis-sri-lanka-and-5-star-all-inclusive-op-de-malediven-sri-lanka-dambulla-kandy-nuwara-eliya-ella-colombo-and-malediven/sale 7 7
https://elonm.ru 6 6
http://pornoplen.com 6 6
http://vanrise.com.ua 5 5
https://proartrit.com 5 5
https://nl.secretescapes.com/droomreis-naar-sri-lanka-and-malediven-sri-lanka-dambulla-kandy-colombo-and-malediven-horubadhoo-island/sale 5 5
https://veterinariya.com 5 5
https://cariestop.com 5 5
http://www.free-website-traffic.com/randholeeresorts.com 4 4
http://innoslicon.com/html/product/index.htm 4 4
http://xn--d1abj0abs9d.in.ua 4 4
http://www.stroi-24.ru 4 4
https://vykup-avto-krasnodar.ru 4 4
https://buy-meds24.com 4 4
http://buypillsonline24h.com 4 4
https://bitmaein.com/shop 3 3
http://pospektr.ru 3 3
http://zameskino.ru 3 3
https://xn----7sbbahaq9bb5afgiqfliv4m.xn--p1ai 3 3
http://kinoprinc.ru 3 3
http://skinali.photo-clip.ru 3 3
https://pp-budpostach.com.ua/g835191-stoimost-gazobloka-gazobetona 3 3
https://xn--e1aaajzchnkg.ru.com 2 2
https://rdlf.jp/blog 1 1
https://www.baikaleminer.com 2 2
http://resa.monsrilanka.com/DATA/html/roadbook.php 1 1
http://grafaman.ru 1 1
http://www.sanog.org/sanog25/accomo.html 1 1
https://wedesigntrips.com/fileadmin/user_upload/Sri_Lanka_entdecken_fuer_Brigitte_im_Maerz_2019_Angebot_2.pdf 1 1
https://rybalka-opt.ru 1 1
https://detskiezabolevaniya.com 1 1
https://serdechnic.com 1 1
http://srilankanlife.ru 1 1
http://hit-kino.ru 1 1
http://s.zlsite.com 1 1
http://www.bo-mietours.com/hotels.html 1 1
https://bpro1.top 2 2
http://www.regionshop.biz 2 2
http://www.srilanka-rundreise.de/de/links.html 1 1
https://spinanebolit.com 2 2
http://vector.peskostryi.ru 2 2
https://dverirespekt.ru 1 1
https://pills24h.com 2 2
http://money7777.info 1 1
http://resa.monsrilanka.com/DATA/html/invoice.php 1 1
https://gcup.ru 2 2
https://mega-polis.biz.ua 1 1
http://mnogabukaff.net 2 2
http://artclipart.ru 1 1
http://www.magasinetreiselyst.no/reportasjer/guide/sri-lanka-10-pa-topp 1 1
https://www.mycheaptraffic.com/randholeeresorts.com 1 1
https://cheappills24h.com 1 1
https://www.sribno.net 1 1
https://www.blogstar.fun/top-five-techniques-to-get-quick-visitors-to-site-and-make-money-quickly/43010252/ 2 2
http://www.drugstoreforyou.com 2 2
http://lider82.ru 2 2
http://www.free-website-traffic.com/randholeeresort.freudenbergleisure.com 1 1
http://infra-e.ru 2 2
https://ponosanet.com 1 1
https://x-lime.com 1 1
http://komputers-best.ru 1 1
https://lsrmfunctions.azurewebsites.net 1 1
https://nakozhe.com 2 2
http://poiskzakona.ru 2 2
http://www.poms2018.org/about/Accommodation.php 2 2
https://xn--80aaafbn2bc2ahdfrfkln6l.xn--p1ai 1 1
https://undergroundcityphoto.com 2 2
http://xn----7sbabn5abjehfwi8bj.xn--p1ai 2 2
https://sky-mine.ru 1 1
http://magnetic-bracelets.ru 1 1
https://traveltriangle.com/blog/restaurants-in-bentota/ 1 1
END_PAGEREFS

# Search keyphrases - Number of search
# The 10 first number of search must be first (order not required for others)
BEGIN_SEARCHWORDS 31
randholee+resort+%26+spa 2
softr85 1
randholee+resort 1
y4w8 1
doubtg92 1
the+randholee+rosort+und+spa 1
donkeyveu 1
factorl3x 1
breathingpen 1
leveliiy 1
mara 1
solveuu5 1
t6ua 1
myselfvyh 1
alm5 1
randholi+resorts%e6%96%af%e9%87%8c%e5%85%b0%e5%8d%a1 1
apn12178 1
centgs1 1
pitchx6v 1
ranchjcc 1
borderwk4 1
ifu2 1
boarddnh 1
wood492 1
smooth9qn 1
mainl2j 1
himselfefw 1
its5su 1
framel2i 1
relatedccn 1
boundou4 1
END_SEARCHWORDS

# Search keywords - Number of search
# The 25 first number of search must be first (order not required for others)
BEGIN_KEYWORDS 36
randholee 4
spa 3
resort 3
%26 2
centgs1 1
pitchx6v 1
ifu2 1
ranchjcc 1
wood492 1
softr85 1
doubtg92 1
the 1
breathingpen 1
factorl3x 1
resorts%e6%96%af%e9%87%8c%e5%85%b0%e5%8d%a1 1
myselfvyh 1
himselfefw 1
mainl2j 1
solveuu5 1
randholi 1
its5su 1
und 1
framel2i 1
rosort 1
boundou4 1
relatedccn 1
leveliiy 1
mara 1
t6ua 1
donkeyveu 1
y4w8 1
smooth9qn 1
boarddnh 1
borderwk4 1
alm5 1
apn12178 1
END_KEYWORDS

# Errors - Hits - Bandwidth
BEGIN_ERRORS 2
302 2887 65008351
301 34 9486
END_ERRORS

# URL with 404 errors - Hits - Last URL referrer
BEGIN_SIDER_404 0
END_SIDER_404

# Host - Pages - Hits - Bandwidth - Last visit date - [Start date of last visit] - [Last page of last visit]
# [Start date of last visit] and [Last page of last visit] are saved only if session is not finished
# The 25 first Hits must be first (order not required for others)
BEGIN_VISITOR 2197
172.68.202.9 284 307 8936540 20181031183233
172.68.202.45 234 254 8001931 20181031161706
172.68.202.21 94 119 3823770 20181031125416
172.68.202.15 88 109 3920207 20181031163807
172.68.201.11 54 54 1752840 20181031181820
172.68.201.5 40 40 1298400 20181031204052
162.158.165.129 38 40 1701399 20181030095021
172.68.239.196 34 34 1103810 20181031032631
172.68.144.138 34 35 1032635 20181031151732
172.68.201.41 32 32 1038720 20181031190105
172.68.239.34 26 26 840111 20181031121113
162.158.167.179 24 27 833302 20181025133000
172.68.146.55 21 26 615473 20181024111213
172.68.239.88 21 21 681765 20181029104925
172.69.62.45 21 21 621205 20181031221918
172.68.238.21 20 20 649300 20181024135313
172.69.134.194 20 21 584064 20181029170638
172.68.46.40 19 19 616835 20181031213852
172.69.135.135 19 19 591385 20181025095309
162.158.78.243 18 18 563580 20181031202004
172.68.146.157 18 19 580200 20181030180052
141.101.107.179 17 19 658935 20181031162122
172.68.144.174 17 17 551920 20181025172420
172.68.146.103 17 19 769571 20181020210305
172.68.238.219 17 17 563635 20181029222749
162.158.202.159 0 5 1717072 
162.158.89.144 0 1 30184 
172.69.135.201 0 3 0 
172.68.144.54 0 1 2480 
172.68.146.49 6 11 214516 20181004042153
108.162.229.225 0 3 749955 
162.158.155.43 5 5 142410 20181003143752
172.68.255.97 0 3 6565 
172.69.62.81 4 4 129858 20181027164344
172.69.54.20 0 5 1035 
172.69.50.33 0 1 2471 
172.68.254.5 0 2 175880 
108.162.246.226 0 4 7290 
172.69.70.118 0 1 0 
172.68.86.51 0 1 1737 
162.158.166.76 0 2 66939 
162.158.62.104 0 1 7322 
172.69.33.106 0 2 6176 
172.68.110.63 0 8 100619 
197.234.242.135 0 2 14977 
162.158.165.57 0 3 67504 
162.158.154.186 0 2 6855 
108.162.237.57 0 1 35957 
162.158.179.135 0 2 7198 
141.101.105.161 4 10 648265 20181031013955
172.68.211.15 5 5 134504 20181028133219
172.68.142.4 6 6 194790 20181031165118
188.114.102.201 6 6 194793 20181028123257
162.158.89.102 0 1 395771 
162.158.30.75 0 2 4825 
172.69.132.8 1 1 32460 20181026153615
162.158.2.15 0 4 64240 
162.158.93.26 5 5 162328 20181029182240
162.158.119.40 0 7 831101 
162.158.38.81 0 3 76783 
162.158.134.75 0 2 330675 
108.162.245.129 1 1 32465 20181009035922
172.68.154.39 0 4 360786 
162.158.79.148 0 4 1112 
172.68.144.72 0 1 105433 
162.158.107.6 0 2 0 
162.158.22.231 0 2 113956 
108.162.245.21 0 1 0 
103.22.200.227 0 3 518084 
162.158.186.227 3 3 97395 20181025062750
141.101.69.104 2 2 53310 20181020083022
162.158.91.112 2 5 102779 20181022035841
172.68.65.155 0 5 5541 
197.234.242.117 0 4 201292 
162.158.165.225 0 1 367 
162.158.78.99 16 16 468571 20181026201630
172.68.51.165 0 4 17332 
141.101.104.100 0 3 1479309 
162.158.163.68 3 3 97380 20181004110141
162.158.88.61 1 4 42999 20181008233217
172.68.146.61 13 14 818385 20181009215539
198.41.238.27 0 2 44151 
172.68.211.51 3 3 90064 20181031012915
172.68.186.15 0 3 146671 
162.158.150.75 0 1 111219 
172.68.144.192 0 1 50428 
172.68.47.107 9 10 276166 20181030085720
141.101.104.190 2 2 57724 20181021150650
108.162.229.249 0 8 2052835 
141.101.85.238 1 1 32465 20181031132232
141.101.110.141 3 4 86383 20181030045422
141.101.77.79 0 3 814854 
162.158.23.16 0 1 2471 
141.101.99.16 0 1 3956 
172.68.186.63 0 4 230581 
172.68.211.147 0 1 0 
172.68.47.113 6 7 292713 20181030085724
162.158.114.75 1 1 32466 20181003140949
108.162.248.222 2 2 64920 20181016145853
162.158.111.180 0 8 1261886 
162.158.155.73 2 3 273674 20181008142726
108.162.250.22 0 2 521790 
172.68.211.27 0 1 137536 
172.68.212.112 1 1 32460 20181018164037
172.69.132.242 5 5 162300 20181019215032
162.158.78.159 2 2 50488 20181031023440
162.158.186.119 0 1 2430 
172.68.144.204 8 9 256497 20181009222720
141.101.70.114 3 3 94803 20181026155811
197.234.242.87 0 3 7629 
172.68.46.226 6 6 194791 20181031091334
162.158.119.10 0 9 323051 
162.158.155.169 1 1 32461 20181009103343
172.68.238.135 5 5 162305 20181028125247
162.158.106.95 3 3 64930 20181013064321
172.69.54.248 0 1 320855 
108.162.241.123 0 1 465075 
108.162.226.10 0 4 389649 
162.158.93.176 0 1 13962 
172.69.33.130 6 6 194794 20181029223638
162.158.63.33 1 2 46442 20181009083027
162.158.158.86 7 7 227261 20181031133609
162.158.62.152 0 3 713456 
162.158.166.10 3 5 641404 20181004155757
172.68.46.28 0 5 5267 
162.158.89.162 0 5 612786 
162.158.90.83 0 2 444762 
162.158.222.27 0 7 157764 
172.68.65.17 0 5 9720 
108.162.238.214 0 2 29954 
162.158.79.22 0 2 275072 
162.158.154.138 0 6 71914 
172.68.50.159 0 2 14644 
162.158.75.177 0 1 538 
172.68.186.45 0 3 74867 
162.158.162.102 1 1 32460 20181009134018
141.101.88.135 0 3 981783 
172.68.239.76 0 1 16060 
103.22.200.185 0 6 387429 
162.158.79.52 0 5 95744 
108.162.229.213 0 5 633599 
172.68.154.63 0 2 1737 
141.101.97.78 7 8 243315 20181031125349
108.162.250.40 0 1 345543 
162.158.22.189 0 2 31588 
141.101.107.23 1 1 32461 20181015095226
162.158.165.147 0 3 215582 
162.158.202.93 0 2 5135 
162.158.22.171 0 2 107022 
172.69.68.11 1 1 32465 20181003154917
172.68.65.203 0 5 41539 
162.158.118.69 0 3 232876 
162.158.134.141 0 15 1195608 
162.158.156.34 5 5 162300 20181020155237
108.162.215.105 0 3 0 
141.101.97.76 0 2 12947 
108.162.215.207 7 7 208663 20181028133213
172.68.186.27 0 3 52911 
162.158.154.18 1 1 32461 20181018174123
141.101.97.103 0 1 3007 
162.158.255.15 0 4 0 
172.69.135.117 7 7 227261 20181030162801
141.101.76.87 0 4 1585780 
172.68.146.133 4 5 334763 20181009145735
141.101.99.94 0 2 14644 
172.69.54.98 0 2 734 
162.158.118.225 0 7 624779 
162.158.22.87 0 1 1847 
103.22.200.107 0 3 201107 
162.158.154.42 0 3 2472 
162.158.182.117 1 1 32466 20181024022138
162.158.39.10 1 3 53104 20181009090838
172.68.208.94 15 15 411055 20181027025903
162.158.167.221 0 2 0 
172.68.144.252 0 3 285778 
162.158.166.4 8 8 259726 20181009103710
162.158.155.157 0 2 64562 
172.69.132.56 2 2 64920 20181031113737
172.68.51.69 0 10 508426 
188.114.103.118 0 2 8204 
141.101.98.153 0 2 63820 
172.68.150.57 1 2 62645 20181031120400
162.158.78.249 0 2 808426 
162.158.186.35 0 1 8311 
141.101.68.148 2 2 64920 20181008164215
172.68.154.9 0 6 1154821 
103.22.200.113 1 7 310966 20181002160207
108.162.216.75 0 1 94574 
172.69.134.188 0 3 11767 
108.162.216.195 0 2 29113 
172.68.62.27 2 2 64930 20181030232822
162.158.93.122 2 2 60345 20181003003423
162.158.165.15 0 2 0 
162.158.75.69 1 1 32461 20181024071448
162.158.166.172 0 3 24052 
172.68.211.213 0 3 0 
141.101.88.33 2 9 112794 20181014161840
162.158.134.201 0 11 445777 
162.158.62.170 0 1 4233 
198.41.238.9 0 1 3327 
141.101.106.172 4 4 129840 20181024121806
172.68.146.181 0 4 2920 
162.158.89.204 0 10 24818 
162.158.22.237 0 1 186353 
162.158.76.64 2 2 64920 20181015014035
162.158.134.99 0 9 430650 
172.68.253.118 0 4 9981 
172.69.90.57 0 2 465353 
162.158.73.196 1 1 32460 20181030190630
141.101.107.125 0 2 53080 
162.158.117.223 1 1 32460 20181001082307
172.69.68.21 0 1 5267 
141.101.77.169 12 12 372169 20181028165444
172.68.47.251 0 1 95933 
172.68.141.171 4 4 129861 20181025152842
162.158.2.171 0 7 574317 
162.158.167.29 0 2 468674 
162.158.152.46 1 1 32460 20181021234253
162.158.88.97 0 3 5541 
162.158.182.195 0 1 2471 
172.68.146.241 0 2 8729 
172.68.54.93 1 1 32465 20181016184147
162.158.178.92 1 3 859931 20181006090151
141.101.95.110 2 2 64928 20181023220517
162.158.167.35 0 2 56904 
172.68.46.34 5 5 162325 20181031080212
162.158.23.4 0 2 641710 
172.69.62.129 3 8 174482 20181004090235
172.69.134.50 0 2 326165 
188.114.103.142 0 2 278 
108.162.249.21 0 4 95359 
162.158.178.206 3 4 176881 20181022140419
172.68.150.33 0 2 472704 
162.158.126.81 0 1 1847 
162.158.179.111 0 1 20219 
162.158.91.82 0 1 327261 
172.69.90.27 0 6 25033 
172.69.20.94 1 1 32460 20181031130243
162.158.158.50 3 8 2151405 20181029171342
162.158.186.251 0 1 7322 
162.158.155.229 0 3 412608 
162.158.59.123 0 1 137300 
172.69.189.11 2 2 32460 20181022204048
172.68.144.132 16 18 845789 20181025141614
141.101.98.105 0 2 3474 
172.68.144.144 2 3 85175 20181030100611
172.68.186.81 0 2 2708 
172.68.253.76 0 4 734144 
162.158.54.57 0 1 137536 
162.158.111.60 0 2 76250 
198.41.238.69 0 4 15888 
141.101.110.171 1 3 32465 20181025200040
172.68.110.27 0 2 6176 
172.69.70.88 0 2 14644 
141.101.88.165 9 10 285359 20181030170549
103.22.200.239 0 3 222455 
141.101.77.163 0 1 15794 
162.158.75.195 0 2 275072 
162.158.167.65 3 5 146121 20181020134340
172.69.55.171 3 3 102838 20181017152211
172.68.154.87 4 5 366505 20181005232350
162.158.118.129 0 4 223010 
162.158.98.63 2 2 64931 20181014022852
197.234.242.129 0 1 3327 
172.69.135.165 0 1 320216 
162.158.97.17 1 1 32460 20181001012931
141.101.88.147 0 3 8790 
141.101.88.63 0 3 929940 
108.162.226.184 0 10 175155 
162.158.222.99 0 4 125283 
162.158.133.155 1 1 32460 20181026172744
162.158.58.218 0 5 29113 
162.158.165.99 5 7 419611 20181004001158
141.101.69.254 0 3 1125051 
162.158.118.159 0 7 399342 
162.158.88.169 3 3 97398 20181023083324
108.162.249.117 0 1 424988 
162.158.92.213 0 5 0 
162.158.118.243 0 4 376574 
162.158.92.219 0 8 0 
172.68.25.57 1 1 32465 20181006082153
172.69.86.33 0 6 807940 
108.162.245.177 0 1 0 
162.158.165.201 0 1 66135 
172.68.146.43 0 2 425006 
172.69.62.219 0 3 345 
162.158.22.63 0 2 418175 
162.158.56.52 2 2 64920 20181016164547
162.158.93.92 0 3 87339 
173.245.54.12 7 12 498814 20181031023427
172.69.130.81 0 3 1668 
162.158.106.203 5 5 129862 20181023142102
162.158.14.21 0 1 137536 
172.68.86.87 0 3 617588 
162.158.202.27 0 7 948953 
141.101.98.117 0 1 3386 
141.101.99.172 0 6 4504 
162.158.88.79 0 3 2472 
172.68.65.47 10 10 292597 20181030190116
172.68.12.205 1 1 32460 20181026083610
162.158.178.86 0 1 16354 
172.69.86.9 0 9 1852727 
188.114.103.190 0 3 13647 
141.101.104.70 1 1 32461 20181030191013
172.68.253.208 0 2 543236 
162.158.134.15 0 5 1860300 
108.162.227.190 1 1 32460 20181001122724
162.158.93.146 1 1 32465 20181024201017
162.158.234.117 0 13 168144 
172.69.69.237 0 1 13962 
172.68.144.156 0 1 54805 
172.69.189.35 1 1 0 20181002171916
173.245.48.134 0 1 852 
141.101.107.65 0 3 329581 
108.162.226.244 0 4 233489 
108.162.237.231 4 4 129861 20181024090231
108.162.249.141 1 2 79186 20181018073831
162.158.126.111 0 1 137300 
162.158.234.93 0 2 3474 
162.158.111.12 0 2 146727 
162.158.30.57 0 3 466043 
162.158.162.153 1 1 32460 20181005142956
162.158.38.99 0 3 17729 
108.162.238.52 0 1 105 
172.68.86.75 2 3 66213 20181018085907
162.158.202.201 0 4 36960 
141.101.105.251 2 2 64922 20181014202551
162.158.63.231 0 1 2657 
162.158.62.134 1 3 39852 20181009081553
162.158.116.10 1 1 32460 20181001102936
103.22.200.173 0 6 428968 
162.158.142.81 2 2 58665 20181022101616
162.158.118.219 0 6 881605 
172.69.55.99 0 2 1240530 
172.69.86.57 0 9 2059910 
108.162.249.189 0 5 15430 
162.158.255.33 0 1 137536 
162.158.82.58 3 3 32460 20181027015307
162.158.79.136 1 1 32466 20181002021115
172.68.211.189 3 3 97395 20181028095552
172.69.69.201 1 1 32461 20181003151553
141.101.96.72 0 2 50476 
162.158.222.15 0 6 305520 
162.158.167.245 0 1 3898 
162.158.38.123 0 1 2816 
172.68.133.179 2 2 64930 20181028131730
172.69.70.226 0 2 116148 
162.158.164.238 1 1 32460 20181001141929
162.158.141.47 1 1 32460 20181031222038
162.158.138.39 0 2 232110 
141.101.107.173 0 2 7908 
172.68.94.15 1 1 32466 20181030220834
162.158.149.95 1 1 32460 20181022185243
141.101.69.80 10 16 331203 20181030011057
108.162.226.34 0 5 225646 
172.69.33.58 0 3 191866 
141.101.105.101 0 1 115 
172.68.244.137 1 1 41874 20181012165913
172.69.62.195 3 3 97382 20181020125459
172.68.110.15 0 2 14644 
162.158.54.117 1 2 34496 20181006223945
141.101.77.253 0 3 5211 
172.69.135.57 0 1 137300 
103.22.200.179 0 2 138367 
162.158.246.105 1 1 32465 20181001085641
162.158.107.24 1 1 24271 20181019024027
162.158.119.4 0 1 70040 
162.158.38.153 0 4 20138 
108.162.219.69 0 1 465075 
198.41.238.39 0 1 7629 
108.162.249.123 0 4 679888 
141.101.98.219 0 5 50692 
172.68.208.52 1 1 32460 20181005050222
172.68.65.11 0 4 127640 
172.69.71.17 0 1 3007 
162.158.134.177 0 4 29288 
172.69.0.134 1 1 32460 20181004002943
172.68.144.66 0 2 114564 
172.68.58.10 0 2 23936 
172.69.62.111 0 4 29288 
172.69.130.75 0 1 852 
162.158.78.111 2 9 485843 20181031195026
172.68.142.130 0 4 0 
172.68.142.214 1 1 0 20181024031704
108.162.237.243 0 1 1847 
162.158.22.201 0 2 0 
172.68.94.63 0 1 3007 
162.158.202.39 0 4 471336 
172.68.154.51 0 4 12593 
108.162.215.225 7 7 227255 20181030162337
172.68.51.117 3 4 123936 20181024225048
162.158.134.33 0 11 70922 
108.162.229.63 0 3 826608 
162.158.178.116 0 2 7908 
108.162.215.69 0 2 0 
197.234.242.105 1 6 1089146 20181005160732
172.68.145.235 6 6 194760 20181023125515
172.68.144.246 10 11 731130 20181025135833
162.158.166.250 2 2 50969 20181030094954
162.158.63.27 0 2 837284 
172.69.70.142 1 1 41874 20181010054619
172.69.94.27 0 9 169766 
188.114.102.111 2 4 756017 20181025184844
172.68.102.33 1 1 32466 20181025182701
173.245.52.66 0 1 217518 
172.69.226.88 0 7 0 
172.68.51.195 0 3 33042 
162.158.88.55 0 10 202150 
108.162.245.249 0 4 41262 
162.158.155.199 2 2 74316 20181015214515
173.245.54.6 2 2 56826 20181031023414
162.158.246.99 1 1 32465 20181001193607
108.162.226.4 0 4 215610 
172.68.211.21 3 3 97395 20181025081308
172.69.132.104 1 1 32460 20181005105326
172.69.86.45 0 15 1740544 
162.158.2.69 0 5 1218507 
108.162.229.45 10 13 904316 20181030190105
197.234.242.75 0 2 522336 
162.158.179.105 8 11 288326 20181016090044
141.101.99.70 0 1 261342 
172.69.82.51 1 1 32465 20181007023431
162.158.30.9 0 5 277226 
141.101.77.55 5 9 162319 20181026042321
162.158.91.220 1 1 0 20181006020126
172.68.254.197 0 4 414154 
172.68.134.144 3 3 97393 20181027222059
162.158.92.171 0 1 261342 
162.158.106.5 5 5 139160 20181017011544
141.101.105.227 5 5 171720 20181030022219
162.158.30.15 0 4 159951 
172.68.144.162 0 3 156307 
172.68.146.73 0 1 7629 
172.68.154.57 0 4 194203 
172.68.144.30 10 12 330834 20181024151102
172.69.134.44 0 2 4667 
172.69.134.14 0 2 147138 
172.68.255.175 0 2 527499 
108.162.249.213 0 4 542415 
172.68.11.136 0 2 275072 
172.68.145.110 2 2 64920 20181004103425
172.68.46.130 1 1 32461 20181003120309
162.158.90.23 0 9 185783 
141.101.69.134 0 5 21314 
108.162.216.165 2 2 57245 20181029193436
162.158.110.77 2 2 64928 20181021131631
162.158.88.103 0 1 4504 
162.158.78.123 9 9 247576 20181031023455
172.69.55.45 0 2 5159 
172.69.20.113 1 1 32464 20181022130103
172.69.226.28 0 7 1360673 
162.158.166.154 2 2 58082 20181027160028
108.162.245.15 2 2 62026 20181031225217
172.69.134.158 8 9 706168 20181025191852
108.162.215.231 2 2 64930 20181012124700
162.158.63.123 0 1 2205 
188.114.102.45 0 6 555177 
162.158.93.194 0 2 63820 
162.158.91.142 7 7 220330 20181029184657
172.68.51.129 0 2 22686 
141.101.98.189 4 4 112187 20181017104225
162.158.179.51 5 7 229789 20181006090452
172.69.69.177 0 1 7629 
172.69.134.218 14 16 904057 20181031115437
162.158.202.51 0 4 97566 
108.162.241.93 1 1 32461 20181015095230
172.69.114.21 0 1 3007 
141.101.88.243 0 2 222438 
172.68.146.37 0 1 0 
172.68.64.188 3 3 94496 20181028013334
162.158.167.215 0 1 31910 
162.158.78.75 4 9 594712 20181003161342
172.68.146.13 0 1 87574 
172.68.146.151 0 1 0 
141.101.110.21 0 2 4277 
172.68.46.106 0 1 7629 
108.162.245.159 0 1 7629 
162.158.155.139 3 7 1579448 20181026122932
162.158.165.237 1 1 32466 20181004140040
162.158.165.219 0 2 87319 
172.69.134.8 7 9 234772 20181031121401
197.234.242.177 0 9 351741 
172.68.10.39 0 1 0 
162.158.134.105 9 9 244276 20181014205927
188.114.102.243 0 5 1168674 
108.162.229.201 0 3 11037 
162.158.38.201 0 2 58226 
172.68.146.223 3 3 97397 20181003143511
188.114.102.63 0 4 40451 
141.101.97.133 1 2 162084 20181018164213
162.158.154.246 2 2 64926 20181031181158
172.68.144.168 16 16 533007 20181031164120
197.234.242.51 2 5 300172 20181005175704
108.162.229.141 5 8 949564 20181030190517
162.158.234.51 0 6 35458 
172.69.135.45 0 4 351341 
162.158.138.75 0 2 26371 
162.158.167.185 0 2 277376 
172.68.110.51 1 8 243095 20181014144721
198.41.238.93 0 2 274836 
162.158.222.111 0 3 9026 
162.158.126.69 1 1 32480 20181026214437
162.158.2.93 0 18 1148855 
172.68.150.9 0 1 13962 
162.158.167.239 0 1 620265 
172.68.189.222 2 2 0 20181024031659
162.158.179.183 0 1 2816 
162.158.126.99 0 3 141395 
172.68.254.167 0 2 7302 
162.158.91.16 0 3 44931 
172.68.144.180 0 1 1943 
162.158.119.88 3 17 657280 20181013114702
162.158.2.81 0 7 93960 
188.114.103.166 2 10 835787 20181009203055
173.245.52.114 0 3 967159 
162.158.178.236 0 4 633756 
172.68.141.135 0 1 2934 
188.114.102.51 5 9 626296 20181025184812
162.158.165.123 0 3 543596 
172.69.69.9 0 1 8311 
103.22.200.89 0 7 583490 
162.158.82.124 1 1 32464 20181028024829
162.158.138.15 0 1 26540 
172.69.90.33 0 5 32870 
172.68.10.183 1 1 25025 20181014082803
108.162.228.244 2 2 64920 20181009030237
172.69.226.94 0 3 10797 
141.101.66.232 2 2 64924 20181010110643
172.68.145.146 3 3 97380 20181018113403
103.22.200.65 0 3 333668 
162.158.90.185 0 3 9264 
162.158.62.254 0 1 3693 
108.162.216.177 0 2 111971 
172.68.253.244 0 2 538822 
162.158.234.45 1 5 38537 20181012041835
162.158.62.20 0 2 12265 
162.158.114.69 0 1 137536 
172.69.130.87 0 2 3007 
108.162.226.148 1 6 314183 20181010125255
172.68.12.199 1 1 32460 20181008192744
162.158.58.38 2 2 64922 20181027093054
162.158.92.141 0 3 9021 
172.69.55.183 0 5 0 
188.114.103.130 0 2 6558 
172.68.2.51 1 1 32466 20181011185722
141.101.104.88 0 4 1045368 
162.158.88.163 0 8 36130 
162.158.165.27 0 8 283565 
162.158.79.70 0 1 1847 
162.158.111.203 0 5 2690 
162.158.1.5 4 4 129840 20181017104814
172.69.226.136 1 2 68437 20181001130437
162.158.222.81 0 2 110489 
172.68.202.33 0 32 548662 
172.69.62.207 4 9 156619 20181031224529
172.68.146.205 4 7 135848 20181009220059
162.158.167.47 0 1 87940 
173.245.54.54 0 2 53080 
162.158.78.135 4 4 138842 20181016085820
162.158.38.183 0 1 61086 
141.101.99.202 2 2 57724 20181002171311
172.69.134.230 0 3 35127 
172.68.144.42 0 2 125338 
172.68.150.63 0 1 1847 
162.158.2.147 0 2 153330 
162.158.111.30 0 9 1643904 
162.158.57.216 1 1 32464 20181025040351
162.158.89.252 0 1 184939 
108.162.215.213 0 3 0 
162.158.108.202 2 2 64920 20181019190543
172.68.50.165 0 1 137536 
172.68.210.171 1 1 32465 20181031130253
162.158.166.208 0 1 50428 
172.68.144.120 9 13 305671 20181031170736
162.158.2.189 0 4 5541 
162.158.186.23 0 2 494188 
141.101.107.185 0 4 704584 
108.162.250.4 0 3 616581 
172.68.50.129 0 3 41886 
162.158.78.237 0 4 383732 
162.158.88.139 3 3 80872 20181018200624
162.158.154.126 0 1 493103 
162.158.54.21 6 6 168656 20181006224014
162.158.167.125 0 1 45863 
172.68.134.66 2 2 32465 20181027164205
162.158.91.28 0 2 40438 
108.162.238.4 1 1 32461 20181024145455
172.69.135.105 0 2 20215 
162.158.107.48 0 1 0 
172.68.254.161 0 2 8466 
162.158.222.51 0 4 143136 
172.68.94.213 4 4 129861 20181017211657
103.22.200.119 0 12 511065 
103.22.200.77 0 6 231388 
162.158.166.70 0 1 78661 
141.101.105.77 1 1 32466 20181014110207
172.68.144.48 3 6 222251 20181004194438
162.158.161.100 1 1 32460 20181030211105
141.101.99.28 0 1 2480 
108.162.229.165 0 6 271791 
162.158.78.39 2 2 51018 20181031023449
108.162.245.195 0 1 2471 
162.158.165.69 8 9 437138 20181004211829
172.68.144.114 0 1 187548 
172.68.65.41 6 6 174531 20181026201631
162.158.163.51 1 1 32460 20181025215657
141.101.99.124 0 7 737353 
162.158.134.93 3 10 101910 20181014183049
188.114.102.129 0 4 101362 
162.158.77.117 1 1 32461 20181009083419
162.158.167.203 16 18 552631 20181025163701
141.101.104.226 0 4 351760 
172.68.146.31 0 1 146412 
162.158.142.105 2 2 58082 20181030120907
108.162.219.231 0 3 32428 
108.162.229.81 8 9 273909 20181030180521
162.158.162.144 2 2 64920 20181014180149
162.158.119.34 0 6 301033 
141.101.70.254 2 2 64920 20181021233316
162.158.92.243 1 1 32461 20181006112154
141.101.99.112 0 5 23936 
172.68.51.87 1 1 32465 20181013030929
162.158.79.142 0 3 333657 
172.68.10.111 0 1 20219 
172.68.146.163 12 15 490128 20181019153143
162.158.2.153 14 15 404623 20181028020047
162.158.106.167 3 3 97395 20181022184302
162.158.105.174 1 1 0 20181027164238
162.158.118.135 0 3 248398 
162.158.142.75 1 1 32466 20181016180757
162.158.109.167 1 1 32460 20181025220435
172.68.254.155 0 2 1076 
141.101.77.235 0 4 15824 
172.69.55.15 0 2 6192 
172.68.64.25 1 1 32460 20181017003610
162.158.39.52 1 2 29192 20181029164918
162.158.88.133 0 1 419681 
162.158.30.33 0 1 278 
172.68.56.178 1 1 32460 20181018040425
172.68.86.15 2 4 162440 20181017072610
162.158.179.99 0 2 6454 
162.158.134.57 1 1 32466 20181025194121
162.158.78.93 0 3 90552 
172.69.86.15 0 9 1073167 
162.158.187.18 0 1 3007 
162.158.165.183 2 3 558034 20181006233916
172.68.146.7 0 1 4102 
172.68.154.75 0 10 1526017 
172.68.254.191 0 2 839362 
162.158.179.33 0 2 8204 
173.245.52.78 0 2 10534 
162.158.119.82 0 5 358337 
162.158.30.39 0 2 24371 
162.158.62.110 0 1 3462 
108.162.229.135 0 6 22185 
162.158.75.171 0 1 105 
172.69.114.63 0 2 37177 
162.158.58.8 0 1 12409 
108.162.226.178 0 5 321105 
172.68.64.79 1 1 32464 20181028020942
162.158.156.112 2 2 64928 20181026195922
172.69.190.57 2 7 74483 20181003081948
172.68.146.211 13 14 758751 20181025180052
162.158.255.105 3 3 97395 20181031074800
162.158.166.46 13 14 424477 20181025090943
162.158.118.153 0 5 813411 
162.158.39.22 1 2 89458 20181029164921
162.158.119.22 0 5 405066 
188.114.102.189 0 4 1162278 
162.158.134.183 0 10 45394 
162.158.138.93 5 8 297039 20181022163400
172.69.130.99 0 3 15699 
141.101.69.116 0 3 11079 
162.158.111.144 0 5 25615 
162.158.63.99 0 1 271618 
172.69.189.53 1 1 32460 20181017194250
108.162.226.94 4 7 320378 20181026105659
162.158.79.172 2 3 74926 20181005021741
141.101.105.215 11 11 287643 20181029215520
162.158.119.64 0 9 467216 
172.69.68.29 0 1 465075 
162.158.166.130 0 1 130676 
141.101.88.177 6 6 184119 20181030174450
162.158.150.51 0 1 3327 
172.68.110.93 0 3 58226 
172.68.189.84 4 5 130712 20181031230404
162.158.222.9 0 1 1281 
172.68.110.105 1 1 32465 20181029003300
172.68.239.106 1 1 45586 20181022163227
108.162.216.39 0 4 48019 
162.158.89.126 0 1 2471 
162.158.138.27 0 4 35329 
141.101.99.238 7 7 212932 20181030000328
162.158.63.171 0 1 327261 
162.158.156.100 1 1 32460 20181027141652
162.158.202.81 0 4 852083 
162.158.90.77 0 5 335245 
141.101.104.244 0 5 2098260 
108.162.226.16 0 2 85020 
188.114.110.189 1 2 170002 20181020051207
172.68.144.84 14 15 807655 20181023192059
188.114.103.106 0 3 17651 
172.68.141.201 0 5 0 
162.158.22.111 0 2 0 
108.162.226.28 0 7 466330 
108.162.229.189 0 11 39271 
162.158.2.129 12 20 991945 20181028091500
172.68.53.35 1 1 32460 20181023003744
172.68.50.147 1 1 32465 20181027030234
162.158.166.34 0 1 271159 
172.68.144.24 0 1 4504 
108.162.250.46 4 4 102555 20181018073933
197.234.242.99 0 3 1419095 
141.101.88.249 0 9 2113020 
162.158.142.69 3 3 89744 20181017053821
108.162.238.70 0 1 23936 
162.158.166.226 0 1 3102 
162.158.118.189 0 5 410731 
141.101.104.34 0 3 12306 
162.158.234.27 1 16 514371 20181005130610
141.101.77.37 0 5 13962 
162.158.62.98 0 1 3195 
162.158.222.21 0 5 878718 
162.158.22.39 0 6 163695 
162.158.161.46 10 10 324600 20181023103315
172.68.142.196 6 7 659866 20181026015106
162.158.210.75 0 1 137300 
162.158.154.204 0 6 14977 
162.158.167.17 1 1 32466 20181004194514
172.68.10.147 1 1 32461 20181024210936
162.158.165.135 0 3 412608 
172.69.86.27 1 8 392718 20181009125353
172.68.51.189 0 3 283722 
172.68.208.58 2 2 64920 20181020210154
162.158.119.52 0 2 156382 
141.101.107.41 0 1 275536 
172.69.133.15 4 4 129840 20181023153528
173.245.52.186 0 3 289363 
162.158.161.247 2 2 64920 20181030151554
108.162.237.225 1 1 32480 20181019162341
141.101.105.173 0 4 13904 
141.101.88.75 0 7 0 
172.68.44.160 3 3 97380 20181024021918
141.101.70.234 3 3 97380 20181028165809
108.162.219.249 0 6 259824 
108.162.249.15 0 8 547936 
141.101.102.165 1 1 32465 20181017191916
172.68.146.121 0 1 75674 
172.69.134.206 11 12 399282 20181031170704
188.114.102.33 1 11 288350 20181019233947
162.158.164.172 4 4 129840 20181025150750
108.162.216.201 1 1 32466 20181014055325
108.162.226.124 0 5 279469 
108.162.245.147 0 1 538 
172.68.154.117 0 3 6598 
141.101.105.35 0 4 1102144 
162.158.118.165 0 6 1243684 
172.69.22.145 0 3 0 
172.68.144.186 0 4 214889 
162.158.111.216 3 10 1356398 20181022132007
162.158.126.51 0 1 2471 
162.158.62.200 0 1 185783 
108.162.246.166 2 2 74317 20181020144727
141.101.98.39 0 2 5868 
172.69.132.176 2 2 64920 20181008113840
162.158.78.51 4 4 120789 20181031023434
162.158.2.63 0 9 42362 
162.158.92.165 0 1 208743 
141.101.70.32 2 2 64920 20181030072154
172.69.134.224 0 1 88726 
141.101.99.220 2 2 64922 20181030175211
172.68.143.209 2 2 64931 20181031043050
172.69.130.9 0 2 28526 
162.158.92.129 0 12 154419 
108.162.245.141 0 2 0 
172.69.226.4 16 21 465000 20181030170318
141.101.107.161 0 8 467145 
162.158.95.180 1 1 0 20181018233056
162.158.150.87 0 2 36235 
172.69.190.39 16 22 1058337 20181030163647
162.158.22.243 0 4 10442 
108.162.246.208 0 3 930150 
162.158.234.69 0 14 1169068 
172.69.6.75 1 1 32465 20181001102603
162.158.234.57 0 10 427192 
172.68.154.21 1 10 65614 20181024084720
162.158.202.45 0 1 4102 
172.69.132.62 1 1 32460 20181005115418
172.69.69.123 0 1 3007 
141.101.104.106 0 4 14396 
162.158.106.41 1 1 32480 20181017101134
198.41.238.45 0 1 14977 
162.158.138.57 1 1 32466 20181022163238
162.158.38.87 0 1 2934 
172.68.144.36 0 2 52847 
172.69.134.80 3 5 205404 20181008182531
162.158.202.213 0 2 6187 
162.158.75.99 0 2 1847 
162.158.93.74 1 1 0 20181017124318
162.158.23.22 0 4 467145 
108.162.219.237 0 3 50968 
108.162.226.22 0 6 140010 
172.68.141.159 0 4 13308 
162.158.111.240 0 4 0 
103.22.200.197 4 9 812404 20181007213455
162.158.179.45 5 5 152980 20181002183954
197.234.242.57 0 5 639715 
162.158.54.123 0 1 2934 
162.158.62.14 2 5 300650 20181017212738
162.158.62.50 0 1 208743 
172.68.133.131 0 3 5267 
188.114.102.249 3 9 1549322 20181021232501
108.162.219.33 0 1 3007 
172.69.55.27 2 2 64931 20181010133752
172.69.70.124 0 3 221058 
162.158.155.7 0 3 35301 
162.158.78.165 13 13 388192 20181031023444
108.162.216.159 0 1 3007 
162.158.54.195 0 1 16060 
172.68.150.99 0 2 7697 
162.158.163.141 1 1 32460 20181002202500
162.158.155.163 0 2 7864 
172.69.68.16 0 1 12409 
172.68.47.23 2 2 64922 20181031153105
162.158.114.9 2 2 64931 20181021192622
188.114.102.237 0 2 986206 
172.68.154.99 2 3 67098 20181012212733
141.101.98.213 0 1 3625 
162.158.54.201 0 1 14977 
162.158.126.27 0 2 152513 
162.158.165.189 0 2 149409 
172.69.132.38 7 7 227220 20181022135736
108.162.237.69 3 3 97395 20181018011214
162.158.202.219 0 3 143803 
108.162.226.70 0 6 376925 
172.69.68.31 0 1 137536 
172.68.63.28 1 1 32480 20181029183124
162.158.62.206 0 2 113690 
162.158.22.123 0 5 29954 
172.69.33.172 1 1 32461 20181019063334
172.68.50.177 0 1 3327 
172.69.23.62 4 4 129920 20181031214036
108.162.219.93 0 1 406470 
108.162.219.165 0 2 496558 
162.158.202.105 0 3 7021 
162.158.119.28 0 2 133323 
141.101.70.20 1 1 32464 20181031160540
162.158.89.234 0 9 565883 
197.234.242.15 0 7 319332 
172.68.62.69 0 2 6014 
172.69.34.11 0 1 5267 
141.101.88.183 0 2 372706 
172.69.114.57 0 1 465075 
172.69.54.104 0 1 116 
162.158.178.140 0 2 792890 
172.69.62.15 8 13 367359 20181031070324
108.162.249.57 0 12 543840 
172.69.69.69 1 1 32465 20181021115325
172.68.10.189 1 1 32465 20181009131706
162.158.63.45 0 1 269411 
172.69.134.104 1 2 93547 20181003175643
173.245.52.84 0 1 12409 
172.68.47.119 0 4 465075 
108.162.249.171 0 5 53508 
172.69.130.33 1 2 32465 20181020214714
172.69.69.129 0 1 538 
172.68.2.9 0 1 16038 
162.158.133.209 1 1 32460 20181025171932
141.101.69.242 0 3 11694 
172.69.132.170 1 1 32460 20181007201606
162.158.186.245 0 1 278 
172.68.238.243 0 1 14977 
162.158.111.96 0 4 66210 
162.158.117.37 1 1 32460 20181001131406
173.245.52.132 0 1 20219 
162.158.86.217 4 4 97380 20181015113128
162.158.23.64 3 3 38968 20181009233005
172.69.134.170 0 2 401036 
162.158.222.105 1 2 32744 20181014020322
172.68.47.131 0 2 3694 
162.158.10.45 0 24 2258872 
162.158.202.57 3 7 1092954 20181031225453
162.158.167.191 0 4 257183 
197.234.242.153 0 1 0 
141.101.77.121 6 6 185735 20181028165441
172.68.238.129 1 2 41979 20181002213059
141.101.66.76 2 2 64920 20181030152220
162.158.166.82 0 3 35957 
108.162.226.76 0 3 184110 
162.158.107.42 2 2 64930 20181010043414
141.101.76.165 0 1 8311 
162.158.90.209 15 15 384889 20181029182930
162.158.162.168 8 8 259680 20181025191812
108.162.226.190 9 17 466572 20181029123246
188.114.103.160 0 1 144322 
172.68.144.90 7 8 751826 20181024204959
172.69.134.26 4 5 132335 20181009114207
188.114.103.148 1 4 445888 20181025184824
141.101.88.39 6 9 194467 20181030194014
188.114.103.154 0 2 8336 
162.158.62.146 0 1 204872 
162.158.93.248 0 1 182160 
162.158.87.228 1 1 0 20181031144310
162.158.106.173 0 2 0 
162.158.90.59 0 1 16038 
141.101.76.225 5 5 156311 20181031161455
162.158.118.27 0 7 561051 
172.68.238.249 14 14 454510 20181031052615
172.69.71.41 0 1 1847 
141.101.88.201 11 11 307655 20181016171418
162.158.118.237 0 9 932636 
108.162.238.28 0 1 13962 
162.158.94.31 0 3 71808 
141.101.99.232 0 2 189148 
162.158.166.40 6 7 198181 20181004203246
162.158.134.225 0 5 414097 
172.69.134.110 0 4 261342 
162.158.157.4 4 4 97380 20181030000231
172.68.133.23 0 1 3088 
162.158.38.225 0 4 86891 
162.158.162.96 8 8 259680 20181025142720
172.69.134.92 0 2 188717 
162.158.111.246 1 1 32461 20181026064921
162.158.150.105 0 5 177590 
172.69.135.9 0 2 282619 
172.69.54.152 0 3 1259043 
162.158.106.29 0 1 94574 
103.22.200.215 0 4 250455 
172.68.210.183 14 14 381568 20181009195914
162.158.89.174 0 6 1667054 
197.234.242.183 0 11 1139856 
108.162.226.160 0 11 1012849 
103.22.200.83 0 9 638539 
172.68.254.71 0 2 6390 
172.69.62.213 0 4 9981 
162.158.134.147 0 2 32120 
172.68.62.225 3 3 97396 20181031173904
162.158.126.9 0 1 29113 
172.68.86.45 0 4 287783 
172.68.110.87 0 5 11610 
172.68.189.78 0 1 367 
172.69.135.27 0 2 272638 
172.69.134.176 5 5 131218 20181004144259
108.162.249.159 0 3 95933 
172.69.23.74 0 1 26540 
172.69.90.9 0 1 13962 
162.158.87.90 1 1 32460 20181008151418
108.162.226.196 0 2 133713 
172.68.186.51 3 4 100041 20181025143228
108.162.246.160 0 2 1847 
162.158.165.21 6 7 235317 20181030204525
172.68.186.75 0 5 39515 
162.158.63.147 4 6 656520 20181023003940
141.101.88.189 0 3 9288 
172.68.186.9 1 1 32466 20181015205947
172.68.46.172 2 2 64922 20181029065214
172.68.58.214 0 1 0 
172.69.134.32 0 1 29113 
172.68.245.156 2 2 32466 20181015160309
172.69.134.20 9 9 301587 20181031162055
172.68.255.151 0 7 209778 
172.69.90.39 0 3 42001 
172.68.65.65 0 5 63964 
172.68.255.121 3 3 93373 20181006090134
162.158.118.87 0 6 337021 
162.158.59.225 0 2 0 
108.162.237.159 0 1 16038 
162.158.167.83 3 4 611816 20181008231640
108.162.226.214 0 5 697947 
108.162.238.40 1 1 32461 20181005005559
162.158.163.167 2 2 64920 20181003093932
141.101.107.131 10 10 320590 20181029170517
141.101.69.8 0 3 1479309 
162.158.22.93 0 2 97581 
172.68.58.118 4 5 137184 20181025015020
108.162.226.88 10 21 1261166 20181024040147
162.158.166.100 11 13 739826 20181031162833
108.162.246.28 0 3 0 
108.162.226.46 0 7 190156 
162.158.38.63 0 3 3019 
162.158.57.220 1 1 32460 20181031030310
162.158.118.75 0 2 134016 
162.158.178.200 0 2 479780 
172.68.9.252 1 1 32460 20181024210934
172.69.68.38 1 1 32465 20181021115332
172.69.134.74 0 1 159858 
108.162.237.99 4 4 129861 20181026101939
172.69.70.40 0 2 17407 
172.69.190.51 4 17 1125026 20181025053102
172.68.51.207 0 2 278 
162.158.154.60 0 1 314398 
162.158.158.44 0 1 4504 
141.101.88.15 3 3 97395 20181023091552
108.162.238.130 0 1 852 
162.158.118.123 0 9 381455 
162.158.111.36 2 2 64931 20181010182512
108.162.226.130 8 14 449481 20181013194525
172.68.49.89 1 1 32460 20181005004931
172.69.60.53 1 1 32460 20181022222317
162.158.2.39 0 5 8685 
172.69.94.45 0 14 119949 
162.158.150.117 1 1 32465 20181020163643
162.158.74.92 4 4 129920 20181024213847
172.69.135.171 7 11 251463 20181031194739
162.158.119.16 0 4 157708 
188.114.103.178 0 4 1614588 
172.68.255.187 0 1 184939 
172.68.211.39 3 3 97395 20181021162042
141.101.76.159 0 2 2562 
162.158.22.141 0 3 48662 
162.158.75.237 0 1 137536 
172.68.144.18 4 4 129863 20181009133412
172.69.226.82 0 6 1871748 
162.158.89.246 0 3 412608 
162.158.89.96 0 1 271618 
103.22.200.209 0 3 165245 
162.158.93.158 0 1 271159 
162.158.255.189 0 1 94574 
172.68.58.190 7 7 227256 20181029193438
162.158.111.114 0 9 2392018 
162.158.134.21 0 2 32076 
172.69.62.123 1 1 32461 20181031234949
172.68.47.83 0 3 39647 
162.158.2.45 0 1 320855 
108.162.237.21 4 4 97391 20181028190607
141.101.97.77 0 1 137536 
172.69.134.152 5 8 184196 20181004201054
162.158.179.243 0 2 7250 
162.158.29.53 1 1 32460 20181021174042
103.22.200.71 1 3 270316 20181002160114
197.234.242.9 0 4 979115 
172.68.58.136 0 3 465075 
108.162.219.153 0 2 406927 
162.158.202.15 0 7 628804 
162.158.106.119 0 2 31910 
173.245.48.86 0 1 2430 
141.101.64.187 1 1 32460 20181016173056
162.158.161.220 4 4 129840 20181025105120
172.68.47.197 0 3 0 
162.158.246.93 1 2 35473 20181017232859
172.68.65.143 6 6 168038 20181031023407
108.162.226.58 0 3 206459 
108.162.238.154 0 1 12409 
172.69.33.148 10 10 324650 20181029223654
172.68.146.235 7 7 227262 20181025210539
108.162.250.34 0 4 380284 
108.162.249.243 0 3 746391 
162.158.150.9 2 2 64930 20181017011840
162.158.22.51 0 2 3886 
173.245.52.180 0 2 7044 
197.234.241.12 1 1 32460 20181006170121
141.101.110.99 0 1 13962 
162.158.93.2 3 3 89749 20181030181923
172.68.182.231 0 1 137536 
162.158.92.93 14 14 408186 20181030010010
162.158.155.151 0 3 7242 
172.68.254.113 0 2 627574 
141.101.99.52 0 2 32076 
172.69.60.11 1 1 32464 20181028021106
162.158.106.53 0 1 8311 
172.68.253.220 0 5 1186020 
162.158.62.230 0 1 160781 
162.158.2.177 0 11 239980 
108.162.246.148 7 7 194790 20181029174932
172.68.253.130 2 3 191736 20181022131328
172.68.253.172 0 4 1018842 
172.68.133.77 1 1 32480 20181028220623
172.68.65.161 0 5 1860300 
162.158.111.120 0 2 222438 
162.158.162.198 3 3 97380 20181009220102
141.101.76.189 3 6 107576 20181023160345
172.69.23.86 2 2 64960 20181025183951
172.69.134.146 1 1 38233 20181031193708
162.158.75.93 0 1 8311 
141.101.76.9 3 10 131404 20181017120817
162.158.126.63 0 1 2430 
162.158.155.49 0 2 6529 
162.158.166.184 0 1 3057 
172.69.60.29 1 1 32464 20181003061504
162.158.202.99 0 3 211163 
162.158.91.148 0 1 116 
162.158.88.175 2 2 0 20181011140224
162.158.78.201 3 7 136188 20181031023439
162.158.78.213 4 4 122092 20181024051122
108.162.249.27 0 4 420315 
141.101.70.180 1 1 32464 20181026195922
172.68.94.153 0 1 137536 
162.158.155.205 11 11 357121 20181030140058
162.158.62.224 0 2 26416 
162.158.178.44 0 2 8336 
162.158.2.105 0 1 16354 
172.69.22.55 1 1 32480 20181030062446
162.158.38.171 0 1 53511 
162.158.167.137 3 3 75753 20181003081813
108.162.246.142 2 3 169780 20181031023352
162.158.167.53 0 2 329903 
162.158.62.164 0 1 38125 
188.114.103.112 0 2 160781 
172.69.186.9 1 1 32465 20181008230215
162.158.118.45 0 4 407401 
172.68.154.105 4 6 165818 20181021175350
162.158.63.87 0 2 3494 
108.162.249.111 0 7 750400 
162.158.75.15 0 1 2430 
108.162.249.249 0 5 1102333 
108.162.244.117 1 1 0 20181006030324
172.69.68.44 2 2 58082 20181022033535
162.158.164.221 1 1 32460 20181026121050
172.68.209.194 2 2 64928 20181018045136
162.158.118.147 0 4 209183 
162.158.138.33 0 2 8274 
162.158.93.254 4 4 135673 20181029193440
108.162.229.15 0 5 570014 
162.158.150.63 0 1 94574 
172.68.154.27 0 2 465075 
172.69.130.51 0 2 2430 
172.68.65.179 0 2 3088 
172.69.135.123 0 1 46720 
108.162.226.154 0 7 502271 
172.68.186.33 0 4 266505 
162.158.94.7 7 7 192121 20181025170220
141.101.96.63 0 1 278 
162.158.88.217 2 2 0 20181017163040
162.158.234.39 0 6 42720 
141.101.97.68 0 1 29113 
162.158.167.233 10 11 348752 20181023140526
162.158.62.74 0 1 239890 
172.68.144.60 5 6 650756 20181009145827
162.158.78.195 5 5 143595 20181031023447
172.68.186.57 1 3 73690 20181015203946
162.158.2.21 0 6 3618 
188.114.102.75 0 2 6772 
162.158.62.86 0 1 3476 
108.162.229.111 0 3 1573695 
172.69.134.236 1 1 28413 20181002202618
162.158.154.228 0 5 191866 
172.68.46.16 3 3 97395 20181020094303
162.158.38.165 2 2 52987 20181029164849
172.68.65.59 2 2 49568 20181031023416
172.68.86.69 0 1 278 
162.158.106.215 1 1 0 20181023202258
172.68.254.65 0 2 5314 
172.68.202.39 0 33 85888 
172.69.62.159 0 1 2430 
162.158.78.177 2 2 70202 20181031023400
188.114.102.165 0 2 76250 
162.158.254.245 1 1 0 20181020125418
141.101.105.239 0 3 749955 
141.101.99.196 0 2 1076 
162.158.38.45 0 1 137536 
108.162.226.142 0 2 304579 
172.68.54.69 1 1 32461 20181010140312
141.101.105.143 0 2 1648 
197.234.242.45 0 2 5759 
141.101.110.15 0 3 56505 
172.68.255.133 0 6 3931 
162.158.93.80 0 1 313787 
162.158.79.82 1 4 43096 20181030194250
162.158.90.245 0 1 314398 
172.68.144.108 6 7 268983 20181030151045
162.158.58.200 0 3 0 
141.101.97.98 0 2 7738 
162.158.63.105 2 5 462383 20181023050336
141.101.69.218 0 5 300440 
172.69.135.51 0 1 2642 
172.68.189.210 2 2 64922 20181024031653
172.68.54.27 1 1 32480 20181011044524
162.158.155.31 0 1 38125 
172.69.135.63 0 4 7322 
162.158.166.58 0 2 139020 
162.158.106.113 0 2 29113 
162.158.2.141 0 12 26873 
162.158.167.173 8 10 478703 20181022151645
162.158.38.219 0 3 63820 
172.69.69.153 0 1 137300 
172.68.253.58 2 7 71024 20181017203732
172.68.253.100 0 2 435036 
172.68.255.157 0 1 3252 
172.68.51.219 0 2 10534 
172.68.146.247 4 4 129863 20181030105321
141.101.76.129 5 6 154783 20181029215539
172.69.69.189 1 1 32465 20181021115415
162.158.83.90 1 1 0 20181031202835
172.69.226.130 0 1 0 
162.158.165.249 5 6 382591 20181002202634
162.158.78.147 2 10 558232 20181031023436
162.158.119.76 0 3 399293 
162.158.165.33 1 3 346621 20181006120557
162.158.92.33 0 3 196099 
162.158.163.105 5 5 162300 20181023065109
141.101.98.147 0 2 242798 
172.69.130.27 1 3 67703 20181025180857
162.158.91.64 2 6 74273 20181029115215
162.158.126.105 0 1 278 
108.162.226.250 0 3 204489 
162.158.54.33 0 2 210 
162.158.234.63 0 4 29288 
162.158.165.111 2 4 115661 20181029104631
162.158.39.28 1 1 32480 20181029164914
162.158.234.81 2 6 175734 20181005150404
172.69.226.58 0 3 938157 
188.114.103.58 0 1 5267 
162.158.178.80 0 4 41886 
141.101.88.81 0 1 115 
172.69.70.82 0 1 35957 
141.101.107.5 0 2 619960 
188.114.103.88 0 3 499970 
162.158.165.105 0 1 395771 
197.234.241.6 1 1 32460 20181006170119
172.68.253.184 0 2 3474 
172.68.2.75 1 1 32465 20181012180442
162.158.141.71 1 1 32460 20181031115119
162.158.234.111 2 2 64932 20181010131704
188.114.103.94 0 4 1002464 
172.68.146.79 2 3 225713 20181009113846
141.101.69.62 0 1 116 
162.158.111.186 0 2 60368 
162.158.187.42 0 2 29011 
197.234.242.123 1 4 90691 20181019140151
172.68.146.199 0 2 188101 
172.68.2.69 0 1 137536 
162.158.134.69 5 5 162330 20181030232132
162.158.62.26 0 1 367 
172.68.189.120 2 2 64960 20181031214044
162.158.126.93 1 1 32465 20181013201122
172.68.211.33 5 5 151210 20181029062738
141.101.70.192 2 2 32460 20181015220605
172.68.133.29 1 1 32480 20181030062439
172.69.62.93 0 3 107871 
141.101.99.250 0 2 16354 
162.158.118.51 0 1 62854 
172.69.86.21 2 9 1482237 20181023190850
172.69.68.28 0 1 20215 
172.68.146.109 2 2 64932 20181002222723
108.162.245.9 0 1 852 
162.158.92.15 0 11 1538217 
172.68.222.15 0 2 9169 
162.158.222.87 0 4 20634 
162.158.166.238 0 2 486626 
162.158.88.31 0 1 2934 
162.158.106.209 4 4 129860 20181015170623
108.162.226.100 0 6 606608 
141.101.110.9 0 3 202916 
162.158.119.94 0 9 696690 
108.162.249.207 0 1 94574 
172.69.55.93 2 2 64931 20181026180035
162.158.166.64 2 3 118442 20181027181704
141.101.96.52 0 2 126484 
141.101.76.135 0 4 9884 
162.158.63.153 0 3 673597 
172.69.132.194 3 3 97380 20181029160402
103.22.200.137 0 7 293417 
162.158.222.45 0 1 320855 
103.22.200.233 3 11 739403 20181011070239
162.158.38.51 0 3 116152 
162.158.22.219 0 2 274836 
108.162.249.9 0 3 9426 
172.69.94.21 11 38 2673971 20181024131025
141.101.69.164 0 3 12504 
172.68.46.52 1 2 47438 20181001084139
108.162.229.21 0 3 784026 
162.158.134.207 0 6 128219 
141.101.69.140 0 4 432823 
162.158.58.56 0 1 404361 
172.68.191.57 2 2 64929 20181013133627
103.22.200.221 0 7 405370 
162.158.106.137 0 1 538 
162.158.118.39 0 12 1053287 
162.158.62.80 0 1 562189 
172.68.11.184 1 1 32466 20181015220109
162.158.90.101 0 6 71808 
108.162.226.202 0 5 877034 
103.22.200.191 0 4 157188 
141.101.107.221 0 1 3393 
172.68.144.222 16 20 640791 20181022231216
108.162.249.225 0 2 45619 
162.158.202.63 3 3 97397 20181027183251
162.158.155.193 0 4 1190592 
141.101.76.123 0 7 571705 
172.68.64.103 1 1 32464 20181028051026
162.158.38.207 0 1 1281 
162.158.10.27 0 28 3109414 
108.162.250.10 0 1 2657 
172.69.55.51 0 2 32076 
162.158.167.197 0 2 590266 
103.22.200.125 0 5 476678 
172.68.222.33 1 4 188195 20181031181945
162.158.75.249 0 2 6654 
162.158.89.36 0 1 375017 
162.158.155.97 9 10 295286 20181026195921
172.68.46.214 0 1 1737 
162.158.222.69 0 3 21189 
172.68.254.137 0 1 320855 
162.158.150.99 0 1 95933 
162.158.22.9 0 1 16060 
108.162.229.33 0 3 719670 
108.162.249.99 5 8 658641 20181005081423
162.158.79.124 0 4 22887 
172.68.253.190 6 9 219172 20181022140740
162.158.166.196 2 4 160865 20181009154841
172.68.253.148 6 6 205676 20181001082548
108.162.249.45 0 7 1017766 
172.68.110.81 0 3 930150 
172.68.245.36 1 1 28598 20181029164631
162.158.91.94 0 1 493103 
108.162.245.87 0 1 2471 
162.158.134.45 0 4 12352 
172.68.146.91 0 2 0 
162.158.154.120 0 3 559059 
162.158.89.72 0 8 41886 
103.22.200.131 0 3 219314 
162.158.54.105 0 4 53572 
162.158.111.6 0 9 4860 
141.101.97.70 0 1 1847 
172.68.211.69 2 2 64922 20181028223556
141.101.98.225 0 3 0 
162.158.74.218 0 2 0 
173.245.48.92 1 1 41855 20181019024308
162.158.165.213 0 5 4102 
162.158.92.153 0 8 0 
108.162.237.129 0 1 538 
141.101.98.27 1 1 32461 20181015164421
172.68.146.19 0 2 130531 
162.158.158.56 7 7 189220 20181014002026
172.69.22.241 0 1 8311 
141.101.107.245 0 1 419681 
172.68.47.53 0 1 7322 
172.68.86.57 0 4 20634 
108.162.246.58 0 1 2934 
198.41.238.99 0 4 48620 
141.101.69.38 0 3 11349 
172.68.146.115 6 6 183390 20181003143129
197.234.242.81 2 3 595264 20181030154916
172.68.132.64 1 5 34327 20181026205919
162.158.118.21 0 4 1045710 
141.101.96.73 0 1 7322 
162.158.2.123 0 2 6014 
173.245.52.108 0 4 48366 
141.101.107.83 0 6 7629 
162.158.38.75 0 1 320855 
188.114.102.87 0 3 813927 
173.245.54.42 8 16 1319002 20181031182057
162.158.30.45 0 2 20324 
162.158.90.35 0 3 2556 
172.68.209.22 1 1 32464 20181022035507
172.68.141.237 3 3 97440 20181031175500
162.158.89.156 8 8 251905 20181029141053
172.68.62.153 0 1 852 
172.68.253.82 0 2 6018 
172.68.186.21 0 3 9112 
162.158.186.203 0 1 16060 
162.158.134.81 0 4 378296 
172.68.150.81 1 1 32461 20181031120510
162.158.118.183 0 4 311801 
162.158.134.39 0 1 116 
172.68.62.39 2 2 64930 20181004202345
188.114.103.82 0 3 89787 
162.158.62.188 0 2 623916 
162.158.6.87 2 2 64931 20181018181938
172.68.255.115 0 1 3679 
172.68.44.58 2 2 64920 20181029062645
162.158.111.132 0 1 61086 
162.158.88.43 0 2 249985 
172.69.90.15 0 5 231442 
172.68.210.93 1 1 32460 20181001085846
162.158.63.219 0 1 3279 
172.68.144.102 0 2 62195 
172.68.47.155 0 2 465353 
162.158.2.33 0 3 40546 
172.68.146.25 0 3 205579 
162.158.107.30 1 2 11767 20181030201722
162.158.186.143 1 1 32465 20181001042610
162.158.154.12 0 1 2471 
197.234.242.21 0 1 3625 
172.69.114.33 0 3 122304 
172.69.86.39 0 10 612913 
162.158.166.16 0 3 87990 
173.245.52.96 0 3 166649 
162.158.178.68 0 2 23936 
162.158.2.57 11 21 1277716 20181031102909
108.162.215.111 2 4 79899 20181008074342
162.158.62.44 0 1 3625 
162.158.161.76 3 3 97380 20181031212003
141.101.88.195 0 8 0 
172.69.130.93 0 1 0 
162.158.106.155 0 2 275072 
172.69.135.159 4 4 124103 20181031152941
172.68.253.226 0 2 7864 
162.158.95.142 1 1 32460 20181029193351
162.158.94.67 1 1 32466 20181022141314
172.68.102.117 0 1 137536 
162.158.74.56 1 1 25547 20181007111204
162.158.93.230 0 1 524565 
172.68.51.21 0 6 60782 
162.158.118.63 0 2 171580 
162.158.202.111 2 5 700635 20181027183441
172.68.246.55 1 1 32461 20181024210935
108.162.249.105 0 4 1080276 
172.68.154.81 0 3 26540 
172.69.194.27 1 1 32465 20181010065725
162.158.38.213 1 1 32461 20181009090900
162.158.162.204 2 2 64920 20181029163611
172.69.134.200 0 1 123862 
162.158.54.183 2 2 58082 20181006224110
162.158.63.201 0 1 115 
172.68.191.177 2 2 64928 20181027023348
141.101.97.82 0 3 20734 
103.22.200.245 0 7 276385 
172.68.254.101 0 7 21149 
162.158.92.111 0 3 22887 
162.158.186.161 2 3 68258 20181019162340
108.162.238.118 0 1 7629 
141.101.96.51 0 1 137536 
162.158.10.15 3 25 2499725 20181025120322
162.158.88.253 0 1 111219 
162.158.19.34 2 2 64930 20181013170026
141.101.77.19 0 1 0 
162.158.62.236 0 1 2430 
162.158.2.99 0 8 85770 
172.68.93.41 1 1 32460 20181004021202
141.101.98.135 1 1 32480 20181002140810
172.68.51.123 1 1 32465 20181026160022
108.162.238.226 0 1 137300 
141.101.99.148 0 2 378244 
141.101.88.9 0 3 1010082 
172.69.55.57 2 2 74316 20181022152015
108.162.244.36 1 1 32464 20181007174118
172.68.132.226 1 1 32480 20181006110656
162.158.90.233 0 4 64240 
141.101.107.107 5 6 152952 20181029191303
141.101.104.214 0 4 919088 
172.69.69.231 0 2 6176 
162.158.38.135 0 1 15794 
162.158.134.129 0 14 30608 
162.158.165.171 0 2 392772 
141.101.104.148 0 3 8790 
172.68.58.232 3 3 97396 20181023030821
141.101.77.145 1 9 59914 20181006143421
108.162.244.248 2 2 32460 20181022172757
162.158.155.25 0 5 851581 
172.69.226.10 0 3 1189335 
197.234.242.159 0 6 134571 
172.69.190.33 3 5 103263 20181004120138
172.68.253.88 1 2 546884 20181008163356
141.101.77.103 2 2 70713 20181021145031
141.101.110.159 0 2 465075 
141.101.99.76 0 1 229772 
162.158.78.171 0 3 114375 
108.162.219.195 0 1 3009 
141.101.69.44 0 3 1259043 
108.162.229.231 4 7 309704 20181030181331
172.68.222.21 0 1 8311 
172.68.222.81 0 1 2934 
141.101.110.81 0 2 5478 
162.158.106.245 0 2 23534 
141.101.110.75 0 2 28526 
162.158.166.244 0 7 217462 
162.158.165.141 0 1 56978 
162.158.74.128 2 2 64931 20181014224041
172.68.253.178 0 4 537328 
172.68.65.215 1 1 41874 20181030194240
141.101.77.211 0 7 60960 
172.68.189.60 1 5 32480 20181029130625
162.158.22.195 0 3 35796 
172.69.94.15 0 8 466483 
172.68.110.69 0 4 7718 
141.101.97.134 0 1 7629 
162.158.155.133 0 6 0 
162.158.157.40 1 1 32464 20181026195922
162.158.78.81 0 4 1112 
141.101.104.232 0 4 2248756 
162.158.118.171 0 8 250776 
162.158.179.177 2 2 53382 20181022131328
141.101.99.130 0 5 4860 
141.101.97.135 0 2 116148 
108.162.216.69 0 1 16060 
162.158.164.232 7 7 227220 20181025105152
172.68.11.34 1 1 32465 20181006055327
172.69.135.87 4 5 133339 20181031110943
162.158.138.45 0 4 124477 
172.69.114.39 0 1 3327 
172.69.134.164 0 1 3088 
172.69.68.30 0 1 1737 
162.158.150.57 0 2 5805 
172.68.144.96 0 2 206964 
162.158.30.69 0 4 100863 
108.162.244.6 1 1 32464 20181028065935
188.114.102.21 0 2 628796 
162.158.74.14 0 1 116 
172.68.254.234 0 2 1648 
108.162.229.99 0 9 823491 
172.69.54.230 0 1 8685 
172.68.211.117 1 1 32461 20181021082613
162.158.22.117 0 1 2471 
172.69.70.94 1 3 34169 20181021115330
162.158.79.40 0 9 831392 
162.158.59.39 3 3 97395 20181028065442
162.158.134.87 0 4 13308 
172.69.62.33 2 6 600682 20181031023452
162.158.63.111 0 2 408463 
162.158.186.179 0 1 95933 
162.158.161.58 2 2 64920 20181003112523
172.68.46.244 9 10 282009 20181029062721
162.158.202.135 0 3 11536 
188.114.102.39 0 2 473282 
162.158.234.87 0 14 452544 
172.68.210.51 1 1 32460 20181016180314
172.69.68.254 0 1 3327 
162.158.93.38 0 3 7290 
172.69.55.81 3 6 92761 20181021145143
173.245.52.60 0 1 7629 
162.158.79.184 0 4 55848 
141.101.70.84 4 4 139234 20181026155810
172.68.208.208 1 1 32464 20181004001144
162.158.94.25 0 7 0 
172.68.238.81 0 1 16038 
172.69.135.93 3 6 137260 20181006120515
172.68.64.157 1 1 32460 20181028170717
172.68.58.250 1 1 32466 20181014223343
172.68.58.148 0 1 2934 
108.162.229.219 2 5 1097306 20181030201636
162.158.166.190 0 1 229772 
172.68.154.69 0 6 325095 
108.162.249.75 0 2 423783 
162.158.255.111 0 5 0 
188.114.103.76 2 4 904292 20181025185400
141.101.88.171 5 11 798236 20181029230440
162.158.106.251 0 3 14977 
162.158.125.96 1 1 32460 20181026214456
108.162.227.40 3 3 97380 20181011111442
172.68.146.229 1 2 113544 20181008150924
172.69.22.115 8 15 273855 20181031101105
162.158.110.213 3 3 64920 20181020134256
108.162.214.94 1 1 32460 20181011054307
162.158.154.150 0 2 320855 
141.101.98.165 0 1 184939 
188.114.103.46 0 3 470035 
108.162.226.64 3 9 420387 20181013193842
162.158.118.57 0 6 273357 
172.68.210.129 10 10 261026 20181031130245
103.22.200.161 0 2 150990 
141.101.77.217 4 8 762867 20181021150835
162.158.246.45 0 1 137536 
172.69.130.63 0 3 277843 
162.158.142.27 2 2 64922 20181017053814
141.101.98.171 1 1 38233 20181029161337
172.69.54.170 0 2 369878 
172.68.253.238 0 3 641498 
162.158.202.153 0 4 1033385 
162.158.111.254 0 3 6615 
172.69.135.189 8 8 259728 20181025173151
172.69.230.33 1 1 32466 20181029133945
162.158.154.30 3 4 100390 20181027170730
162.158.186.215 0 1 3088 
172.68.146.97 0 1 0 
172.68.255.49 0 1 275536 
172.68.211.111 4 4 129844 20181019023401
172.69.135.183 9 9 292193 20181025100450
172.68.253.46 0 2 542318 
162.158.77.46 1 1 32465 20181009075531
162.158.167.161 0 1 184939 
162.158.155.109 0 1 3898 
162.158.119.58 2 6 222810 20181013114422
172.69.55.123 8 11 875583 20181025110735
172.68.102.75 1 1 32466 20181025182636
162.158.118.117 0 6 512154 
172.68.146.193 0 6 275412 
172.69.190.27 8 19 392056 20181026224609
188.114.103.100 0 2 7908 
172.68.86.81 0 3 77474 
162.158.76.154 2 2 64920 20181030194224
141.101.69.236 0 2 32076 
162.158.62.92 0 1 95933 
162.158.56.124 2 2 56738 20181016170046
141.101.107.155 0 4 743132 
188.114.102.171 0 3 3822 
141.101.106.106 1 1 32464 20181026195921
141.101.77.25 0 4 13008 
197.234.242.171 0 4 309762 
141.101.105.5 0 3 10953 
172.68.65.245 0 3 60645 
172.68.222.117 0 1 3088 
141.101.77.175 0 4 1346776 
172.69.54.62 1 5 851949 20181031020733
162.158.108.148 1 1 32460 20181003155513
108.162.226.232 0 10 369543 
162.158.167.155 0 3 29954 
172.68.222.111 0 1 278 
162.158.118.9 0 4 269796 
162.158.89.168 0 3 95730 
108.162.250.28 0 3 8621 
108.162.229.147 0 3 1555212 
172.69.130.105 0 2 97214 
162.158.88.37 0 6 59193 
141.101.77.61 0 6 116452 
108.162.226.136 0 5 241628 
141.101.99.154 0 1 56978 
162.158.54.153 0 1 116 
108.162.226.106 0 4 519816 
162.158.86.18 1 1 0 20181026133115
162.158.62.158 0 1 3252 
162.158.154.240 0 3 7498 
172.68.50.207 0 2 71914 
141.101.69.206 0 17 0 
162.158.59.141 0 2 5868 
172.68.86.93 3 5 126971 20181018062725
162.158.222.33 1 3 67702 20181015234525
162.158.94.73 0 2 506782 
162.158.234.75 0 9 201498 
162.158.134.195 4 4 129861 20181030053227
172.68.12.151 1 1 32460 20181024210935
172.69.93.47 1 1 32460 20181010131214
162.158.30.81 1 8 106549 20181030142435
162.158.106.131 3 4 123935 20181024034903
172.68.146.169 0 4 1048538 
162.158.202.75 0 4 11229 
162.158.63.189 0 1 1847 
172.68.222.9 0 1 7629 
172.69.86.51 0 10 1456416 
162.158.78.27 2 2 44648 20181031023429
162.158.153.162 7 7 220925 20181030000232
172.68.254.107 0 2 7912 
162.158.163.147 2 2 64920 20181028122026
141.101.107.29 0 1 105 
172.68.253.142 0 2 473282 
162.158.202.189 0 2 34390 
108.162.246.178 0 6 30753 
162.158.154.132 1 1 25269 20181017022930
172.69.130.21 0 1 0 
141.101.105.148 5 5 162329 20181023095357
162.158.10.33 1 23 1957264 20181008232655
198.41.238.21 0 1 95933 
188.114.102.9 0 1 29113 
172.69.226.46 4 4 122332 20181030170322
172.68.222.75 0 1 95933 
172.69.55.117 10 10 324658 20181031100423
172.68.146.139 0 1 2405 
108.162.245.171 1 1 32466 20181003125623
172.69.62.165 2 2 50486 20181031023457
108.162.229.39 0 4 1688304 
162.158.154.252 0 1 3589 
162.158.92.81 0 1 87940 
162.158.164.64 4 4 129840 20181003225114
162.158.179.69 1 6 6935 20181026235723
162.158.7.64 1 1 32466 20181010111451
172.68.255.127 0 1 52847 
141.101.96.85 0 1 2934 
172.68.62.141 1 1 32461 20181019190038
172.69.22.151 0 1 266635 
162.158.38.189 0 3 466110 
198.41.238.51 1 2 68423 20181017074214
172.68.65.5 0 11 142066 
108.162.229.117 6 11 226935 20181024110437
172.68.44.220 2 2 64921 20181031130247
162.158.59.147 6 6 156042 20181020190826
172.69.62.147 0 5 12028 
172.68.185.11 1 1 32460 20181025143112
141.101.106.232 2 2 64920 20181022230021
141.101.107.119 0 2 499970 
172.68.86.9 1 5 67822 20181018085937
141.101.97.71 0 2 24349 
172.68.145.217 2 2 64920 20181004134332
162.158.89.108 1 1 32465 20181028032755
162.158.118.231 0 2 151239 
141.101.110.39 0 4 20756 
172.68.50.183 0 3 306510 
162.158.106.149 0 5 23936 
172.68.189.252 0 2 274600 
172.68.253.160 0 7 110077 
162.158.39.4 0 3 5431 
162.158.62.128 0 1 309980 
172.69.23.98 0 8 0 
162.158.90.65 2 2 64931 20181029193348
173.245.48.170 9 12 318010 20181030224316
162.158.155.211 14 14 358960 20181020205120
162.158.165.153 4 6 135596 20181004132012
172.69.94.51 0 7 418977 
172.68.46.118 1 1 32465 20181026011631
162.158.150.81 0 1 20215 
172.68.132.130 1 1 32466 20181028062339
141.101.110.117 0 2 18065 
172.68.144.6 0 2 408292 
188.114.102.117 0 1 13962 
108.162.219.15 1 2 35642 20181011035438
108.162.226.238 0 5 450253 
108.162.229.177 0 6 19569 
103.22.200.155 0 5 1093459 
162.158.88.73 0 1 538 
162.158.88.49 0 2 506052 
108.162.245.165 0 2 53080 
162.158.91.136 0 14 556 
172.68.58.34 1 1 32466 20181001114429
162.158.90.161 0 1 160781 
162.158.106.239 4 4 129861 20181017011545
172.69.69.15 0 1 1281 
162.158.22.99 0 1 3327 
172.68.254.149 0 4 13988 
141.101.88.117 0 8 0 
172.68.254.77 0 3 59371 
141.101.68.46 1 1 32464 20181024024911
172.68.141.177 0 1 3007 
172.69.20.52 1 1 32464 20181031165005
172.68.143.167 0 4 0 
172.68.51.231 0 1 137536 
108.162.249.81 0 2 14644 
141.101.98.195 7 9 202606 20181024002109
108.162.219.111 0 2 7006 
162.158.22.15 3 3 54087 20181016173319
162.158.142.111 2 2 64960 20181026094750
162.158.158.80 0 1 3009 
162.158.153.174 1 1 32460 20181004132807
188.114.103.184 0 2 1049130 
162.158.38.21 0 1 26540 
172.68.78.51 0 1 137536 
141.101.88.141 0 1 0 
172.69.94.33 0 17 2701034 
172.69.130.15 5 6 135035 20181001234628
162.158.78.189 0 2 58226 
162.158.88.25 0 3 283722 
141.101.107.47 0 3 353879 
172.69.56.31 1 1 32460 20181009010410
162.158.63.213 1 2 35873 20181003063834
172.68.65.239 4 4 129882 20181031224927
197.234.242.27 0 17 1694399 
172.68.141.21 1 1 0 20181024031654
172.68.154.93 0 3 521633 
172.68.141.189 3 3 97440 20181031175734
188.114.103.172 0 2 6454 
108.162.215.39 4 4 129861 20181031110839
108.162.249.195 0 11 703028 
172.69.62.21 4 4 131558 20181031215000
172.69.90.63 0 2 39284 
162.158.89.192 0 1 309980 
108.162.237.147 0 1 20215 
108.162.250.16 0 7 476031 
172.68.222.69 0 1 31910 
141.101.77.229 3 16 229189 20181020061656
108.162.215.123 0 2 275072 
172.68.145.80 3 3 97380 20181030144056
172.68.51.147 0 2 1076 
162.158.106.191 0 1 94574 
172.68.145.211 1 1 32460 20181002155915
162.158.126.45 0 1 3327 
162.158.154.198 2 6 84783 20181021233511
188.114.102.183 0 4 13396 
108.162.226.112 0 2 145218 
108.162.229.171 8 8 242729 20181026020038
141.101.102.129 1 1 32465 20181009073040
162.158.63.21 0 2 6316 
162.158.134.219 0 18 565874 
162.158.155.121 0 1 2642 
162.158.111.138 10 19 1974828 20181028165442
108.162.249.165 0 3 799678 
162.158.178.170 0 4 676645 
108.162.237.33 0 1 94574 
197.234.242.93 0 5 868207 
162.158.106.107 0 3 44931 
103.22.200.101 0 4 365199 
162.158.54.81 0 1 0 
141.101.97.65 0 1 105 
162.158.63.225 0 2 33045 
162.158.202.129 0 4 906306 
141.101.66.172 1 1 32460 20181007193228
108.162.245.207 6 7 165653 20181010143408
162.158.186.59 0 1 137536 
162.158.58.80 3 3 97383 20181018081732
141.101.110.129 0 1 137536 
162.158.2.27 0 7 442850 
162.158.138.69 0 3 41045 
172.68.253.40 0 6 2049456 
162.158.167.131 0 2 109928 
172.68.110.57 0 6 391500 
172.69.70.10 3 4 191969 20181021115344
162.158.142.57 1 1 32466 20181024104609
172.68.253.64 2 9 358512 20181001112438
108.162.238.10 0 1 31910 
162.158.90.149 6 6 186975 20181022220221
172.69.54.254 2 2 64922 20181028161125
172.68.255.85 0 1 1943 
162.158.202.33 2 5 541375 20181028040316
141.101.104.27 0 1 2816 
141.101.66.220 1 1 32460 20181013114817
162.158.90.203 0 4 420 
172.68.146.145 0 1 0 
162.158.202.225 0 5 17467 
188.114.102.207 0 10 1131468 
141.101.88.153 1 4 51615 20181020105926
162.158.179.237 0 1 137536 
172.68.254.95 0 1 56978 
172.68.86.39 0 2 138817 
141.101.98.123 0 6 1177951 
173.245.52.192 0 1 35957 
141.101.105.107 0 4 728640 
162.158.202.9 0 3 97004 
162.158.39.16 0 2 189148 
172.68.93.161 2 2 64920 20181004021205
162.158.111.84 0 4 15724 
162.158.79.34 7 7 225880 20181026201609
162.158.58.152 0 1 8311 
172.69.226.52 0 3 1187313 
162.158.187.24 0 1 5267 
172.68.142.208 6 6 194793 20181026235701
162.158.59.33 0 3 60697 
162.158.83.54 1 1 32460 20181030160004
172.69.54.188 0 1 52847 
172.69.190.15 1 8 116174 20181001174903
172.68.133.71 4 4 97395 20181030134602
162.158.178.20 0 5 22587 
172.68.110.99 0 6 119786 
108.162.226.82 1 11 978738 20181002160207
172.68.110.75 0 8 223338 
141.101.77.241 9 9 240119 20181025211056
172.69.55.141 2 2 64931 20181019020635
172.69.70.64 0 1 23936 
162.158.111.18 4 4 145721 20181019205435
162.158.118.99 0 8 688054 
172.68.62.93 1 1 32465 20181005141747
108.162.226.52 0 5 166031 
188.114.103.136 2 6 79695 20181018181917
172.68.189.240 2 7 168835 20181030205349
108.162.249.237 0 1 137536 
172.69.134.134 8 9 341163 20181025172458
103.22.200.149 0 5 485718 
162.158.98.45 2 6 615076 20181030154901
108.162.249.201 0 3 3100 
162.158.133.53 2 2 64920 20181019181317
172.68.238.117 1 1 41874 20181022163225
162.158.2.9 0 1 56978 
162.158.74.212 0 1 3007 
162.158.118.195 0 6 197170 
141.101.69.50 1 1 32480 20181030182724
188.114.102.99 0 4 31208 
141.101.97.136 0 1 13962 
162.158.119.70 0 8 233782 
141.101.69.146 13 16 375113 20181030181303
162.158.164.103 6 6 194760 20181025104714
172.68.189.36 5 5 139254 20181030075829
172.68.54.51 1 1 32461 20181026180313
162.158.87.78 1 1 0 20181011083108
162.158.111.228 0 3 813477 
172.68.59.5 0 1 852 
162.158.6.39 1 1 0 20181018014954
172.68.2.105 0 1 16060 
162.158.58.176 5 5 153305 20181030085724
162.158.79.250 1 1 32465 20181030202059
108.162.246.184 0 1 0 
162.158.91.100 2 2 61078 20181022222204
141.101.69.122 0 3 6615 
172.68.246.103 1 1 32465 20181013111018
162.158.107.18 0 1 404213 
162.158.202.207 0 3 719792 
162.158.117.49 2 2 64920 20181020155004
172.68.6.87 2 2 64930 20181009190426
162.158.166.232 0 3 871677 
162.158.38.141 0 2 8174 
162.158.126.21 0 1 7322 
172.68.110.45 0 6 28480 
162.158.30.51 0 4 170075 
162.158.166.202 1 2 211984 20181006215245
172.68.135.55 1 1 32465 20181025001302
162.158.59.81 10 10 299638 20181031025449
162.158.154.78 3 3 97383 20181026165454
172.68.14.93 1 1 32460 20181020075656
162.158.202.147 0 4 959807 
162.158.79.64 0 7 1584373 
162.158.30.63 3 4 85805 20181030142905
172.69.130.69 0 1 465075 
197.234.242.39 0 5 49756 
162.158.187.6 2 2 64960 20181015001937
141.101.98.57 5 12 330257 20181029195001
162.158.155.145 1 1 25760 20181029075902
141.101.88.231 1 12 41488 20181024165829
172.69.54.14 0 4 946564 
108.162.228.82 1 1 32460 20181014125942
108.162.229.105 11 14 361638 20181030193515
172.68.142.244 0 5 13962 
162.158.178.122 0 2 750034 
108.162.241.63 0 2 8274 
162.158.63.237 0 2 3446 
141.101.96.83 0 1 465075 
162.158.90.179 0 4 757443 
162.158.154.96 0 3 56541 
162.158.155.175 9 9 260211 20181004172421
162.158.166.214 12 12 362123 20181018234314
172.69.134.140 3 4 202508 20181009220127
173.245.52.144 0 1 4168 
141.101.70.168 4 4 129840 20181029215508
172.69.226.118 1 6 49538 20181019154219
162.158.154.114 0 6 29113 
141.101.69.86 6 9 182889 20181030170434
141.101.88.129 0 3 7440 
162.158.134.117 0 4 80860 
141.101.107.239 8 8 259711 20181028180522
188.114.102.225 0 7 439205 
173.245.52.138 0 1 261342 
141.101.96.84 0 1 35957 
172.68.46.58 7 7 203722 20181031165238
162.158.166.124 0 2 0 
108.162.237.213 3 3 97395 20181025093655
162.158.54.63 0 1 1737 
188.114.102.123 0 4 407373 
108.162.240.144 1 1 32460 20181002084531
162.158.2.135 0 12 99126 
172.68.45.16 2 2 64920 20181019122916
172.69.134.242 2 6 721386 20181026112217
162.158.105.4 1 1 0 20181006030200
108.162.226.40 0 3 251035 
162.158.162.156 1 1 32460 20181008140824
141.101.88.237 0 4 814854 
172.68.94.159 1 1 32461 20181004233423
141.101.76.51 0 10 14500 
108.162.226.166 0 3 265102 
162.158.118.81 0 6 232654 
108.162.246.124 1 1 0 20181016151530
108.162.219.135 0 2 191866 
162.158.39.34 0 2 5267 
162.158.221.77 1 1 32460 20181022172606
172.69.69.219 0 1 29113 
108.162.249.69 0 4 608163 
162.158.166.94 2 2 61078 20181003210606
162.158.167.167 0 1 79198 
173.245.48.236 7 7 227255 20181026135412
172.68.253.52 0 4 14338 
172.68.189.54 5 5 162327 20181019115310
173.245.52.102 0 3 526033 
162.158.118.15 0 8 1056065 
188.114.102.81 0 4 1247708 
172.68.86.105 0 3 30027 
172.69.62.237 2 2 52370 20181031023420
108.162.215.171 1 1 32461 20181026062121
172.68.110.111 0 3 3694 
172.69.94.69 3 34 5099846 20181023181026
141.101.64.184 1 1 32460 20181029155140
172.69.134.212 0 1 137300 
162.158.38.159 0 2 16622 
188.114.102.15 0 5 683424 
162.158.62.56 0 2 3694 
162.158.9.23 1 1 32460 20181008214147
172.68.51.237 0 3 191866 
108.162.229.159 0 2 1648 
162.158.86.168 1 1 0 20181004071244
108.162.226.172 0 8 920129 
198.41.238.87 0 2 10741 
172.69.132.110 5 5 162300 20181006212021
162.158.114.99 0 1 137536 
172.69.135.99 4 4 129878 20181005170944
162.158.39.40 7 7 143652 20181029164923
162.158.10.21 11 34 4202125 20181025115916
162.158.78.129 2 7 72272 20181031023409
172.68.189.24 0 5 287799 
162.158.78.69 0 2 5267 
141.101.110.135 2 2 50969 20181030045442
162.158.98.69 3 4 234934 20181022131948
162.158.202.165 0 2 6862 
172.68.51.57 0 3 15258 
162.158.79.106 2 5 52192 20181031023459
172.69.132.122 1 1 32460 20181029123428
162.158.155.67 1 1 32480 20181001060848
172.69.55.153 0 2 7386 
172.68.146.175 7 11 779918 20181031150506
162.158.186.131 1 1 32465 20181014173851
172.69.190.63 5 18 365720 20181030161740
108.162.246.34 0 1 3007 
162.158.79.238 2 2 64960 20181031023430
141.101.99.244 4 4 129863 20181020181751
162.158.90.53 0 1 852 
108.162.229.183 0 8 0 
108.162.249.153 0 2 407291 
162.158.118.213 0 13 1165679 
172.68.238.201 17 17 551905 20181029235456
172.69.20.58 2 2 32460 20181013080620
162.158.89.186 0 1 229772 
172.68.47.71 0 2 53080 
108.162.249.33 0 3 545631 
162.158.106.221 0 3 0 
172.68.150.87 0 2 108342 
172.68.50.189 0 3 47872 
162.158.233.41 1 1 32460 20181005150328
162.158.2.183 0 2 3886 
141.101.110.87 0 2 169210 
141.101.105.203 6 8 200663 20181031114714
162.158.138.81 0 3 45433 
172.68.143.197 0 3 283722 
172.69.54.8 0 3 9486 
172.68.253.166 0 3 515764 
162.158.23.70 0 1 31910 
172.68.144.12 3 3 97397 20181030020551
162.158.202.141 0 1 4233 
162.158.63.183 0 1 5267 
162.158.222.117 1 6 70011 20181015234548
172.68.154.111 0 1 2642 
162.158.234.99 0 6 1862862 
173.245.52.174 0 3 477593 
162.158.150.45 0 6 583665 
172.68.54.171 1 2 170002 20181018141340
141.101.104.178 0 3 719670 
162.158.106.59 0 5 16962 
172.68.144.216 0 3 3009 
162.158.22.81 0 5 260757 
162.158.110.129 1 1 32460 20181017153307
162.158.202.171 0 7 601665 
141.101.77.139 2 4 340003 20181027141755
162.158.23.52 0 4 0 
162.158.59.165 0 2 534634 
162.158.38.27 1 1 28465 20181009090820
162.158.59.129 0 1 824 
172.69.94.63 0 17 925053 
172.69.90.21 0 2 169210 
172.69.130.39 0 2 26540 
162.158.62.248 0 1 94574 
162.158.118.177 0 2 179882 
162.158.1.113 1 1 32460 20181021183308
162.158.167.59 4 4 150465 20181021165343
162.158.106.89 5 5 64930 20181030202058
141.101.77.199 0 3 1187313 
108.162.246.136 1 2 436693 20181016232602
141.101.104.58 2 2 64931 20181026225547
172.68.211.201 9 9 256477 20181030094548
162.158.2.159 0 2 122172 
162.158.113.53 1 1 32460 20181011175518
108.162.216.237 1 1 32461 20181027012036
141.101.99.22 0 2 7302 
172.68.238.171 2 2 64922 20181029050339
172.69.62.153 0 3 24933 
162.158.222.75 2 4 125381 20181023203313
162.158.142.63 0 1 137536 
162.158.9.5 4 4 129840 20181025115345
162.158.78.153 0 2 3474 
172.68.186.69 0 1 137536 
141.101.76.69 0 1 137300 
162.158.118.207 0 11 476516 
141.101.107.89 0 1 3931 
172.69.68.23 0 1 824 
172.68.154.15 0 3 215399 
162.158.202.195 0 3 187427 
172.68.132.172 1 1 0 20181024031658
172.69.22.85 0 2 40430 
172.69.226.148 0 9 0 
162.158.178.188 0 1 16038 
141.101.77.205 0 3 315 
162.158.202.123 0 2 6604 
188.114.103.10 0 3 582982 
172.68.86.111 0 3 145710 
173.245.52.120 0 1 278 
162.158.179.75 0 1 0 
172.68.51.99 4 4 129863 20181031172817
162.158.150.111 5 7 173069 20181025135602
172.69.68.9 0 2 53080 
172.68.254.252 0 1 493103 
172.68.146.217 2 2 83748 20181008151507
162.158.93.68 1 4 107871 20181006040129
162.158.2.75 0 4 2430 
162.158.162.72 2 2 64920 20181030172331
172.68.133.17 2 2 64960 20181007101141
141.101.69.194 0 3 9015 
162.158.165.87 14 15 430971 20181009223629
108.162.226.208 1 9 939865 20181001132955
162.158.158.68 2 3 469476 20181015214523
162.158.167.209 9 9 287591 20181009110238
108.162.216.243 0 2 4942 
172.68.144.198 3 4 183766 20181003210817
172.69.190.21 3 15 1322791 20181030161804
162.158.78.219 0 1 2934 
162.158.118.141 0 3 141238 
172.68.149.29 2 2 64920 20181010115257
198.41.238.81 0 2 491615 
197.234.242.165 0 4 163777 
162.158.166.52 0 1 16060 
162.158.62.32 0 2 365758 
108.162.219.183 0 1 3005 
162.158.167.77 1 2 44874 20181007215723
172.68.9.132 1 1 0 20181018153903
162.158.79.190 4 4 126949 20181029101413
162.158.179.117 0 4 991526 
141.101.98.159 0 1 3679 
108.162.216.249 0 4 318277 
162.158.22.225 0 1 7629 
172.68.186.87 0 3 32815 
141.101.107.137 0 1 137536 
162.158.246.51 0 1 852 
172.68.86.63 0 4 125283 
162.158.167.227 0 5 35957 
172.68.145.32 4 4 129840 20181020212818
108.162.215.45 10 10 295570 20181030085724
172.68.144.126 0 1 3005 
162.158.166.136 0 2 325774 
108.162.219.9 0 2 602359 
172.69.226.106 6 6 180467 20181029121524
108.162.250.52 0 1 249985 
108.162.216.153 0 1 7629 
172.68.253.232 0 2 7386 
162.158.161.118 1 1 32460 20181008213223
172.69.134.38 6 10 351262 20181031165742
162.158.165.231 0 1 61086 
172.68.222.105 1 1 32465 20181029001304
162.158.165.39 0 2 278990 
141.101.66.137 3 3 97380 20181026092240
162.158.154.36 0 1 16060 
103.22.200.95 5 12 485993 20181019144928
141.101.104.238 0 4 15132 
108.162.226.118 0 2 129560 
172.69.70.58 0 1 31910 
172.69.62.87 2 7 168260 20181031023423
141.101.105.17 0 6 14977 
162.158.179.81 0 2 6324 
162.158.59.189 7 7 222941 20181030085722
141.101.98.15 0 1 562189 
172.69.134.98 6 9 194796 20181031093603
162.158.154.156 0 13 149677 
162.158.134.165 0 12 299465 
162.158.234.15 4 4 119539 20181007002357
141.101.110.123 0 1 23936 
162.158.133.47 1 1 32460 20181014183032
172.68.65.191 3 3 93387 20181031120045
172.69.134.182 0 1 144322 
162.158.126.39 0 1 465075 
197.234.242.69 0 2 7113 
141.101.97.102 0 1 3088 
162.158.39.46 0 2 278 
162.158.202.183 0 3 27105 
172.68.145.199 3 3 97380 20181027230009
172.68.86.33 0 1 2430 
162.158.91.88 0 1 31910 
162.158.138.9 0 3 139811 
162.158.89.198 8 8 251933 20181031021833
188.114.102.69 1 7 474176 20181022160030
103.22.200.203 0 5 206318 
162.158.158.26 0 3 213076 
197.234.242.141 0 2 4014 
162.158.58.44 0 1 3007 
162.158.7.82 1 1 32466 20181011073037
172.68.54.111 0 1 137536 
108.162.226.226 0 2 179364 
162.158.165.45 0 2 32076 
197.234.242.33 0 10 625734 
198.41.238.57 0 5 141278 
197.234.242.147 0 4 493103 
172.69.134.86 0 3 0 
108.162.219.39 0 1 30184 
108.162.249.129 0 2 172548 
188.114.103.64 0 2 1036808 
108.162.217.160 1 1 32460 20181008163446
162.158.106.185 0 1 0 
162.158.118.201 0 4 195084 
172.68.65.23 12 12 387900 20181026080728
162.158.165.159 0 4 93119 
162.158.89.138 0 2 613963 
141.101.107.59 8 8 259725 20181029215505
162.158.90.131 0 2 275072 
162.158.13.23 1 1 32460 20181015191201
172.69.62.225 4 4 106460 20181031023450
198.41.237.18 1 1 32460 20181004120119
162.158.154.54 0 1 2816 
172.68.202.27 0 26 1575558 
108.162.238.190 8 8 259720 20181021073331
162.158.155.55 0 1 2405 
141.101.69.20 0 6 24348 
172.69.135.69 0 1 2205 
172.68.150.111 0 1 29113 
172.69.23.56 3 3 97383 20181028165702
162.158.178.194 0 1 406470 
172.68.110.9 0 1 2471 
162.158.119.46 4 6 329380 20181026110334
172.68.237.59 2 2 0 20181017082008
162.158.54.69 0 1 137300 
162.158.92.195 0 1 312719 
108.162.246.88 0 3 0 
162.158.38.231 0 4 23619 
172.68.47.11 0 3 0 
141.101.104.82 1 2 36965 20181007034858
162.158.38.237 0 3 137300 
162.158.202.87 0 7 851520 
162.158.125.42 1 1 32460 20181026214353
172.68.146.253 6 7 614476 20181030221948
108.162.229.195 6 11 1176550 20181024130520
103.22.200.167 0 5 718357 
172.69.86.63 0 14 776978 
172.68.186.39 0 3 469929 
162.158.154.102 0 1 396445 
188.114.103.124 4 10 1542443 20181015031104
162.158.109.17 2 2 64920 20181031161439
162.158.155.181 3 3 97398 20181028155906
172.68.146.67 1 3 58726 20181008155351
162.158.63.159 0 2 930150 
162.158.165.81 0 1 424988 
172.68.47.101 6 6 159997 20181030085722
172.68.78.33 3 3 97395 20181015002010
162.158.53.29 1 1 32460 20181002180904
162.158.138.63 0 7 520077 
162.158.196.157 1 1 32460 20181023125721
141.101.96.62 8 9 260572 20181031135845
141.101.69.68 0 3 652554 
141.101.77.223 0 4 1309044 
108.162.249.51 0 3 13962 
162.158.164.148 5 5 162300 20181019120343
162.158.166.142 0 1 133720 
162.158.165.9 0 1 3195 
END_VISITOR

# Date - Pages - Hits - Bandwidth - Visits
BEGIN_DAY 31
20181001 148 292 16846278 98
20181002 178 820 46922299 130
20181003 174 298 12569560 111
20181004 117 290 15560675 87
20181005 118 608 68023124 88
20181006 73 134 5734185 58
20181007 69 214 13717784 50
20181008 127 243 7813861 97
20181009 160 525 43955176 107
20181010 117 166 5798806 93
20181011 90 290 18912991 67
20181012 111 254 12448802 82
20181013 107 189 7239143 84
20181014 90 208 6938311 66
20181015 138 411 21802523 87
20181016 128 280 18666498 89
20181017 127 250 8616515 98
20181018 195 318 9816792 119
20181019 107 226 6864301 86
20181020 157 248 6777990 97
20181021 112 211 14189745 79
20181022 143 239 8480030 97
20181023 124 335 29756142 99
20181024 81 220 14152356 68
20181025 154 483 31754376 105
20181026 154 225 8337485 115
20181027 63 213 16283577 47
20181028 76 196 6359209 59
20181029 156 311 14131815 106
20181030 184 455 22760870 123
20181031 182 249 8189121 137
END_DAY

# Session range - Number of visits
BEGIN_SESSION 7
0s-30s 2493
30mn-1h 63
30s-2mn 110
2mn-5mn 47
1h+ 28
5mn-15mn 47
15mn-30mn 41
END_SESSION

# URL - Pages - Bandwidth - Entry - Exit
# The 25 first Pages must be first (order not required for others)
BEGIN_SIDER 69
/ 2533 80580950 2123 2115
/contact-us 146 6126700 75 90
/accommodation/super-deluxe 116 3011145 54 44
/manage-gallery 102 3899766 55 57
/accommodation/standard 102 2527863 43 47
/accommodation/delux-mountain-view 93 2492571 36 28
/honeymoon.php 71 1792278 30 29
/promotions.php 67 1915990 31 21
/cuisine/buffet 56 1433651 16 24
/about-us 55 1509430 31 28
/accommodation 52 1554875 33 21
//index.php 50 1623234 34 37
/facilities/spa 40 1010684 17 16
/infinity-pool 35 862120 11 12
/promotions 33 943734 12 13
/assets/360/poolview.html 31 84266 17 11
/facilities/infinity-pool 27 664973 6 13
/cuisine.php 25 710235 16 13
/facilities 23 807217 13 11
/cuisine/bar 20 492124 12 10
/facilities/shopping-boutique 19 467956 8 14
/honeymoon 18 454392 9 6
/facilities/fitness-centre 18 451826 9 9
/cuisine/signature-dinning 17 439691 1 7
/privacy-policy 14 384504 8 11
/fitness-centre.php 2 42585 2 1
/facilities.php 4 140389 3 3
/infinity-pool.php 3 75060 3 2
/deluxe.php 3 78543 3 3
/conferences-and-workshops.php 3 77034 3 3
/assets/360/gymview.html 7 22729 1 2
/facilities/squash-court 13 322604 6 8
/downloads.php 2 44618 2 2
/assets/360/lobbyview.swf 1 120824 1 1
/facilities/badminton-n-table-tennis 13 328099 6 7
/privacy-policy.php 1 28485 1 1
/downloads 12 267873 6 9
/sitemap.xml 2 7456 2 2
/signature_dining.php 2 52702 1 2
/index.php 12 389681 11 9
/search-results.php 2 47401 0 1
/bar.php 2 50603 1 1
/facilities/business-centre 11 271756 3 6
/contact-us.php 12 502413 11 12
/about-us.php 6 170889 4 5
/facilities/conferences-and-workshops 12 306002 8 6
/assets/360/poolview.swf 2 241490 2 2
/suite.php 2 56424 1 2
/assets/360/lobbyview.html 4 13004 1 1
/shopping-boutique.php 1 25124 1 1
/accommodation.php 3 89679 2 2
/long-stay.php 2 52414 2 2
/wedding.php 6 197748 5 4
//index.php/component/users/ 1 32465 1 0
/squash-court.php 4 100977 4 4
/assets/360/restaurantview.swf 1 120732 1 1
/business-centre.php 1 24784 0 0
/buffet.php 1 25760 1 1
/terms-and-conditions 12 352871 10 10
/map_pop.html 1 1615 0 0
/badminton-and-table-tennis.php 5 127735 5 4
/spa.php 5 128185 3 5
/deluxe_m_view.php 2 54436 1 2
/accommodation/terms-and-conditions 1 0 1 1
/assets/360/restaurantview.html 4 13048 1 3
/terms-and-conditions.php 1 32069 1 0
/assets/360/gymview.swf 1 120734 1 1
//index.php/Home/AppUpload/commentUpload 1 32465 0 0
/site-map 11 267140 7 10
END_SIDER
