AWSTATS DATA FILE 7.7 (build 20180105)
# If you remove this file, all statistics for date 201906 will be lost/reset.
# Last config file used to build this data file was /home2/fyfxamvcmvss/tmp/awstats/awstats.firs.freudenbergleisure.com.conf.

# Position (offset in bytes) in this file for beginning of each section for
# direct I/O access. If you made changes somewhere in this file, you should
# also remove completely the MAP section (AWStats will rewrite it at next
# update).
BEGIN_MAP 28
POS_GENERAL 2029                
POS_TIME 2710                
POS_VISITOR 16139               
POS_DAY 72373               
POS_DOMAIN 3663                
POS_LOGIN 4598                
POS_ROBOT 4753                
POS_WORMS 6400                
POS_EMAILSENDER 6531                
POS_EMAILRECEIVER 6674                
POS_SESSION 73258               
POS_SIDER 73472               
POS_FILETYPES 6809                
POS_DOWNLOADS 7077                
POS_OS 7125                
POS_BROWSER 7519                
POS_SCREENSIZE 11179               
POS_UNKNOWNREFERER 11253               
POS_UNKNOWNREFERERBROWSER 12779               
POS_ORIGIN 13504               
POS_SEREFERRALS 13654               
POS_PAGEREFS 14002               
POS_SEARCHWORDS 15430               
POS_KEYWORDS 15622               
POS_MISC 2372                
POS_ERRORS 15723               
POS_CLUSTER 4454                
POS_SIDER_404 15830               
END_MAP

# LastLine    = Date of last record processed - Last record line number in last log - Last record offset in last log - Last record signature value
# FirstTime   = Date of first visit for history file
# LastTime    = Date of last visit for history file
# LastUpdate  = Date of last update - Nb of parsed records - Nb of parsed old records - Nb of parsed new records - Nb of parsed corrupted - Nb of parsed dropped
# TotalVisits = Number of visits
# TotalUnique = Number of unique visitors
# MonthHostsKnown   = Number of hosts known
# MonthHostsUnKnown = Number of hosts unknown
BEGIN_GENERAL 8
LastLine 20190701000018 89 21633 18111237919724
FirstTime 20190601003212
LastTime 20190630235956
LastUpdate 20190701173949 89 0 88 0 0
TotalVisits 1519                
TotalUnique 1271                
MonthHostsKnown 0                   
MonthHostsUnknown 1325                
END_GENERAL

# Misc ID - Pages - Hits - Bandwidth
BEGIN_MISC 10
AddToFavourites 0 315 0
WindowsMediaPlayerSupport 0 0 0
PDFSupport 0 0 0
QuickTimeSupport 0 0 0
JavascriptDisabled 0 0 0
TotalMisc 0 0 0
FlashSupport 0 0 0
DirectorSupport 0 0 0
JavaEnabled 0 0 0
RealPlayerSupport 0 0 0
END_MISC

# Hour - Pages - Hits - Bandwidth - Not viewed Pages - Not viewed Hits - Not viewed Bandwidth
BEGIN_TIME 24
0 159 197 6337482 126 232 7165691
1 59 120 3842863 116 190 4861520
2 33 47 1158681 247 331 8160251
3 66 189 9477427 128 198 4855561
4 175 232 11252439 172 264 6377890
5 46 71 2304790 133 241 5703669
6 86 155 4567049 147 249 5641167
7 139 166 5580339 96 200 4918094
8 182 311 11948657 154 319 7521482
9 205 246 7509389 117 244 5661394
10 156 175 5724129 156 304 7180983
11 176 252 8405862 73 207 4985279
12 238 587 31906713 141 329 7806700
13 247 298 9181073 111 276 6418262
14 266 561 26735753 117 303 7000569
15 265 283 8480478 178 388 9151487
16 218 222 6437826 105 256 6852852
17 191 459 23949405 148 326 8010386
18 110 116 3321718 105 201 4900262
19 142 234 7633807 110 259 6079344
20 138 154 5053852 173 285 6578540
21 165 236 8761970 108 288 6514138
22 131 167 5400030 103 239 6132133
23 112 148 5004384 116 225 5394215
END_TIME

# Domain - Pages - Hits - Bandwidth
# The 25 first Pages must be first (order not required for others)
BEGIN_DOMAIN 48
lk 1599 2250 85254311
us 839 1441 54369403
ip 522 876 37513729
cn 119 142 5192321
ca 118 168 5825375
gb 87 208 13285730
ru 73 75 2225299
ae 62 147 6577218
in 42 44 1270677
ua 30 30 961004
fr 23 38 1437102
de 19 19 613843
qa 16 22 666547
dk 14 14 411221
ro 13 13 383632
nl 12 12 339626
it 11 12 350430
au 10 11 327476
cz 9 11 263455
es 9 9 278700
ie 8 8 248472
mv 7 12 201199
by 7 7 193692
my 6 6 180570
ke 5 6 161076
kz 3 3 109843
ee 1 1 38378
se 4 4 150240
jo 1 1 31075
lv 1 1 31070
kh 1 1 31059
vn 1 1 31070
hk 4 4 124300
za 1 1 31075
dm 1 1 31055
at 4 4 109021
kr 2 2 62118
mu 1 1 31055
gr 1 1 31074
pt 3 3 108866
om 4 4 104335
pl 3 3 109841
hu 1 1 31055
eu 3 3 92164
jp 2 2 62110
kw 1 1 31059
cl 1 1 31070
bh 1 1 31075
END_DOMAIN

# Cluster ID - Pages - Hits - Bandwidth
BEGIN_CLUSTER 0
END_CLUSTER

# Login - Pages - Hits - Bandwidth - Last visit
# The 10 first Pages must be first (order not required for others)
BEGIN_LOGIN 0
END_LOGIN

# Robot ID - Hits - Bandwidth - Last visit - Hits on robots.txt
# The 25 first Hits must be first (order not required for others)
BEGIN_ROBOT 38
bingbot/ 452 14040892 20190630231500 0
Googlebot/ 432 13057422 20190630180639 0
bot[\s_+:,\.\;\/\\-] 180 5508099 20190630200003 0
facebookexternalhit/ 69 2994916 20190627145218 0
Applebot/ 63 1743331 20190630031545 0
YandexBot/ 53 1545425 20190630232845 0
Uptimebot/ 50 1553140 20190627070125 0
no_user_agent 50 1427379 20190630071119 0
DotBot/ 46 978310 20190630211124 0
360Spider 42 1304775 20190630201257 0
Sogou[\x20]web[\x20]spider/ 36 1105214 20190630024825 0
SeznamBot/ 36 1694163 20190629121012 0
MegaIndex\.ru/ 30 708689 20190628023526 0
Baiduspider/ 23 714577 20190630051054 0
Exabot/ 21 563380 20190629103230 0
spider 20 384048 20190625212512 0
bingpreview 19 451013 20190629073616 0
Apache\-HttpClient/ 18 559062 20190620175030 0
CCBot/ 15 436582 20190625210531 0
aiHitBot/ 11 258466 20190603145815 0
oBot/ 10 1876104 20190621123320 0
(firefox/)([0-9]\.|[0-1][0]\.) 9 271285 20190629211858 0
SemrushBot/ 7 145560 20190629114520 0
Mail\.RU_Bot/ 6 100650 20190629225204 0
MojeekBot/ 5 146346 20190630191238 0
Cliqzbot/ 1 31059 20190608195139 0
crawl 5 155318 20190624092225 0
Yahoo[\x20]Link[\x20]Preview 1 31059 20190603113823 0
link 1 31055 20190627140534 0
baidu 1 31075 20190621044647 0
archive\.org_bot 1 31070 20190618053306 0
curl 5 149794 20190617140538 0
MJ12bot/ 2 60647 20190615233426 0
TweetmemeBot/ 1 31059 20190612164328 0
[\s_+:,\.\;\/\\-]bot 5 116264 20190622185356 0
YandexImages/ 2 140714 20190629101836 0
YandexMobileBot/ 3 106389 20190623021419 0
YisouSpider 1 25275 20190628162348 0
END_ROBOT

# Worm ID - Hits - Bandwidth - Last visit
# The 5 first Hits must be first (order not required for others)
BEGIN_WORMS 0
END_WORMS

# EMail - Hits - Bandwidth - Last visit
# The 20 first Hits must be first (order not required for others)
BEGIN_EMAILSENDER 0
END_EMAILSENDER

# EMail - Hits - Bandwidth - Last visit
# The 20 first hits must be first (order not required for others)
BEGIN_EMAILRECEIVER 0
END_EMAILRECEIVER

# Files type - Hits - Bandwidth - Bandwidth without compression - Bandwidth after compression
BEGIN_FILETYPES 10
css 107 1674045 0 0
xml 85 308382 0 0
swf 14 1665259 0 0
png 342 2357587 0 0
Unknown 1888 55178376 0 0
jpg 891 75793140 0 0
php 57 1676216 0 0
gif 17 20007 0 0
html 1661 46797673 0 0
js 564 34505431 0 0
END_FILETYPES

# Downloads - Hits - Bandwidth
BEGIN_DOWNLOADS 0
END_DOWNLOADS

# OS ID - Hits
BEGIN_OS ID - Hits - Pages 24
macosx 111 105
macosx10 5 5
macosx9 7 7
win98 2 2
winphone 3 3
linuxandroid 771 610
macosx12 22 22
win95 2 2
macosx11 47 47
ios_ipad 106 78
macosx8 2 2
winlong 10 10
win7 1050 644
Unknown 424 210
win2003 12 12
win10 1749 1049
win2000 1 1
ios_iphone 458 330
win8 46 35
winxp 32 32
linux 466 316
unix 1 1
win8.1 295 178
winnt 4 4
END_OS

# Browser ID - Hits - Pages
BEGIN_BROWSER 175
firefox58.0 2 2
chrome60.0.3112.90 1 1
opera38.0.2220.41 1 1
safari11.0.2 1 1
chrome45.0.2454.101 11 11
edge18 13 13
chrome20.0.1132.57 2 2
firefox55.0 2 2
chrome14.0.815.0 2 2
msie11.0 126 60
chrome52.0.2743.98 2 2
chrome49.0.2623.75 6 6
firefox66.0 18 18
msie6.0 28 28
firefox44.0 1 1
opera55.0.2994.44 2 2
chrome61.0.3163.98 4 4
chrome68.0.3440.91 17 13
firefox59.0 27 27
chrome70.0.3538.110 19 5
chrome66.0.3359.117 3 3
firefox61.0 28 28
edge17 84 82
firefox36.0 2 2
safari9.0 10 10
chrome75.0.3770.67 20 18
chrome72.0.3626.96 3 3
chrome67.0.3396.87 128 108
chrome69.0.3497.100 1 1
chrome68.0.3440.106 5 5
chrome53.0.2785.116 5 5
chrome74.0.3729.157 309 262
opera54.0.2952.54 3 3
chrome66.0.3359.170 6 5
edge15 1 1
chrome63.0.3239.84 2 2
chrome75.0.3770.90 83 81
chrome36.0.1985.143 2 1
chrome65.0.3325.109 4 4
firefox31.0 1 1
opera9.0 1 1
chrome35.0.1916.47 1 1
chrome68.0.3440.84 5 5
chrome38.0.2125.111 6 6
chrome75.0.3770.80 72 67
firefox15.0 53 53
chrome56.0.2924.87 18 9
chrome26.0.1410.63 1 1
firefox28.0 1 1
opera53.0.2907.99 5 5
chrome41.0.2228.0 12 3
chrome65.0.3325.146 3 3
safari12.1 49 43
firefox56.0 4 4
chrome72.0.3626.109 7 7
safari10.0 7 7
firefox68.0 4 4
mozilla 58 31
chrome34.0.1847.137 1 1
firefox63.0 17 8
firefox65.0 5 5
chrome47.0.2526.80 9 9
safari4.0.4 3 3
opera6.01 1 1
opera60.0.3255.151 2 2
chrome65.0.3325.181 399 260
chrome38.0.1025.166 76 42
chrome74.0.3729.169 1314 706
edge12 1 1
chrome75.0.3770.100 351 166
chrome61.0.3163.81 1 1
firefox40.1 5 5
chrome73.0.3683.103 7 7
safari12.3.1 9 5
firefox33.0 1 1
chrome71.0.3542.0 8 8
firefox21.0.0 1 1
chrome58.0.3029.110 5 5
chrome61.0.3163.128 5 5
chrome75.0.3770.89 28 27
firefox21.0 9 5
chrome72.0.3626.105 14 11
firefox47.0 17 17
chrome70.0.3538.77 10 10
chrome34.0.1847.116 8 8
chrome57.0.2987.133 5 5
android 3 3
chrome72.0.3626.121 9 9
chrome71.0.3578.98 6 6
chrome47.0.2526.83 1 1
safari12.1.1 254 155
firefox52.0 1 1
chrome59.0.3071.115 12 7
chrome70.0.3538.67 1 1
chrome51.0.2704.84 75 16
chrome30.0.1599.82 5 0
chrome71.0.3578.99 30 27
opera60.0.3255.109 4 3
chrome46.0.2490.71 11 1
msie5.0 1 1
chrome43.0.2376.69 1 1
chrome76.0.3809.21 4 4
chrome68.0.3432.3 6 5
opera54.0.2952.60 2 2
firefox64.0 16 14
chrome66.0.3359.139 5 4
safari5.1 2 2
chrome75.0.3770.101 32 18
safari5.0.4 1 1
edge16 11 10
firefox27.0 34 30
chrome77.0.3818.0 3 3
chrome70.0.3538.80 6 6
chrome76.0.3803.0 2 1
chrome49.0.2623.112 6 6
chrome67.0.3396.79 8 8
chrome59.0.3071.125 6 6
chrome63.0.3239.111 3 3
opera7.60 1 1
chrome73.0.3683.75 2 2
firefox57.0 12 8
chrome44.0.2403.89 1 1
chrome70.0.3538.102 13 6
safari12.0 43 35
safari11.0 89 88
chrome55.0.2883.91 1 1
msie7.0 17 4
safari12.0.3 2 2
firefox42.0 3 3
chrome68.0.3440.75 2 2
chrome74.0.3729.131 13 10
opera36.0.2130.32 3 3
netscape5.7 1 1
chrome74.0.3729.136 13 11
msie5.5 1 1
chrome66.0.3359.158 1 1
firefox48.0 4 4
msie9.0 10 10
chrome57.0.2987.132 6 6
firefox45.0 9 9
chrome67.0.3396.62 3 3
netscape4.79 1 1
firefox43.0 4 3
Unknown 107 106
chrome34.0.1847.131 2 2
safari 50 38
chrome63.0.3239.108 1 1
chrome55.0.2883.87 12 12
chrome61.0.3163.100 6 6
chrome66.0.3359.181 39 33
firefox27.3 1 1
chrome40.0.2214.85 6 6
chrome64.0.3282.137 8 3
msie8.0 30 26
firefox49.0 1 1
chrome43.0.2357.93 3 2
chrome71.0.3578.80 2 2
opera53.0.2907.106 2 2
netscape5.8 1 1
chrome73.0.3683.86 3 3
chrome73.0.3683.90 19 19
chrome67.0.3396.99 38 38
cloudflare 296 83
safari11.1.2 29 29
firefox67.0 414 185
firefox60.0 4 4
chrome60.0.3112.50 6 4
iphone 29 28
opera54.0.2952.64 6 6
chrome63.0.3239.132 27 27
safari6.0 1 1
msie10.0 6 6
chrome42.0.2311.90 9 9
chrome50.0.2661.102 43 43
chrome57.0.2987.108 5 5
END_BROWSER

# Screen size - Hits
BEGIN_SCREENSIZE 0
END_SCREENSIZE

# Unknown referer OS - Last visit date
BEGIN_UNKNOWNREFERER 28
ia_archiver 20190616053819
MixnodeCache/1.8(_https://cache.mixnode.com/) 20190623043317
python-requests/2.18.4 20190606030640
python-requests/2.21.0 20190628140933
Mozilla/5.0_(compatible;_CloudFlare-AlwaysOnline/1.0;__http://www.cloudflare.com/always-online)_AppleWebKit/534.34 20190628170911
SEMrushBot 20190627123325
Mozilla/5.0_(compatible;_NetcraftSurveyAgent/1.0;__info@netcraft.com) 20190606170440
axios/0.18.0 20190621063614
python-requests/2.9.1 20190601084407
Mozilla/5.0_(compatible;_ips-agent) 20190605075229
panscient.com 20190605163747
Mozilla/5.0_(compatible;_Yeti/1.1;__http://naver.me/spd) 20190629043236
Mozilla/5.8 20190619062516
Go-http-client/1.1 20190630155747
Mozilla/5.7 20190619030331
Mozilla/5.0_(compatible;_WbSrch/1.1__https://wbsrch.com) 20190611213943
Mozilla/5.0_(compatible;_Google-Site-Verification/1.0) 20190613025824
Mozilla/5.0_(compatible;_CloudFlare-AlwaysOnline/1.0;_http://www.cloudflare.com/always-online) 20190628170904
WhatsApp/2.19.60_i 20190615080117
Mozilla/5.0_(compatible;_Go-http-client/1.1;__centurybot9@gmail.com) 20190624110010
Mozilla/5.0_(compatible;_Qwantify/2.4w;__https://www.qwant.com/)/2.4w 20190628163731
Go-http-client/2.0 20190628080555
WhatsApp/2.19.150_A 20190616153359
python-requests/2.22.0 20190630053851
python-requests/2.18.1 20190629013700
Mozilla/5.0_(compatible;_Dataprovider.com) 20190624073928
Ruby 20190613232310
Scrapy/1.5.1_(_https://scrapy.org) 20190604205633
END_UNKNOWNREFERER

# Unknown referer Browser - Last visit date
BEGIN_UNKNOWNREFERERBROWSER 17
panscient.com 20190605163747
python-requests/2.9.1 20190601084407
axios/0.18.0 20190621063614
Go-http-client/2.0 20190628080555
SEMrushBot 20190627123325
Scrapy/1.5.1_(_https://scrapy.org) 20190604205633
Ruby 20190613232310
Go-http-client/1.1 20190630155747
python-requests/2.18.1 20190629013700
python-requests/2.22.0 20190630053851
WhatsApp/2.19.150_A 20190616153359
python-requests/2.21.0 20190628140933
python-requests/2.18.4 20190606030640
MixnodeCache/1.8(_https://cache.mixnode.com/) 20190623043317
ia_archiver 20190616053819
WhatsApp/2.19.60_i 20190615080117
python-requests/2.6.0_CPython/2.7.6_Linux/3.13.0-74-generic 20190606093506
END_UNKNOWNREFERERBROWSER

# Origin - Pages - Hits 
BEGIN_ORIGIN 6
From0 1182 1359
From1 9 9
From2 293 296
From3 114 179
From4 2107 3783
From5 0 0
END_ORIGIN

# Search engine referers ID - Pages - Hits
BEGIN_SEREFERRALS 11
www_google_es 2 2
www_google_ca 8 8
bing 28 28
www_google_de 1 1
www_google_it 1 1
google_com 1 1
www_google_co_uk 3 3
www_google_com 234 236
www_google_lk 14 14
yandexru 1 1
images_search_yahoo_com 0 1
END_SEREFERRALS

# External page referers - Pages - Hits
# The 25 first Pages must be first (order not required for others)
BEGIN_PAGEREFS 33
https://www.facebook.com 55 55
https://sucuri.net 11 76
http://lm.facebook.com/l.php 8 8
https://m.facebook.com 6 6
http://m.facebook.com 4 4
http://golden-praga.ru 2 2
https://lm.facebook.com 2 2
http://lankainformation.lk/directory-2/hotels/4-star/4566-the-firs-pvt-ltd/visit 1 1
https://ekb.dantk.ru/goryashie-tury/goryashie-tury-na-shri-lanku/ 1 1
https://foxjuegos.com 1 1
http://www.dorothea.top/articles/8776270/ 1 1
http://bright-flyer.com/index.php/campaigns/ec5542xevadb1/web-version/jy108ozrmm616 1 1
https://king.host 1 1
https://o-kozhe.ru 1 1
https://liky.co.ua 1 1
https://x-lime.com 1 1
http://mail.bankofceylon.local/mail/transport.nsf/0/AC1DD10A8EAB9E69CBF15DD1EEB1B6AE/ 1 1
https://vykupavto-krasnodar.ru 1 1
https://ukr.belreferatov.net 1 1
https://searchprivacy.co 1 1
https://torg.pro 1 1
http://bright-flyer.com/index.php/campaigns/ec5542xevadb1/web-version/lb9064kqpw3fd 1 1
http://dantk.kz/goryashie-tury/vse-vklyucheno/ 1 1
https://javxxx18.com 1 1
https://fastpics.org 1 1
https://sexpornotales.com 1 1
https://fotoxxxru.com 1 1
https://voloslove.ru 1 1
http://bright-flyer.com/index.php/campaigns/ec5542xevadb1/web-version/qj909hg9ghb27 1 1
https://filehost.pro 1 1
http://heatherbankhotel.co.uk 1 1
http://mail.engcl.com 1 1
http://gfaq.ru/publ/ 1 1
END_PAGEREFS

# Search keyphrases - Number of search
# The 10 first number of search must be first (order not required for others)
BEGIN_SEARCHWORDS 3
bing 27
firs+nuwaraeliya 1
semalt.com 1
END_SEARCHWORDS

# Search keywords - Number of search
# The 25 first number of search must be first (order not required for others)
BEGIN_KEYWORDS 4
bing 27
firs 1
semalt.com 1
nuwaraeliya 1
END_KEYWORDS

# Errors - Hits - Bandwidth
BEGIN_ERRORS 2
301 95 25650
302 4212 92416540
END_ERRORS

# URL with 404 errors - Hits - Last URL referrer
BEGIN_SIDER_404 0
END_SIDER_404

# Host - Pages - Hits - Bandwidth - Last visit date - [Start date of last visit] - [Last page of last visit]
# [Start date of last visit] and [Last page of last visit] are saved only if session is not finished
# The 25 first Hits must be first (order not required for others)
BEGIN_VISITOR 1325
2600:3c03::f03c:91ff:fe59:f51 150 214 11067174 20190625041716
174.127.135.130 54 54 1452559 20190618004516
124.43.18.187 44 106 6842910 20190612170825
142.93.69.229 29 29 780833 20190629072342
165.225.112.76 28 260 17772022 20190613121630
54.183.190.166 27 27 784337 20190616094640
142.116.104.190 26 28 780868 20190617090223
92.97.47.121 26 27 759192 20190617151535
203.115.28.11 24 24 646479 20190619081626
203.94.73.185 24 136 6552566 20190604172729
100.35.75.170 23 23 512959 20190605163747
220.247.248.74 23 23 554180 20190603132648
82.7.223.213 21 134 11012104 20190617171706
162.158.66.211 20 68 1906218 20190602062411
162.158.67.84 20 67 1848139 20190609112934
162.158.69.21 20 67 1973806 20190616193600
124.43.23.47 20 187 11427179 20190625144226
165.225.112.72 20 20 581375 20190613165117
112.134.160.221 19 66 3191918 20190616212136
112.134.209.50 19 19 534315 20190604102150
94.58.172.24 18 98 5251989 20190619082049
124.43.19.5 18 86 5922282 20190628145102
51.79.27.185 18 18 559141 20190607113401
165.227.122.204 15 15 409150 20190601072139
138.197.96.245 15 15 409150 20190622013449
117.81.14.100 1 1 31070 20190615082408
175.157.92.241 1 1 25275 20190604151013
2402:4000:2381:ec20:d1fc:2be2:f76f:7ae1 5 8 444878 20190604180234
185.206.224.206 2 2 77520 20190606105259
34.83.246.133 1 1 31059 20190624045725
175.157.34.199 2 2 56273 20190607092909
2402:4000:1180:96d5:55b4:2abf:58ba:f2b6 1 2 31337 20190620084719
64.233.172.211 3 3 93177 20190623001643
123.231.108.136 1 1 31059 20190609214349
2402:4000:10c5:583a:2:1:c73b:2328 1 1 31059 20190604173414
2604:a880:2:d0::b76:8001 3 3 93177 20190621225111
54.36.38.122 1 1 31059 20190615154242
34.213.88.118 1 1 31070 20190609083756
66.102.8.130 1 1 31059 20190615003319
111.118.140.253 1 1 31059 20190602084153
35.246.108.179 1 1 31059 20190606040751
175.157.11.237 1 1 31059 20190604202440
123.231.120.219 1 1 31059 20190607130423
112.134.2.152 1 1 31075 20190603225118
27.224.136.244 1 1 31075 20190618083641
123.231.121.149 2 2 68740 20190616081041
103.247.48.20 0 1 335091 
124.43.19.66 1 1 28571 20190626105049
35.167.236.145 1 1 31070 20190628140933
112.134.48.61 1 1 37681 20190606135733
175.157.77.43 1 1 25275 20190606002748
175.157.154.135 1 1 31059 20190622131657
64.90.48.191 1 1 31059 20190603153943
2402:4000:2380:c4ed:e967:fa14:ffa6:432b 1 1 31059 20190609114216
122.255.35.141 4 4 125090 20190618151531
175.157.147.110 4 5 127283 20190618192506
175.157.33.159 2 2 66252 20190605191326
185.249.2.70 4 4 124280 20190614104534
54.202.55.185 1 1 31070 20190616073855
112.135.235.38 6 7 230098 20190617090649
123.231.64.130 8 8 250164 20190627085244
54.162.102.36 2 2 62134 20190623043317
175.157.5.241 3 3 81609 20190607072858
112.134.80.250 3 3 87393 20190606083357
2402:4000:1180:8ade:3c2d:79ec:2372:1951 5 5 122870 20190610185721
101.2.191.196 5 5 127245 20190614174732
112.134.159.220 2 2 66305 20190604161451
38.130.165.23 1 1 31059 20190621032647
64.233.172.242 2 2 62118 20190606211240
112.134.1.201 3 3 93177 20190629125247
34.220.4.88 1 1 31070 20190618090007
123.231.124.243 1 1 37681 20190605103724
18.237.239.172 1 1 31070 20190606071709
185.206.224.252 5 6 157486 20190626015041
209.222.82.140 1 1 31059 20190604151322
82.132.221.181 2 2 56334 20190619170243
120.92.72.147 1 1 31059 20190614073321
195.181.160.73 2 2 38381 20190617022301
104.222.43.241 1 1 31055 20190615093126
34.216.246.31 1 1 31055 20190626192656
34.220.40.173 1 1 31075 20190604152240
162.158.67.89 0 1 2136 
2402:4000:11c3:a22:6cc6:df4c:1744:4fe7 9 11 283472 20190623220741
43.250.240.121 1 1 25275 20190612072524
123.231.105.157 3 3 93177 20190614163024
202.134.173.94 3 5 123578 20190619153940
112.134.211.59 3 3 90705 20190624092806
109.228.61.86 2 2 68724 20190601084407
2402:4000:2080:2af8:bdbe:1871:9d1d:3e9b 5 6 239036 20190601214210
112.135.224.199 1 1 31059 20190626130728
175.157.9.23 1 1 31059 20190603064001
104.222.33.63 1 1 31055 20190614171736
64.233.173.5 11 11 341649 20190628213516
116.206.244.98 1 2 31931 20190627132203
175.157.24.217 2 12 261846 20190604085150
185.145.67.183 1 1 31055 20190620092246
112.134.106.169 1 1 31059 20190625203052
220.175.61.249 1 1 31075 20190616065554
123.231.120.104 1 1 25214 20190604085434
5.135.230.129 1 1 31055 20190619062516
2400:cb00:36:1033::a29e:4490 1 1 31075 20190624014148
123.231.86.140 1 1 31075 20190607163159
112.134.168.209 2 2 66252 20190624002333
116.203.39.80 2 2 62110 20190609232803
34.204.79.106 1 1 31059 20190611112358
112.134.0.51 5 5 144520 20190624221503
112.134.37.74 1 1 24024 20190619211905
123.231.115.253 11 11 319593 20190617125715
112.135.243.3 11 11 298351 20190627145131
112.135.192.58 5 5 152855 20190617150952
111.223.156.201 1 1 28571 20190614110925
62.210.80.77 1 1 31055 20190613021313
112.5.248.229 2 2 62130 20190617033513
124.43.13.25 2 2 53785 20190605164140
2402:4000:2083:a73:a45e:7c18:14:f90a 1 1 28571 20190606141650
83.48.20.114 4 4 119260 20190622160821
54.200.225.58 1 1 31070 20190614070447
112.134.210.153 1 1 31059 20190604193006
123.231.112.27 2 2 53785 20190612162515
202.124.179.76 5 5 150319 20190618151821
175.157.157.18 1 1 31059 20190622193528
54.153.75.218 1 1 31055 20190606093506
66.249.83.75 1 1 31059 20190623062114
124.43.19.116 4 4 115919 20190608130503
112.134.148.190 1 1 31059 20190604101107
112.134.144.187 2 2 56350 20190619093937
104.168.35.233 1 1 31059 20190619114248
178.137.95.201 1 1 31059 20190607015841
86.136.188.218 4 5 115833 20190615004040
104.222.33.235 1 1 31055 20190626212211
43.228.111.123 1 1 31059 20190627140755
112.134.4.171 1 1 31059 20190604160311
43.250.242.49 7 7 184648 20190609095943
217.165.62.60 3 3 87362 20190602163618
112.134.67.23 1 1 31059 20190604205201
2400:cb00:36:1033::a29e:4485 1 1 31070 20190628170904
54.187.204.8 1 1 31070 20190620181411
37.212.76.109 1 1 31059 20190604232331
104.222.33.208 1 1 31055 20190612132746
112.135.3.203 2 2 68756 20190619235607
112.134.144.219 4 4 138874 20190618165541
66.249.88.82 0 1 3007 
74.217.90.250 5 6 158776 20190612123839
124.43.16.59 6 6 147957 20190625154149
113.59.214.90 1 1 25275 20190615154549
112.134.100.177 2 2 59646 20190610001626
192.126.212.225 4 4 124280 20190611200807
77.68.40.47 1 1 31059 20190610084809
169.252.4.22 1 1 31059 20190619141048
89.211.21.226 10 10 291944 20190603114948
112.134.232.34 5 5 182496 20190601112246
112.134.224.4 6 6 166085 20190604145353
192.248.104.27 6 6 192579 20190606144656
124.43.87.220 3 3 93177 20190612084513
66.249.83.82 1 1 31059 20190621202238
121.238.254.109 1 1 31070 20190622053644
43.250.240.232 1 1 25214 20190616193138
104.222.43.187 1 1 31055 20190604133238
175.157.159.235 6 15 386011 20190630171624
173.205.33.20 1 1 31059 20190615120921
199.249.230.27 2 2 62110 20190625123839
43.250.243.57 1 1 31059 20190626184215
97.122.232.141 1 1 31055 20190620153237
70.42.131.106 1 1 31059 20190625140501
103.240.136.10 1 1 31059 20190617115240
54.70.53.60 1 1 31059 20190621182956
69.58.178.59 2 2 49267 20190605075229
113.59.203.227 12 13 69927 20190619230146
111.223.153.6 7 7 206802 20190604175349
2402:4000:2181:e65a:2964:e73d:2e75:718b 1 1 25275 20190617163803
83.169.21.220 2 2 62125 20190629013700
178.62.82.141 3 3 92164 20190630002045
171.12.10.158 1 1 31075 20190613154843
34.212.125.195 1 1 31055 20190625191722
112.135.237.94 1 1 31059 20190624135355
112.134.68.231 1 1 31059 20190605172031
112.134.87.101 4 6 151435 20190624151109
77.67.54.58 2 2 62118 20190614081331
112.134.209.30 8 8 219344 20190604104522
2402:4000:2082:f23d:6c9e:50:d167:b38c 1 1 31059 20190605153018
209.222.82.155 2 2 62118 20190604160542
104.222.33.153 0 1 14977 
34.205.68.37 3 3 77256 20190614041704
124.43.16.61 10 11 322259 20190614130337
175.157.37.75 8 9 238306 20190617093446
34.219.129.150 1 1 31070 20190604103503
2001:4ca0:108:42::5 4 4 124280 20190628144245
31.13.190.248 3 3 109366 20190604202521
203.189.71.61 3 3 99799 20190604172606
64.233.172.220 3 3 93177 20190625213615
209.222.82.134 1 1 31059 20190604144249
2402:4000:1181:446d:d9e4:34fe:e13d:3073 3 3 13570 20190625140738
116.206.247.74 1 1 31075 20190612152717
2402:4000:1380:5b1a:2859:3812:98d8:3a46 2 2 68740 20190609160628
112.134.4.68 1 1 28571 20190604214435
175.157.39.9 2 3 28622 20190615053348
51.38.162.236 1 1 31070 20190619030331
2402:4000:2382:b07:4976:1084:fc7b:1219 5 5 100467 20190608151513
112.134.226.113 2 2 62118 20190609003838
112.135.12.210 1 1 25214 20190609215745
104.222.43.176 1 1 31055 20190614035839
66.102.8.149 1 1 31059 20190612142559
66.249.83.203 5 5 155295 20190629090441
138.197.64.38 14 14 374887 20190622000034
43.250.241.52 1 1 31059 20190616143100
116.206.246.187 8 8 225731 20190613105427
112.134.97.79 1 1 31059 20190618102705
2402:4000:11c4:42fd:3163:599c:d8ff:7b25 4 4 113476 20190611185010
89.28.163.38 2 2 38381 20190628141359
175.157.40.102 1 1 31059 20190625215040
3.92.49.199 1 1 31070 20190620041723
112.134.194.169 4 4 122539 20190612105053
162.158.67.72 0 1 2136 
66.102.8.147 1 1 31059 20190618195348
185.17.149.147 2 2 38381 20190616020945
192.243.53.51 1 1 31055 20190627123325
111.223.143.240 1 1 31059 20190605223938
43.250.243.73 1 1 31059 20190623083659
64.233.172.202 2 2 55099 20190603121049
2402:4000:1181:41b0:dde6:7ce4:7625:4ccd 3 3 90705 20190623125852
46.101.9.216 4 4 122635 20190630102213
112.134.194.211 3 3 88170 20190626002343
88.201.64.182 1 1 31075 20190610145535
193.202.91.11 4 4 128386 20190626013603
23.226.211.50 1 1 31055 20190614205633
112.134.130.233 1 1 28571 20190623101343
112.66.99.161 1 1 31075 20190626153408
165.228.199.31 2 2 68756 20190619070840
124.43.76.245 3 3 68263 20190604160546
51.158.121.89 1 1 31070 20190610091725
112.134.39.77 1 1 31059 20190605092351
151.55.8.201 2 2 62133 20190605144227
175.157.53.255 1 1 24024 20190613134455
2402:4000:1381:5d4c:7ddd:e71a:f6fb:8fad 1 1 31059 20190611164615
216.183.209.82 4 16 330969 20190614025123
106.201.66.83 2 2 76756 20190612194722
66.102.6.218 1 5 158377 20190613135648
2400:cb00:36:1039::a29e:4714 0 1 3316 
34.213.118.49 1 1 31055 20190623194217
175.157.42.240 3 3 87332 20190604185750
207.244.71.27 1 1 31059 20190626161750
178.128.225.216 1 1 31074 20190625192109
54.70.173.156 1 1 31070 20190612085147
112.134.159.191 1 1 31059 20190604161924
54.189.205.108 1 1 31070 20190628104558
2a02:2788:7d4:21b7:55f7:233:3338:ea40 0 1 157295 
175.157.186.145 3 3 59975 20190618081942
52.12.166.51 1 1 31074 20190604133807
23.226.211.197 1 1 31055 20190617124413
120.92.72.88 2 2 53119 20190614080029
165.227.99.221 1 1 31070 20190606164631
123.160.174.188 1 1 31075 20190607215833
103.84.160.66 10 10 286442 20190607181728
77.67.54.50 1 1 31059 20190612153951
51.68.152.26 1 1 31070 20190605201458
82.17.27.129 1 1 31059 20190608005508
176.205.133.65 5 5 160283 20190612002640
2402:d000:a000:c621:1df6:2031:4e6f:ee26 5 5 107107 20190625153804
106.47.42.180 1 1 31075 20190624084247
142.93.75.156 13 28 1086936 20190605064233
193.106.30.98 2 2 62110 20190629112917
209.222.82.152 3 3 93177 20190612193319
112.134.210.64 1 1 25214 20190604164126
123.231.93.106 4 4 130858 20190621121933
35.227.154.147 1 1 31059 20190603045645
175.157.37.102 1 1 25275 20190609214554
138.197.73.64 1 1 31059 20190602083230
66.102.8.229 0 1 92091 
209.222.82.143 2 2 62118 20190604145418
223.190.79.229 1 1 38373 20190617171303
203.81.96.5 1 1 31059 20190618220358
182.161.26.108 2 2 56273 20190617125717
38.130.171.51 1 1 31059 20190621021338
175.157.251.72 10 10 280661 20190626170551
2402:4000:2180:33a8:3cbe:5e4e:de74:a5ec 1 1 31059 20190620202206
199.40.204.245 9 11 263455 20190607140222
203.94.75.43 5 7 417260 20190621090424
54.188.116.55 1 1 31055 20190624175354
61.245.169.124 6 6 169657 20190613114455
112.134.37.3 3 3 84905 20190618183451
51.83.76.186 1 1 31075 20190601052037
2402:4000:1080:9293:417d:65e0:a003:da25 1 1 31059 20190607124357
2402:4000:10c2:ff77:75b6:cc7e:75e8:33b6 1 1 31059 20190606090324
220.247.200.246 1 1 31059 20190621131119
104.222.43.18 1 1 31055 20190613210621
116.252.0.116 1 1 31075 20190617231512
140.82.28.187 2 2 62110 20190624005430
175.157.58.210 1 1 31059 20190612232734
112.134.139.77 2 2 62118 20190607162610
112.134.67.34 1 1 31075 20190605083038
123.231.124.71 1 1 25214 20190609144658
37.115.186.149 1 1 31070 20190618020645
171.36.141.239 1 1 31075 20190614152702
162.158.68.74 0 1 2136 
42.236.10.108 1 1 31070 20190617091953
209.222.82.149 3 3 93177 20190604160546
112.134.195.253 1 1 31059 20190621075610
2402:d000:a000:ddaf:4cba:fa8b:ce77:34bf 5 5 143314 20190604230134
104.222.33.110 1 1 31055 20190616041657
175.157.34.108 3 3 93177 20190619145010
162.158.68.4 0 1 2136 
220.247.241.225 5 5 163407 20190618170606
112.135.196.135 5 5 143267 20190613104030
64.233.172.205 2 3 71503 20190604161815
122.255.14.20 7 7 181138 20190604152233
77.67.54.63 1 1 31059 20190615012731
138.246.253.5 2 2 62140 20190626214354
175.157.135.182 3 4 111685 20190626132203
120.92.72.144 0 1 5267 
162.158.71.20 0 1 2136 
2a03:2880:30ff:16::face:b00c 0 1 2136 
2400:cb00:36:1003::a29e:4055 0 1 20219 
2402:4000:1080:cef3:14d5:341:eef6:697c 1 1 31059 20190608122942
2402:4000:2181:47b3:9558:1c4a:7f:212f 2 2 59630 20190623095505
2400:cb00:36:1004::a29e:4073 1 2 51289 20190614061329
2402:4000:1180:2c5a:91e5:1201:5f23:77c2 1 1 31059 20190612170759
2400:cb00:36:1047::a29e:42d3 1 1 31075 20190602062328
51.77.52.160 1 1 31070 20190618192453
112.134.68.15 1 1 31059 20190604125055
220.247.234.68 6 6 160577 20190604145702
159.203.108.239 13 28 1087131 20190605073302
2402:4000:2381:61b:359c:89bd:d0d6:c334 1 1 31059 20190614092736
23.239.180.118 1 1 31055 20190613001439
42.236.10.123 1 1 31059 20190601052108
112.134.226.174 1 1 31059 20190605113302
46.246.65.135 3 3 119181 20190625051955
2402:4000:1381:1560:1d5b:dfef:5fc:632d 2 2 56273 20190625152805
112.134.101.109 3 3 93954 20190606052304
175.157.224.171 1 1 31059 20190611070911
4.53.111.70 1 1 31059 20190613165829
62.210.202.81 1 14 739888 20190601194403
2402:4000:2083:41e0:141:cce2:a66d:8f64 1 1 31059 20190610012944
120.92.72.72 0 1 5267 
123.231.94.134 1 1 31059 20190606125411
104.222.43.106 1 1 31055 20190616003507
66.96.214.58 1 1 31070 20190621103056
118.127.15.83 1 1 31055 20190604213125
112.134.87.90 4 4 122541 20190619100312
2400:cb00:36:1004::a29e:406f 1 1 31074 20190614061329
3.83.21.31 1 1 31070 20190621063614
66.102.8.236 0 1 26540 
178.137.163.198 4 4 124236 20190613210041
120.92.72.108 0 1 29113 
175.157.46.52 1 1 31059 20190604185334
175.157.47.203 6 6 165993 20190609213924
162.246.19.205 2 2 62140 20190628204038
175.157.32.151 1 1 31059 20190613223701
35.176.92.103 2 2 62118 20190604144456
112.135.240.160 11 11 350451 20190617164352
123.176.25.154 1 6 38209 20190605051932
175.157.15.155 5 5 110464 20190605075906
37.210.44.219 1 1 31059 20190606172441
2402:4000:2381:de97:8cc3:e88b:bfe3:de77 1 1 31059 20190604133556
112.134.4.148 1 1 38378 20190618150814
104.222.43.71 1 1 31055 20190601082518
2402:4000:1080:6a7:35e7:5411:52dd:44b8 1 2 57684 20190607075707
34.208.242.236 1 1 31055 20190630155747
54.173.35.129 9 9 137568 20190616053819
91.242.162.6 1 1 31070 20190628160748
176.31.182.143 1 1 31059 20190626122742
120.92.88.152 1 1 31075 20190627040152
2402:4000:2081:2ce8:de4:6a50:8c2:c077 1 1 31059 20190628122604
116.12.84.137 4 4 129905 20190625201801
173.44.42.75 1 1 31059 20190619233043
34.212.172.22 1 1 31070 20190623080929
104.236.102.83 1 1 31074 20190611015003
23.239.180.105 0 1 3481 
112.134.209.77 3 3 90822 20190617171302
175.157.61.203 1 1 37681 20190620225114
54.200.186.190 1 1 31070 20190630091139
42.236.10.83 1 1 31070 20190609205525
23.226.211.92 1 1 31055 20190615185501
203.153.220.26 1 2 34540 20190603104921
94.58.186.157 6 6 138072 20190602144451
217.138.6.110 1 1 28571 20190625153925
23.226.211.63 1 1 31055 20190616143349
52.43.200.211 1 1 31070 20190605140201
175.157.195.175 5 5 140810 20190620221614
37.211.18.218 4 6 146713 20190615190140
101.2.191.98 1 1 31059 20190608014015
123.231.104.195 1 1 31059 20190620122524
43.250.243.142 2 2 52687 20190618161232
220.247.246.163 3 3 93209 20190620144508
124.43.12.117 2 2 68756 20190603175042
144.217.73.132 3 3 64623 20190624073928
203.94.71.66 6 6 178936 20190604164937
18.236.190.192 1 1 31070 20190626071845
221.232.21.201 1 1 31075 20190614055117
216.151.3.108 1 1 31070 20190611213943
112.135.5.11 3 3 100496 20190625203320
112.134.208.245 0 1 20219 
112.134.168.122 4 4 106701 20190609201108
46.166.143.123 2 2 38381 20190615131243
64.233.172.244 1 1 31059 20190603121050
4.53.111.79 1 1 31059 20190616071012
112.135.8.205 8 8 208792 20190616185757
112.135.244.97 1 1 31059 20190626154425
94.142.200.164 1 1 37681 20190604225919
54.191.12.157 1 1 31055 20190612151908
112.135.246.170 2 2 59630 20190626142358
2402:4000:1380:c0cd:e872:e44c:4566:c7e8 1 6 201335 20190610132004
34.220.230.32 1 1 31055 20190610154442
123.231.50.2 3 3 75764 20190612184000
104.192.74.228 1 5 86533 20190627064826
123.231.14.120 1 1 25214 20190606140326
23.27.144.7 1 1 31059 20190620223215
119.235.0.196 2 2 62118 20190612093548
159.203.163.209 1 1 31059 20190606160823
83.47.134.132 1 1 31059 20190622012623
66.249.83.74 2 2 62118 20190627190339
2402:4000:1080:b6a4:b4eb:6d7e:636:ca23 1 1 31059 20190605201149
2400:cb00:36:1032::a29e:444a 1 2 34390 20190628170847
202.124.181.59 1 1 31059 20190610165405
8.28.16.254 1 1 31075 20190606114234
43.250.240.22 1 1 37681 20190604214317
112.135.5.70 7 7 217345 20190616221117
173.193.191.202 1 1 31070 20190604231921
2402:4000:2381:2430:bd56:688d:2a3c:686c 1 1 31059 20190613152050
42.236.10.121 1 1 31070 20190614213953
112.134.71.155 1 1 31059 20190623192930
23.27.155.181 1 1 31059 20190620051526
112.134.67.158 6 6 171838 20190607170441
112.134.87.207 1 1 25214 20190625215611
37.17.172.132 1 1 31055 20190610071601
2402:4000:13c0:cf9d:1:0:62c0:e76e 1 1 31059 20190602211336
23.27.155.213 1 1 31059 20190621194637
113.128.105.127 1 1 31075 20190617091959
185.230.127.125 3 3 109632 20190609034525
61.245.161.120 1 2 45433 20190606172719
145.239.227.218 1 1 31059 20190613182120
113.59.217.63 2 2 53785 20190629102323
2604:2000:15c1:1f:3929:e15f:64db:6f90 10 119 6921920 20190613030524
124.43.28.195 2 2 62118 20190617150033
37.214.204.47 1 1 31059 20190621164011
14.140.56.121 1 1 31075 20190603131732
112.134.156.191 1 1 31059 20190601162243
144.172.68.232 1 1 31059 20190619155723
2402:4000:1380:8c42:b96b:1f8d:a676:e9ef 2 2 62118 20190604203826
64.233.173.16 11 11 341649 20190625114007
203.189.68.212 1 1 31059 20190621112703
2.138.157.254 1 1 31059 20190606215759
52.34.246.183 1 1 31055 20190625184042
2a00:23c4:658e:8200:9179:f6a3:45cd:b88b 2 2 59630 20190625022538
175.157.5.7 4 4 116694 20190606084406
62.210.111.29 1 1 38373 20190604163157
192.248.84.13 3 3 91527 20190621171446
18.144.21.210 1 1 31070 20190605213420
1.152.109.183 1 1 31059 20190604163124
2402:d000:a000:9e8b:49e0:51fc:2eb:ac26 1 1 28571 20190618201214
2402:4000:2381:693c:c1e0:f6df:e472:fe04 1 3 39167 20190620201303
43.250.241.68 7 7 200838 20190626102902
2a03:2880:21ff:1f::face:b00c 0 4 73293 
66.249.83.201 2 2 62118 20190609064809
2402:4000:1080:a3cd:2172:3929:9bf5:d38a 1 1 37681 20190603141039
2401:dd00:10:20:3809:e9ca:2c73:f2cb 2 5 315845 20190606201753
124.43.11.56 5 5 157026 20190627143440
61.245.169.218 1 1 37681 20190620212349
122.255.29.26 4 4 128386 20190617103751
176.201.139.97 1 1 31059 20190612002114
112.134.160.151 3 3 69782 20190618193113
66.102.6.223 0 4 529315 
43.250.240.54 2 2 68740 20190602201133
43.250.240.185 3 3 81548 20190605142346
23.239.180.92 0 1 3481 
203.115.12.114 6 6 186354 20190624083906
112.134.97.94 1 1 31075 20190610103653
202.47.33.217 6 7 196606 20190618230303
38.130.168.124 1 1 31059 20190620062425
2402:d000:a000:ddaf:d065:9fbb:b23f:bf86 2 2 53846 20190604225919
112.134.208.129 3 3 88109 20190604145421
144.76.67.110 1 1 31055 20190622000028
106.45.1.199 1 1 31075 20190621171429
112.134.16.132 3 3 62398 20190614163059
54.200.53.66 1 1 31055 20190615133907
192.99.66.39 1 1 31070 20190603151013
203.115.31.229 2 2 68756 20190606130735
2402:4000:2380:929c:6011:2206:5f60:26ce 2 2 56350 20190604215742
23.226.211.10 1 1 31055 20190628163612
63.33.233.231 1 1 31070 20190606132011
43.250.241.125 2 2 50489 20190603063926
112.134.84.14 1 1 31059 20190607190140
2402:4000:13c3:94d0:1:0:d235:3add 4 16 301202 20190624150300
43.250.241.149 2 15 552189 20190605012222
66.249.83.206 0 2 11195 
43.250.243.214 3 4 107233 20190605195829
104.222.33.243 0 1 3481 
112.134.157.15 1 1 31059 20190605105116
175.157.40.209 1 1 31059 20190606230727
175.157.39.187 4 4 46978 20190603101517
43.250.240.73 4 9 153574 20190630133054
107.173.171.203 2 2 62110 20190621122344
45.55.237.183 13 24 953616 20190615200030
2402:4000:1380:1102:b077:5c56:5c4d:e5b0 1 1 31059 20190613111237
185.139.70.111 1 1 31059 20190627133138
66.102.6.221 0 4 32793 
23.239.180.224 1 1 31055 20190619010317
23.27.144.199 1 1 31059 20190619133133
2402:4000:1080:1b7f:bcfe:47d:f06a:24de 1 3 525247 20190628144245
101.2.182.97 6 6 173332 20190604190613
112.135.229.55 2 2 59646 20190625155827
45.79.176.87 1 1 31059 20190622101456
162.158.64.115 0 1 2136 
54.184.161.210 1 1 31070 20190623111557
123.231.127.13 1 1 31059 20190601210800
175.157.63.213 2 2 50428 20190613230058
176.167.240.185 1 3 33488 20190629122326
65.155.30.101 1 2 126992 20190615140128
192.248.40.9 2 2 59630 20190624153306
103.21.167.28 4 4 81024 20190612110936
112.134.195.207 3 3 81548 20190609164346
124.235.138.189 1 1 31075 20190614094133
2402:4000:13c1:427f:5ef:9a80:9b75:e45e 1 1 31059 20190605204503
222.165.187.3 1 2 33191 20190612183855
119.235.7.122 3 3 88184 20190606130951
175.157.35.146 1 1 28571 20190616183513
112.134.83.86 1 1 25214 20190613085603
124.43.19.31 7 7 183473 20190610135451
220.247.252.27 3 3 99815 20190618144043
138.197.67.250 1 1 31055 20190603125240
2a01:e0a:26:61d0:e5ca:eac0:745f:febb 4 6 285518 20190624174618
2402:4000:2182:820d:94:bc46:8d32:887a 3 3 93954 20190619044938
4.53.111.74 1 1 31059 20190614032903
175.157.79.149 6 7 177098 20190630104421
220.247.252.237 3 3 93177 20190618150226
114.115.190.4 1 1 31074 20190606051512
70.31.77.120 6 7 198760 20190616222833
61.245.171.6 2 3 91983 20190614114901
175.157.44.5 5 5 153929 20190613155047
111.224.220.115 1 1 31075 20190617155035
2402:4000:2080:10a8:9903:5096:cc20:1c9b 5 6 141249 20190607223656
122.169.3.245 1 1 31059 20190622165421
112.134.210.210 8 8 230883 20190609132317
2402:4000:2381:1b5d:ecd6:2bed:abcd:d77d 3 4 83472 20190616094552
43.250.243.37 2 2 53785 20190610193514
159.65.32.163 1 1 31074 20190615205230
138.197.64.72 14 14 374887 20190607184826
202.129.235.248 11 21 508954 20190627161849
112.134.38.144 1 1 31059 20190603080057
1.27.51.55 1 1 31075 20190621034835
112.135.12.103 2 2 66252 20190618201419
220.247.244.218 2 2 56273 20190612134351
104.236.127.161 13 29 1179222 20190610135035
175.157.41.77 1 1 31059 20190612161320
18.237.207.24 1 1 31070 20190624075830
38.130.162.158 1 1 31059 20190620103243
46.166.143.121 2 2 77837 20190613160449
111.223.161.232 1 1 31059 20190604184255
2a00:23c6:4f8a:4401:c38:157a:64b3:130a 11 15 495524 20190630235956
124.43.18.246 5 5 145095 20190607125245
112.134.210.121 2 2 68756 20190608084143
18.207.245.182 1 1 31070 20190602144031
66.102.6.193 0 2 10636 
2402:4000:2082:dd09:570:d17d:21e5:b9a3 2 4 91728 20190608155100
66.215.165.59 2 2 56273 20190605101859
2402:4000:1380:817:4db2:10db:5e85:5208 5 7 336037 20190605115810
54.218.237.29 1 1 31070 20190602080854
94.130.131.80 1 1 31055 20190602064530
112.134.39.238 2 2 49601 20190611153605
175.157.163.12 2 2 12268 20190625144238
2402:4000:1380:58aa:645f:7a64:b280:38f2 3 9 553933 20190625150624
112.66.103.113 1 1 31075 20190618051604
2402:4000:1380:665c:95e8:df0:7c41:2920 1 1 31059 20190617204612
2402:4000:1381:47ec:4c9f:bd7:49ed:5dff 0 4 80206 
66.102.6.214 0 4 40841 
2402:4000:1080:1b7f:1d7f:f474:c6f9:778b 1 1 31059 20190628210613
123.231.124.180 2 2 59646 20190604174424
91.60.97.130 5 5 159032 20190621122645
54.215.224.157 1 2 36322 20190616094619
222.165.139.190 5 5 134159 20190613085228
27.114.165.166 1 1 31059 20190616013518
2400:cb00:36:1028::a29e:4348 2 2 62144 20190606234346
220.247.240.1 1 1 31059 20190605093139
40.107.226.1 1 1 31059 20190614193537
180.163.220.100 1 1 31059 20190601041704
112.134.135.184 4 4 124252 20190604150756
34.212.45.189 1 1 31070 20190625072404
112.134.37.98 1 1 25214 20190603221441
42.236.10.77 2 2 62129 20190605212122
167.114.42.120 1 1 38378 20190618220735
62.210.83.78 6 6 186390 20190623181847
77.67.54.61 1 1 31059 20190615000033
2a03:2880:21ff:26::face:b00c 1 2 33206 20190614141926
47.99.151.165 1 7 204023 20190601135731
2400:cb00:36:1004::a29e:4074 0 1 23936 
2a03:2880:21ff:1e::face:b00c 0 1 465075 
112.134.160.88 2 2 59630 20190614094620
203.94.70.242 15 15 388417 20190626134158
42.236.10.79 1 1 31059 20190609195828
222.94.195.158 1 1 31075 20190628090231
112.134.7.74 3 3 81503 20190611185710
124.43.26.212 6 6 172192 20190604160432
2400:cb00:36:1048::a29e:412c 0 2 97780 
220.247.247.131 7 7 217222 20190612154235
66.249.83.202 0 1 1847 
23.226.211.159 1 1 31055 20190615000036
46.118.155.82 2 2 62118 20190627204209
123.231.24.47 1 1 31059 20190604152732
112.135.249.87 2 2 59646 20190625150911
139.180.227.28 4 5 126356 20190629092800
2402:d000:a000:1b1a:cd6d:cae7:525d:1f99 4 4 119168 20190602220314
175.157.55.34 1 1 25275 20190617120158
54.153.84.41 1 1 31075 20190614011111
185.189.115.27 2 2 38381 20190608114555
138.197.64.75 15 15 409150 20190614144422
120.92.102.182 4 4 124300 20190612065535
2402:4000:1180:5db7:91d4:f88d:6cad:fbc2 1 1 31059 20190615180048
61.157.96.16 1 1 31075 20190610042718
64.233.173.15 12 12 372708 20190626170408
2402:4000:1080:df01:89e1:a6a7:138a:2fe9 1 1 31059 20190604143146
134.209.33.17 1 1 31075 20190606170036
165.227.180.237 1 1 31074 20190615094833
52.34.76.65 1 1 31059 20190604153606
217.182.175.162 1 1 31059 20190613024704
108.178.61.58 2 2 62125 20190601162223
192.248.73.5 6 6 188046 20190614094907
46.185.118.250 1 1 38378 20190628192948
175.157.45.37 2 2 69437 20190612180816
112.134.154.228 3 3 81548 20190605160053
2406:3003:206f:1b6b:a122:bb93:5a71:7241 8 8 234841 20190617221806
52.26.183.148 1 1 31070 20190620071444
2600:1f14:b62:9e03:b744:1646:bac1:db65 1 1 31059 20190616125436
205.251.233.51 1 1 31059 20190608234132
2402:4000:1181:2b24:546b:d677:e54f:8428 2 2 56334 20190622043949
175.157.228.71 1 1 38378 20190626123715
80.84.57.118 1 1 31059 20190626064725
205.251.233.176 1 1 31059 20190619032228
43.250.243.9 1 1 31059 20190618190706
61.245.169.230 6 6 185436 20190615072455
175.157.198.143 3 3 94031 20190616203837
123.231.107.246 2 3 67064 20190612152214
54.200.28.247 1 1 31070 20190628080555
113.128.105.75 1 1 31075 20190605212128
2402:4000:1181:a625:5521:e49b:def8:fafd 1 1 37681 20190613121155
8.37.235.71 1 1 31059 20190606213635
203.81.102.54 4 4 128386 20190611171248
64.233.173.3 6 6 186354 20190626101348
123.231.108.66 1 1 25275 20190625143102
220.247.234.42 9 9 279655 20190621180058
38.130.169.65 1 1 31059 20190621042059
185.206.224.199 1 1 3 20190616072126
54.188.94.230 1 1 31070 20190623073358
113.59.203.105 1 1 31059 20190619222523
54.185.227.219 1 1 31070 20190618102655
123.231.110.125 1 1 31059 20190618201719
36.5.181.61 1 1 31075 20190623024925
43.250.243.150 1 1 31059 20190605095650
175.157.173.23 2 2 12268 20190615220159
2400:cb00:36:1028::a29e:4354 1 1 31075 20190609112851
112.134.71.233 2 2 68756 20190619090552
43.250.242.163 1 1 28571 20190618110312
66.249.83.205 3 3 93177 20190629132346
2402:4000:1180:76d1:b57e:e8b0:377b:e6b1 4 4 125710 20190620214648
191.101.95.12 1 1 31070 20190614003650
80.211.189.228 12 12 372840 20190607154646
2402:4000:1380:14cd:6d53:f8:9666:c06e 1 1 31059 20190604133740
104.222.43.72 1 1 31055 20190616183724
175.157.42.248 5 5 88093 20190614080639
196.75.137.84 1 1 31075 20190626081235
2402:4000:2082:162c:15fb:b04e:ff5f:c77 2 2 59630 20190605182658
175.157.185.110 1 1 25214 20190618134413
43.250.240.118 1 1 37681 20190626185449
89.45.10.67 13 13 383632 20190617153456
175.157.35.139 1 1 25275 20190604164045
43.250.240.197 2 2 56334 20190604201619
61.245.169.90 1 1 37681 20190608084911
2804:10:4068::203:143 1 1 31059 20190618210756
64.233.173.1 12 12 372708 20190628053041
3.219.215.119 1 1 37676 20190622041742
195.3.144.210 1 1 31070 20190604205633
34.229.157.237 1 1 31059 20190616140751
182.138.163.31 1 1 31075 20190623135035
37.186.39.136 4 4 109021 20190627040930
192.99.175.120 1 1 31070 20190607231850
178.137.93.124 5 5 155350 20190612190044
206.206.108.19 1 1 31059 20190619054516
64.233.172.222 2 2 62118 20190625090805
2402:d000:a000:ddaf:3d03:85e4:a284:869e 1 1 37681 20190604225627
4.53.111.68 1 1 31059 20190616000616
112.134.68.30 3 3 86933 20190605143540
61.245.161.52 2 2 62118 20190615124210
23.226.211.199 1 1 31055 20190628183835
52.38.147.13 1 1 31070 20190613064233
62.28.38.225 1 1 31059 20190628002707
2402:4000:1380:5c2a:1:0:8259:dc78 1 1 31075 20190610164854
112.134.69.179 1 1 31059 20190607100058
104.171.113.214 1 1 31070 20190627192046
2402:4000:11c1:23c2:8086:190:8bc1:82f 2 2 62134 20190606125819
66.249.83.72 1 1 31059 20190625195146
185.189.113.39 2 2 38381 20190616072110
2402:4000:1381:232c:2dad:224d:3c23:c32a 2 15 765449 20190626090715
112.134.37.172 1 1 24024 20190620032611
220.247.205.124 1 1 31059 20190625160123
112.134.232.29 1 1 31059 20190605161901
31.130.203.87 3 3 69456 20190625023109
175.157.58.50 1 1 31059 20190608144340
175.157.56.200 2 11 259869 20190628115708
123.231.90.4 3 3 91527 20190606135743
23.96.118.90 2 2 62110 20190605021840
54.183.149.148 1 1 31055 20190620223634
124.43.17.241 5 5 130877 20190606094153
66.249.83.217 0 2 106053 
2402:4000:1180:ecdb:505f:f67a:f58f:2645 3 20 1429304 20190624175335
220.247.242.222 3 3 93193 20190625171246
54.71.187.124 2 11 730908 20190622004138
2402:d000:a000:7855:514b:6f2f:88b6:422f 1 1 31059 20190625144551
93.44.111.118 1 1 31059 20190619221519
162.158.65.103 0 1 2136 
192.227.121.151 1 1 31070 20190622151912
110.167.94.43 1 1 31075 20190614140015
2402:4000:11c4:c69e:e501:43e9:1130:7799 1 1 31059 20190629231155
123.231.57.178 1 1 31075 20190625171251
81.107.245.121 1 1 25275 20190615123539
66.249.87.92 1 1 31059 20190610070653
112.135.224.159 7 7 199767 20190618132945
113.140.249.60 1 1 31075 20190623214138
112.134.130.194 2 2 66252 20190611123902
4.53.111.66 2 2 62118 20190615034715
112.134.168.233 1 1 31059 20190622173356
54.70.150.172 1 1 31070 20190625085117
220.247.219.146 5 5 125419 20190625144154
112.134.225.124 1 1 31059 20190604152453
52.13.60.23 1 1 31055 20190603173950
120.92.72.99 1 1 31055 20190614080027
2402:4000:1081:a368:a0d4:1125:a3e2:e44 1 1 31059 20190605110517
112.134.144.245 5 5 155295 20190612153001
110.43.33.62 2 2 62150 20190624084233
112.134.38.4 4 4 113431 20190617160609
165.225.112.102 1 1 31059 20190613143649
23.249.168.122 1 1 31059 20190621145016
2402:4000:10c2:fb57:cdb1:3f0:eb3f:8f2c 1 2 41849 20190605172743
122.255.33.216 5 5 154506 20190613104132
178.171.108.134 1 1 31070 20190606083921
182.200.3.37 1 1 31075 20190613014528
43.241.40.200 1 1 31059 20190621091119
120.92.72.2 1 3 588915 20190614080029
2402:4000:2180:f8e9:c4c9:f038:adc:7e60 3 3 81548 20190619103734
112.135.239.46 1 1 31059 20190613161612
46.114.33.218 1 1 31059 20190610174141
112.134.96.27 1 1 37681 20190625150013
175.157.44.71 1 1 31075 20190601122552
79.58.8.225 2 2 62134 20190623224819
112.134.87.208 5 5 149975 20190619073440
95.244.156.118 1 2 33191 20190601120859
112.135.253.71 1 1 31075 20190617194035
141.98.100.94 3 3 109733 20190623072553
87.101.94.76 3 3 109841 20190614040336
2402:4000:2380:fb06:810d:93b6:475e:d67d 2 2 53846 20190611234738
3.0.163.208 2 2 62150 20190621091121
35.228.9.232 1 1 25572 20190604171101
103.227.246.190 3 3 99386 20190625091828
2402:4000:2380:ba7b:8457:72ec:e12d:2514 1 1 31059 20190622220240
175.157.203.22 2 2 56350 20190625150821
52.23.211.156 1 1 31070 20190608041643
54.187.63.218 1 1 31070 20190624094236
173.205.33.26 1 1 31059 20190616030512
188.166.116.151 2 2 62392 20190626043627
220.247.216.120 1 1 31059 20190605151948
37.229.197.42 2 2 83979 20190625002129
174.138.51.195 1 1 31075 20190603000334
175.157.21.77 2 2 53846 20190609200947
112.134.66.14 6 6 118220 20190614200108
124.43.18.225 1 1 31059 20190617144239
2402:4000:1380:794a:d583:d8eb:46:b222 1 1 28571 20190620131455
167.99.56.172 1 1 31074 20190606150602
123.231.125.104 1 1 31059 20190607184521
103.247.48.49 1 1 28571 20190619055844
138.197.4.214 1 1 31074 20190623225040
103.247.50.188 1 1 31059 20190607204047
106.45.0.249 1 1 31075 20190616115953
116.206.245.119 2 2 69437 20190620163232
45.115.191.166 1 1 31070 20190615235740
112.134.137.87 2 2 62118 20190608180032
175.157.138.31 1 1 31059 20190622143000
69.157.71.236 2 2 56334 20190604182442
112.134.225.87 6 6 166485 20190601122659
220.247.242.163 1 1 31059 20190619085116
112.135.255.163 2 3 99621 20190619102519
2402:4000:1380:70da:a4ba:cc98:9ca9:1262 4 4 110135 20190603135348
62.4.14.206 2 2 62110 20190624143508
112.134.48.86 1 1 31075 20190601084207
64.233.173.18 1 1 31059 20190604211726
2402:4000:1381:543a:1:0:88b0:9f67 3 6 360406 20190616113921
58.247.89.54 1 1 31059 20190614073315
136.243.50.137 1 1 31055 20190626151225
43.250.242.220 1 1 37681 20190619151057
220.247.212.141 4 4 131696 20190628125849
112.134.225.145 2 2 62118 20190609154336
61.245.161.148 1 1 31059 20190620215505
14.169.128.139 1 1 31070 20190604063345
203.81.99.131 1 1 31059 20190621105140
42.236.10.112 2 2 62129 20190610151546
175.157.29.107 2 3 67061 20190608124127
2402:4000:1380:a579:b0d6:5e2a:46c8:9206 1 1 31059 20190604163925
2402:4000:2380:f90c:2d7a:88a6:b5d8:fe3f 2 7 68885 20190624145618
61.245.169.217 1 4 537656 20190606104943
5.188.211.100 2 2 57142 20190628101732
79.69.164.46 2 3 68872 20190626092236
203.115.20.212 1 1 31059 20190626110739
43.250.240.165 1 1 31059 20190609170419
3.83.20.28 1 2 49159 20190617041714
66.249.81.253 1 1 31059 20190622093244
175.157.57.219 2 3 63768 20190619101908
43.250.243.221 1 1 25214 20190618130421
112.134.193.167 1 1 31059 20190626214101
94.249.2.177 1 1 31075 20190620172555
175.157.191.116 1 1 31059 20190620165905
66.249.88.76 1 1 31059 20190610003321
185.234.144.97 1 1 31070 20190627123436
37.211.206.207 1 5 196831 20190624170103
203.115.12.30 2 2 53785 20190604160752
198.27.124.169 3 4 94608 20190603054619
91.242.162.11 1 1 31055 20190627192933
2402:4000:1180:1adb:3cc5:34e3:4d3d:dbd9 1 1 25275 20190618224728
2402:4000:11c2:7756:201d:51b7:6ff5:54cc 1 1 31059 20190612120052
2402:4000:2081:b8a5:a995:3188:eb47:88f6 9 10 286135 20190608180056
185.244.212.11 5 6 157411 20190623141024
120.92.72.50 1 2 493626 20190614080029
139.99.218.30 1 1 31075 20190630053851
112.134.49.209 3 3 96683 20190626132448
68.183.61.71 1 1 31074 20190606170440
64.233.172.201 2 2 62905 20190606211239
2402:4000:1080:7eb8:449a:fbd8:b597:e164 1 1 31059 20190604175342
175.157.47.43 3 3 90689 20190608213817
112.135.238.244 3 3 79013 20190615093537
175.157.62.248 4 4 125851 20190618180957
2402:4000:2381:dfd6:5d4d:32b3:c00b:e589 5 5 127353 20190604212005
93.120.156.67 6 6 155664 20190607151337
2402:4000:2180:6ed6:998:14c4:33a5:e6f 4 4 85250 20190612210823
123.231.118.162 2 2 68756 20190604133313
112.134.210.203 6 6 176432 20190609230352
112.135.89.154 2 2 62118 20190604153102
3.16.48.15 2 3 65625 20190627234713
123.231.125.209 3 3 90705 20190609003608
45.32.199.75 1 1 31059 20190622062908
37.37.215.233 1 1 31059 20190625001002
2402:4000:11c4:b722:2:2:d369:31e5 13 13 306606 20190615090948
124.43.26.16 1 1 28571 20190604163411
123.231.112.150 1 1 25275 20190622072548
34.219.21.53 1 1 31070 20190621091030
2402:4000:2380:7f0:2ce1:7d18:3df9:cbef 10 10 300303 20190614211719
2402:4000:2181:61a4:1c6:941c:9125:3a9d 5 9 437186 20190611214010
61.245.161.114 2 2 62118 20190607135405
112.134.114.11 1 1 31059 20190625082724
112.134.85.216 1 1 31059 20190619214949
111.202.101.88 0 5 166571 
2405:204:d002:4540:60a2:47d8:83de:ddb0 2 2 50550 20190602123313
2402:4000:1380:9cdc:cc00:9d14:7b63:e0c8 1 1 31059 20190616230454
120.92.72.246 1 1 31055 20190614080028
175.157.32.198 1 1 6129 20190630233123
2402:4000:1181:13e5:a984:653c:fec0:d9a4 3 3 90276 20190619200657
125.209.235.185 1 1 31059 20190629043236
104.222.43.137 1 1 31055 20190614071700
94.207.129.218 4 8 180320 20190630235857
185.161.200.11 6 6 172253 20190605195421
2402:4000:1081:1364:81fe:1f0c:bbdc:cfcf 4 7 624035 20190604102550
23.239.180.180 1 1 31055 20190616112709
61.245.169.66 7 7 197410 20190607151728
34.201.42.237 1 1 37676 20190618041719
66.249.89.166 1 1 31075 20190613025824
104.222.43.245 1 1 31055 20190615034733
165.225.76.190 3 3 43327 20190615062832
123.176.16.220 5 5 131931 20190625161048
2402:4000:1380:1f7e:4cf1:300f:fd15:b682 2 2 56334 20190625151258
112.135.4.226 1 1 31059 20190606151914
112.134.144.182 1 1 31059 20190612085734
2402:4000:1380:7c76:4ccb:6f51:8195:58a1 1 2 125621 20190625141903
2402:4000:2081:e6ff:a56d:e67c:2e62:240e 3 3 90689 20190608215946
34.221.50.20 1 1 31055 20190629194233
112.134.99.139 1 1 31075 20190606104723
112.134.38.35 1 1 31059 20190616181802
40.107.232.38 1 1 31059 20190615171646
2402:4000:2181:81c9:d07f:febf:cfca:1f98 1 1 31059 20190625103058
43.250.241.104 7 34 1972945 20190610142201
2402:4000:13c3:e60d:1:0:e3da:ac8d 1 3 69369 20190627192819
175.157.198.146 1 1 31059 20190614075621
31.205.84.229 1 1 31059 20190618224250
203.94.69.162 2 2 68756 20190604130056
51.68.84.161 3 3 93165 20190608134932
2a03:2880:21ff:17::face:b00c 0 4 69957 
112.134.227.85 0 10 214347 
2402:4000:1081:8754:4d56:d5ae:6a8a:a973 2 2 68740 20190611144419
123.231.120.154 3 3 84844 20190602004154
43.250.242.166 5 6 146121 20190612054304
220.247.234.180 1 1 31075 20190619141613
2a03:2880:30ff:12::face:b00c 1 1 31055 20190627130426
23.226.211.27 1 1 31055 20190618091016
93.36.168.172 3 3 99799 20190618062149
34.218.232.11 1 1 31070 20190601112644
61.245.160.186 7 7 228946 20190617161012
112.134.144.146 2 2 68740 20190619163308
18.237.24.244 1 1 31055 20190619200344
192.3.15.120 2 2 62110 20190613033417
41.212.67.32 2 2 68740 20190621210742
77.67.54.60 1 1 31059 20190615090932
142.93.69.194 13 27 1175164 20190610125335
2402:4000:1081:6641:141d:c0ef:6fda:4a0d 2 6 102680 20190607101547
173.205.33.19 1 1 31059 20190614110102
103.21.165.87 1 1 25275 20190614022319
104.199.114.206 1 1 31059 20190610045305
112.134.7.108 12 13 525981 20190620120700
2402:4000:2182:49db:c9be:2184:493e:bb92 1 1 31059 20190618120659
212.112.93.5 1 1 31055 20190602005957
2402:d000:a200:28c5:d8f9:a66f:ad0c:c734 1 1 25275 20190606164700
112.135.8.163 1 2 22483 20190612204921
112.134.70.32 2 2 68756 20190603092358
2a00:23c0:4701:7900:b01e:ccc2:bedb:c021 0 3 39745 
46.242.58.48 1 1 31059 20190629031725
23.226.211.126 1 1 31055 20190617090617
61.245.170.144 2 8 150657 20190606114902
23.226.211.60 1 1 31055 20190613133000
111.224.234.183 1 1 31075 20190609195837
112.134.69.230 1 1 37681 20190625141158
185.156.173.249 2 2 77951 20190601230759
46.118.158.143 2 2 62118 20190623085619
81.40.154.130 1 1 31070 20190630214022
120.92.72.116 0 1 29113 
175.157.17.224 1 1 31059 20190628091741
112.134.104.118 1 1 37681 20190628213534
112.135.226.61 4 4 116741 20190619093958
112.134.195.92 1 1 31075 20190604180431
209.222.82.161 1 1 31059 20190604144243
54.213.31.164 1 1 31070 20190627055406
220.247.212.35 6 6 188062 20190604132521
104.248.2.46 1 1 31074 20190606161459
220.247.238.143 1 1 37681 20190625163351
66.249.93.92 1 1 31059 20190618224648
123.231.116.90 1 2 11396 20190617085631
103.246.38.196 4 4 124300 20190621105141
51.158.120.6 2 2 62110 20190618003302
112.134.227.95 9 9 267834 20190620114226
5.34.240.23 1 1 38378 20190613090054
104.222.43.166 1 1 31055 20190612201004
185.230.127.186 3 3 109758 20190628002508
93.188.155.13 2 2 62140 20190613080343
112.134.66.194 1 1 37681 20190619134624
2402:4000:1081:6f1e:5d2:6ef2:29bc:a1d9 1 2 31337 20190606071031
122.255.9.131 1 1 25275 20190618095830
2001:8003:5c46:9000:745c:39b:97b:6878 3 3 90721 20190616080432
112.134.17.167 3 3 99799 20190603165037
61.245.171.103 4 4 104227 20190606214059
205.153.155.96 1 1 31059 20190621130702
23.239.180.247 0 1 3481 
173.205.33.25 1 1 31059 20190616173843
123.231.123.239 8 8 245110 20190629122434
123.231.104.224 2 2 62118 20190624175418
54.153.25.194 1 1 31075 20190606093506
175.157.38.172 3 3 75825 20190608211922
123.231.15.40 3 3 91480 20190604155536
175.157.184.71 1 1 37681 20190612210200
103.21.166.67 1 1 31059 20190614022151
116.203.22.185 4 4 124280 20190618070338
138.197.104.18 1 1 31074 20190602091537
140.82.10.185 1 1 31055 20190622005552
123.231.84.197 2 2 62118 20190607220431
110.177.85.85 1 1 31075 20190611000236
2402:4000:1080:d8c2:bd6a:789c:2334:4611 2 2 59646 20190604154751
203.115.28.100 1 1 31059 20190610083652
34.217.191.232 1 1 31070 20190610083917
104.222.33.101 1 1 31055 20190612162812
116.206.247.99 4 7 151740 20190617104917
2400:cb00:36:1034::a29e:44d0 0 4 63830 
175.157.166.199 1 1 31059 20190625202527
175.157.16.171 2 2 53785 20190604154242
60.191.38.77 2 2 62140 20190605154955
111.223.163.5 1 1 31059 20190613193243
2402:4000:1180:ce4f:94dd:4ee3:6196:a5a4 1 2 31337 20190627120342
2402:4000:1080:5a18:cd74:4940:85bf:9189 2 5 340790 20190609080153
112.135.10.177 2 2 66252 20190626160935
111.223.161.56 3 3 94333 20190610125742
54.244.158.39 1 1 31070 20190619080717
66.102.6.216 1 4 68914 20190621101310
111.223.167.230 1 1 31059 20190626231719
2402:4000:11c3:bab5:931:6ff8:d401:234f 1 1 31075 20190614131916
66.240.236.119 1 1 31055 20190606024730
222.94.195.109 1 1 31075 20190627040155
23.239.180.202 1 1 31055 20190615154229
112.134.211.62 7 7 222068 20190621124715
1.202.113.93 1 1 31075 20190622023751
54.213.53.28 1 1 31070 20190610071756
43.250.240.70 1 1 37681 20190605210534
61.245.170.212 1 1 31059 20190606202644
175.157.44.169 4 4 112562 20190614085508
174.127.188.38 1 1 31059 20190628084558
54.191.125.227 1 1 31070 20190612071421
203.81.101.186 2 2 62118 20190618130307
2402:4000:2381:9e85:e8d8:737d:afe0:8b3f 1 1 31059 20190604203530
175.157.6.67 1 1 37681 20190605204739
112.134.97.48 2 2 68740 20190617091255
120.92.72.66 1 1 28555 20190614073321
43.250.243.5 2 2 31404 20190617160004
2402:4000:1180:8cb0:2db7:b118:89a:74c2 1 1 25577 20190625203138
175.157.47.190 5 5 146702 20190604205052
112.135.242.72 3 3 98008 20190618132509
34.221.42.202 1 1 31070 20190608123204
115.96.140.29 1 1 31059 20190622205816
175.157.193.242 2 2 50550 20190626191845
112.134.192.72 5 9 653291 20190613195359
112.135.193.100 1 1 31059 20190625172759
160.20.147.212 1 1 31055 20190613052139
175.157.36.110 4 4 119306 20190606225551
34.67.216.211 1 1 31055 20190624225929
2402:4000:2081:843b:f1bc:99f9:8f4d:724d 2 2 53785 20190601194123
64.233.172.203 1 2 60924 20190604161816
2402:4000:1181:2b24:392c:5a4b:1b89:9ac0 1 1 25275 20190622115759
172.56.7.76 0 1 3007 
112.134.128.161 1 1 31059 20190618221528
138.197.64.43 15 15 409150 20190629090020
2402:4000:1380:1b43:8154:e9ca:899c:c1d2 2 2 66252 20190604155316
38.130.169.233 1 1 31059 20190619124603
54.202.108.189 1 1 31070 20190611111034
138.197.111.120 1 1 31059 20190628070129
4.53.111.75 1 1 31059 20190613003809
51.77.40.81 2 2 62140 20190612164626
202.186.84.83 3 3 87393 20190619140024
61.245.169.21 1 11 228149 20190622090014
35.247.80.163 1 1 31059 20190617045700
175.157.32.16 2 2 56273 20190620080447
122.255.37.194 12 12 349511 20190617161329
112.135.239.245 1 1 31059 20190612154509
43.250.243.114 3 3 84905 20190611184722
2402:4000:2380:723d:393f:f0df:d9fc:5d28 2 15 770931 20190611121638
64.233.172.209 3 3 93177 20190619172507
112.134.208.196 1 1 31059 20190623151633
175.157.192.172 2 2 50428 20190612143623
2400:cb00:36:1047::a29e:42c7 0 1 538 
112.134.195.4 5 5 106220 20190614122152
2402:d000:a200:2389:6087:59dd:392c:713b 4 4 108976 20190621231228
43.250.242.149 1 1 31059 20190605071451
175.157.42.157 1 1 31059 20190615083313
112.134.131.18 1 1 31059 20190625160544
159.203.100.183 13 27 1086275 20190626000225
2402:d000:a000:44ea:18e2:260e:d0b5:6977 1 1 28571 20190620211836
2600:1f18:234b:7202:4b37:96f9:57e6:1d2f 1 1 31059 20190611202015
18.237.173.28 1 1 31070 20190603101331
112.134.136.71 7 7 204739 20190604150705
23.233.33.138 1 1 31059 20190613220256
112.134.82.192 1 1 31059 20190606112641
123.231.14.218 1 1 25275 20190606134448
82.132.239.159 9 15 503748 20190615080759
43.250.240.82 1 2 44386 20190616224644
220.247.219.10 1 1 37681 20190610185124
54.214.215.191 1 1 31070 20190619112412
112.134.210.125 6 6 178842 20190604152317
112.134.98.45 1 1 31059 20190627094430
209.222.82.158 1 1 31059 20190604144123
2402:4000:2181:765f:2444:656a:1739:9b6a 1 1 31059 20190613193022
113.59.221.9 2 2 62134 20190612150706
104.244.158.127 1 1 31059 20190619070501
34.212.121.214 1 1 31070 20190618082736
123.231.111.159 3 3 93177 20190617173541
66.249.83.219 0 1 538 
112.135.224.72 13 13 402842 20190621161819
112.134.158.210 1 1 37681 20190606115255
167.114.90.33 4 10 316945 20190603054309
178.162.203.101 3 3 109651 20190626035658
175.157.163.60 5 9 150636 20190613174714
43.250.243.41 3 3 93177 20190618111717
123.231.59.122 4 4 119306 20190625150713
2402:4000:2180:734e:ac76:1394:5d3b:5936 3 3 91466 20190617144527
66.249.93.66 2 2 62118 20190618230045
113.59.210.178 4 4 110196 20190619222654
123.231.120.69 2 2 59646 20190604154215
120.92.72.220 0 1 95933 
112.134.96.117 1 1 31059 20190607174823
46.119.113.218 5 5 155295 20190614025107
112.134.56.41 8 8 233637 20190612163307
175.157.36.200 7 7 237643 20190617174447
112.134.96.198 3 3 98008 20190613175217
112.135.233.186 3 3 90705 20190621141040
220.200.165.33 1 1 31075 20190614073323
111.223.163.234 3 3 100637 20190601183928
112.134.136.88 2 2 62118 20190608111741
115.198.201.120 1 1 31075 20190630231628
34.213.162.10 1 1 31055 20190628194551
159.203.172.137 1 1 31075 20190606164006
66.249.83.200 1 1 31059 20190628120013
112.135.11.41 2 2 56350 20190604225650
58.72.56.145 1 1 31059 20190602175702
2402:4000:1080:779:3919:281c:9ffa:24d2 2 4 91728 20190601145122
2402:4000:13c5:518e:1:0:b816:5d19 1 1 31059 20190619144102
175.157.47.31 8 8 220197 20190604212822
142.93.190.128 1 1 31070 20190615010158
142.93.78.12 1 1 31059 20190623215559
111.224.235.71 1 1 31075 20190618155406
2400:cb00:36:1013::a29e:4793 0 1 20219 
175.157.205.80 2 2 56273 20190616094255
112.134.232.33 1 1 31059 20190605132243
175.157.28.247 1 1 31059 20190605110531
178.137.18.250 1 1 31059 20190614181734
95.154.200.153 3 3 108835 20190622004842
112.134.209.196 1 1 31059 20190605113234
138.197.111.124 1 1 31074 20190619185049
43.250.240.137 1 1 28571 20190616202040
112.134.150.15 1 1 31059 20190610115543
175.157.45.32 1 1 31059 20190626114534
2402:4000:1181:46d2:a818:e1f9:1a0e:6c72 1 1 31059 20190625232334
121.57.226.220 1 1 31075 20190617071852
18.217.143.113 2 3 65625 20190630183040
112.134.84.35 1 1 28571 20190608113412
54.71.100.150 1 1 31070 20190604073632
112.134.32.225 1 1 31059 20190611234655
185.230.127.163 3 3 110015 20190605112542
123.231.104.29 2 2 62118 20190622110617
116.206.245.207 1 1 31059 20190620164015
116.252.0.250 1 1 31075 20190612065544
112.135.246.222 1 1 31059 20190619090405
182.161.15.16 1 1 37681 20190606140005
54.251.135.115 1 1 31075 20190606150727
112.135.6.31 2 2 62134 20190609083808
121.57.225.146 1 1 31075 20190614185217
206.206.102.115 1 1 31059 20190621054239
123.231.119.91 2 2 37204 20190605121457
123.231.25.106 3 3 81712 20190605121033
75.126.32.182 1 1 31055 20190605212128
61.245.170.235 1 1 31059 20190621122713
23.226.211.233 1 1 31055 20190617181156
182.138.163.54 1 1 31075 20190613044449
54.36.91.25 1 1 31070 20190612051017
112.134.157.255 5 5 153661 20190604145649
2402:4000:1181:3481:e13a:5668:804c:4677 1 1 6129 20190626085120
123.231.115.7 4 4 129844 20190612153246
113.59.211.17 2 2 68740 20190626170450
99.224.81.58 2 2 59646 20190626233829
54.191.242.93 1 1 31070 20190605083011
112.5.248.221 1 1 31075 20190616231136
2400:cb00:36:1033::a29e:4492 0 1 8188 
124.43.74.136 3 3 18405 20190604150210
162.158.68.146 0 1 2136 
123.231.46.123 1 1 37681 20190604160407
202.69.200.82 5 5 141133 20190626081700
64.233.172.194 1 1 31059 20190609182208
34.216.129.244 1 1 31070 20190607093553
112.134.128.55 6 7 147912 20190601222508
66.249.83.84 1 1 31059 20190624210110
42.236.10.71 1 1 31070 20190617231452
43.250.243.12 1 1 25275 20190609121737
124.43.17.205 2 2 68740 20190617094751
165.227.222.39 12 25 1052014 20190625230201
112.134.6.195 1 1 31059 20190616210107
54.189.186.198 1 1 31055 20190609152029
142.93.77.241 14 25 1081575 20190601060005
178.140.32.165 1 1 31075 20190603083358
123.231.116.1 1 1 31059 20190619163837
5.253.204.9 3 3 109843 20190617001526
209.222.82.128 2 2 62118 20190604144351
112.135.103.230 3 3 94015 20190621083824
42.236.10.105 2 2 62129 20190618155357
205.153.155.68 1 1 31059 20190619035245
2402:4000:2182:586:bcf5:3b8d:a6e4:7ee6 0 1 20219 
112.134.133.250 3 3 81258 20190605162656
34.213.58.254 1 1 31070 20190626083723
5.100.199.224 2 2 62118 20190604200033
23.226.211.127 0 1 3481 
2402:4000:1081:a577:f462:de38:aa73:85c 0 2 4277 
123.126.113.99 2 2 48048 20190627070334
2a02:c7d:4ad:7e00:3c8b:c40b:9987:7b61 2 2 59646 20190624203956
46.246.41.23 1 1 31059 20190612074900
112.135.84.158 3 3 93461 20190608143153
2402:4000:1381:3be6:c69:2801:18aa:eb7b 1 1 25275 20190619074830
112.135.2.220 5 9 413469 20190627202059
112.134.45.169 1 1 31059 20190609202311
82.102.21.117 2 2 77807 20190606134353
123.231.85.8 1 1 28571 20190607072117
222.94.163.72 1 1 31075 20190629205232
123.231.69.197 1 1 31059 20190612130329
2400:cb00:36:1001::a29e:4515 1 3 140970 20190616193508
144.76.100.144 1 1 31059 20190612173646
123.231.121.173 1 1 31059 20190606073554
175.157.92.117 2 2 62956 20190606141007
2402:4000:13c0:66dd:618b:3f57:4f1a:9cc 1 1 38378 20190619150108
162.158.68.144 12 58 1929344 20190624014224
42.236.10.73 1 1 31059 20190617155030
2600:1f14:b62:9e03:bdb0:ec01:95ff:dbd5 1 1 31059 20190619210151
180.163.220.47 1 1 31070 20190614131906
203.94.70.158 1 1 31059 20190629135407
112.135.249.223 2 2 37188 20190625141330
118.27.11.99 1 1 31055 20190616000305
112.134.140.113 4 4 112239 20190608113446
43.250.240.189 2 3 70420 20190623195411
34.227.159.128 1 1 31070 20190625041752
107.6.169.250 1 1 31070 20190606113058
61.166.192.81 1 1 31075 20190615231352
23.100.232.233 2 2 57142 20190616141328
54.70.140.148 1 1 31055 20190629040442
2402:4000:1180:3de9:601d:9c24:f9c2:b7b7 2 2 68740 20190613132358
36.5.183.12 1 1 31075 20190627070329
112.134.137.101 2 2 62895 20190604164510
112.134.69.210 1 1 28571 20190620193952
2402:4000:2181:969c:659f:d3e3:a52b:6970 1 1 31059 20190614000003
203.94.95.4 4 4 125254 20190619184846
124.43.65.165 1 1 37681 20190606134029
31.184.194.114 12 12 372660 20190613232310
54.37.4.79 1 1 31075 20190611065158
82.178.118.123 4 4 104335 20190601032400
2402:4000:1380:99e3:d1de:c440:aef9:bb3a 2 2 56334 20190612065818
51.254.101.95 1 1 31059 20190612173549
112.134.68.57 1 1 31059 20190625162826
178.137.161.103 2 2 62118 20190630020857
113.59.200.205 4 4 85189 20190604151122
216.244.78.34 2 2 76756 20190608191832
124.43.17.182 2 2 68756 20190604151945
2600:1f14:b62:9e02:d9c9:18b0:d7ac:b923 1 1 31059 20190605090133
124.43.19.248 1 1 6129 20190615090147
3.84.23.246 1 1 31059 20190603204826
2402:4000:2180:313d:e4b2:40f7:73d0:42ab 1 1 31059 20190604215133
101.2.182.195 2 2 59646 20190608191907
112.134.83.168 2 2 50428 20190612154559
122.255.3.58 4 4 119243 20190618081746
203.143.41.130 1 1 25214 20190613093105
123.231.44.93 3 3 88231 20190628122613
61.245.171.5 8 9 545014 20190614202352
185.130.184.229 1 1 39417 20190606135412
112.134.192.247 6 6 184752 20190615193634
52.95.75.24 1 1 31059 20190608142015
123.231.92.115 5 21 846896 20190624085356
3.89.90.10 4 4 114918 20190613041707
111.223.148.232 1 1 31059 20190627220739
77.67.54.51 1 1 31059 20190615145723
64.246.165.190 1 1 31074 20190620174350
122.255.8.82 4 4 125045 20190621110316
113.59.203.218 1 2 31175 20190604105436
2600:1f18:234b:7202:9d32:f469:ea58:6d53 1 1 31059 20190613040821
203.94.73.141 7 7 214779 20190610133359
66.249.83.204 2 4 101067 20190610151835
120.92.72.185 1 1 25212 20190614073321
54.244.67.156 1 1 31055 20190620191233
112.134.103.97 5 5 141194 20190605231405
106.47.41.97 1 1 31075 20190626203429
112.134.38.126 2 2 56334 20190625073758
112.134.130.73 1 1 37681 20190609081752
23.239.180.231 1 1 31055 20190626170009
112.135.91.128 2 2 68756 20190612162443
23.27.144.26 1 1 31059 20190620073159
154.16.56.162 1 1 31055 20190613090622
91.242.162.20 2 2 62114 20190628163731
206.180.165.147 1 1 31070 20190603105944
222.165.139.191 1 1 37681 20190614075123
2402:4000:2381:85c:e973:d4b4:340a:6f9b 5 5 150349 20190618232408
180.163.220.125 1 1 31070 20190609202455
70.42.131.189 1 3 130308 20190628001511
123.231.15.146 5 6 156265 20190612144838
2402:4000:1080:132f:3889:dba7:f582:3ab1 1 1 31059 20190610202011
209.222.82.146 1 1 31059 20190604152825
23.27.144.125 1 1 31059 20190619012735
43.250.243.45 2 16 1032618 20190618223558
112.134.2.188 1 1 31059 20190605153412
112.134.160.157 2 2 59630 20190619113531
61.245.171.116 11 15 818569 20190608112922
2402:4000:1181:31a6:65f3:c068:cc57:ac71 1 1 31059 20190618164234
220.247.240.149 4 4 123299 20190618134041
216.218.212.243 1 1 31059 20190624110010
2401:5f80:5001:3:2000::215 0 1 3481 
203.115.20.226 5 5 159477 20190614172134
2400:cb00:36:1002::a29e:4035 1 2 127003 20190621144638
4.53.111.72 1 1 31059 20190615050549
35.157.32.153 1 1 31075 20190607135754
124.43.16.170 1 1 31075 20190612130433
112.134.7.16 1 1 31059 20190604224900
64.233.173.14 11 11 341649 20190629101105
122.49.28.45 1 1 31059 20190621125957
124.43.16.168 9 9 256160 20190605163732
113.102.214.14 2 2 62140 20190605020517
175.142.41.87 3 3 93177 20190612043251
2402:4000:2181:4f09:d44c:15a7:dad7:cca0 1 1 31059 20190619110435
2402:4000:1380:6787:b97f:793c:abc7:71e4 11 11 321382 20190620135605
59.163.251.58 13 13 341702 20190625191424
46.119.123.228 1 1 31059 20190623074039
61.245.169.177 3 4 93058 20190615084614
203.115.19.66 5 5 159623 20190606114659
185.234.219.246 1 1 31070 20190606000911
124.43.12.228 6 6 165531 20190620083009
36.27.66.123 1 1 31059 20190624165703
110.177.75.26 1 1 31075 20190607143140
38.130.161.39 1 1 31059 20190621080523
34.216.130.225 1 1 31055 20190627152429
175.157.42.32 3 3 93177 20190619105336
112.134.210.150 1 1 31075 20190624213018
4.53.111.69 1 1 31059 20190614042159
79.155.91.112 1 1 28571 20190604153904
64.202.160.250 9 9 256157 20190618151242
221.11.20.171 1 1 31075 20190617102449
175.157.99.16 1 1 31059 20190609165643
178.162.192.10 3 3 96667 20190625183808
112.134.130.152 5 5 137943 20190611221251
45.55.197.32 1 1 31074 20190628075934
112.134.37.26 8 8 246582 20190601103423
112.134.38.108 4 4 103115 20190611231314
112.135.192.188 5 7 396535 20190621095646
66.249.83.83 2 2 62118 20190626201636
4.53.111.71 1 1 31059 20190615105850
138.197.202.197 1 1 31075 20190610201608
43.228.108.60 3 3 81609 20190606195556
2402:4000:2081:9fac:608c:afea:2f09:757e 1 1 31059 20190614154754
111.223.130.173 2 2 37188 20190625173148
38.130.167.223 1 1 31059 20190621072929
61.245.171.52 1 1 28571 20190620091538
80.84.57.112 1 1 31055 20190626064707
2a01:4c8:102e:7d80:d490:bfc3:bfb7:9788 1 1 31059 20190620002214
2402:4000:1080:90a2:451a:fb83:2bdf:d12a 0 1 278 
61.245.170.214 2 2 56334 20190613173635
165.225.112.74 4 4 116741 20190613113916
34.220.250.158 1 1 31070 20190629081223
23.27.153.17 1 1 31059 20190619095943
35.184.237.106 2 2 62140 20190616085211
175.157.187.11 1 1 31059 20190605122646
43.250.241.23 5 5 142016 20190618112850
45.55.252.15 12 27 1052035 20190620211945
112.134.209.107 1 2 37797 20190619143716
23.226.211.97 1 1 31055 20190613070547
112.134.65.189 4 4 112684 20190627065909
2402:4000:2181:bc23:b87e:7916:44fa:f0d9 4 16 846015 20190613131903
45.55.238.74 13 28 1178366 20190620222940
112.134.48.16 2 2 68740 20190610112342
14.102.18.150 1 1 31055 20190622213539
77.67.54.52 1 1 31059 20190615095226
182.138.214.249 1 1 31075 20190608031852
171.34.178.86 1 1 31075 20190607063403
46.249.59.91 2 2 38381 20190618021838
197.231.179.186 3 4 92336 20190616125956
112.134.140.167 1 1 31059 20190606120342
117.26.240.209 10 10 299689 20190617133905
42.236.10.74 1 1 31059 20190601115754
220.247.247.122 10 10 247446 20190625141054
112.134.64.226 3 3 77915 20190604153853
2402:4000:2381:8e6e:c431:5722:942f:aaef 7 11 220363 20190628204456
END_VISITOR

# Date - Pages - Hits - Bandwidth - Visits
BEGIN_DAY 30
20190601 121 159 5454758 42
20190602 64 114 3212683 24
20190603 91 103 3354367 37
20190604 332 464 16624937 133
20190605 183 240 7963608 69
20190606 136 234 10796314 77
20190607 119 132 4169103 44
20190608 85 103 3580878 41
20190609 104 157 5191566 41
20190610 103 170 6652509 40
20190611 80 160 9432336 31
20190612 137 146 4114365 69
20190613 180 547 30793230 67
20190614 179 211 6828701 74
20190615 114 152 4867748 51
20190616 176 284 9591626 55
20190617 213 341 17514097 61
20190618 219 237 7350391 73
20190619 134 228 9329711 66
20190620 126 171 5993511 56
20190621 99 116 4109398 46
20190622 71 83 2309360 33
20190623 55 80 3286455 31
20190624 80 188 6691389 36
20190625 170 361 17358787 67
20190626 111 143 4834377 49
20190627 60 79 2174004 31
20190628 54 77 2514216 39
20190629 62 65 1801860 21
20190630 47 81 2079831 15
END_DAY

# Session range - Number of visits
BEGIN_SESSION 7
1h+ 5
30s-2mn 169
15mn-30mn 18
0s-30s 1167
30mn-1h 11
5mn-15mn 57
2mn-5mn 92
END_SESSION

# URL - Pages - Bandwidth - Entry - Exit
# The 25 first Pages must be first (order not required for others)
BEGIN_SIDER 64
/ 1440 44700721 1149 927
/gallery 343 12924203 66 143
/location 324 8188859 62 90
/accommodation 299 8542449 71 94
/promotions 283 7135192 48 68
/contact-us 159 5856483 34 56
/facilities/restaurant 122 3077405 5 16
/assets/360/lobby-home.html 96 588384 35 21
/facilities/room-service 84 2025369 2 8
/facilities 83 2317541 6 7
/about-us 74 1777531 11 14
/downloads 33 843841 3 5
/index.php 31 963202 8 10
/privacy-policy 31 916492 1 14
/assets/360/stephan_suite-home.html 29 178031 0 4
/assets/360/reinhart_room-home.html 29 177973 1 5
/terms-and-conditions 29 922830 1 6
/assets/360/molly_suite-home.html 23 141197 2 5
/contact-us/ 22 665841 12 12
/assets/360/lobby/Output0.xml 15 45795 0 3
/assets/360/lobby/Output.xml 15 65820 0 0
/assets/360/reinhart_room/build.xml 9 37809 0 0
/assets/360/molly_suite/build.xml 9 37809 0 0
/assets/360/stephan_suite/build0.xml 9 26721 0 0
/assets/360/molly_suite/build0.xml 9 27702 0 3
/facilities/terms-and-conditions 4 125740 0 1
/accommodation/ 1 28555 0 0
/downloads.php 7 178918 1 2
/gallery/ 2 75330 1 0
/sitemap.xml 1 2475 0 0
/bar.php 1 27098 0 0
/privacy-policy/ 1 29556 0 1
/promotions/ 1 25198 0 0
/assets/360/lobby/Output.swf 4 476124 0 0
/index.php/component/users/ 2 62140 0 0
/location.php 1 13435 0 0
/facilities/promotions 2 46546 0 0
/assets/360/reinhart_room/build.swf 1 119092 0 0
/assets/360/molly_suite/build.swf 5 594595 0 0
/cont_pop.html 6 8808 0 0
/promotions.php 2 50396 0 0
/map_pop.html 5 6645 0 0
/terms-and-conditions/ 1 31814 0 0
/about-us.php 1 24008 0 0
/facilities.php 2 55822 0 0
/accommodation.php 5 142819 0 0
/facilities/about-us 4 94764 0 0
/restaurant.php 2 55170 0 1
/about-us/ 1 24008 0 0
/gallery.php 2 75330 0 0
/index.php/video/login 1 31070 0 1
/index.php/api/Uploadify/preview 1 31059 0 1
/facilities/privacy-policy 4 116720 0 1
/assets/360/reinhart_room/build0.xml 9 26379 0 0
/facilities/ 1 27911 0 0
/assets/360/stephan_suite/build.xml 9 37872 0 0
/assets/360/stephan_suite/build.swf 4 475448 0 0
/room-services.php 2 51656 0 0
/downloads/ 1 25561 0 0
/contact-us.php 1 38362 0 0
/facilities/accommodation 2 54000 0 0
/facilities/facilities 2 52912 0 0
/facilities/downloads 2 46852 0 0
/facilities/location 2 50518 0 0
END_SIDER
